Black-footed Albatross
2803007 39466
2003-02-06,09:47,22.088,-166.416,
2003-02-06,10:04,22.092,-166.428,
2003-02-06,13:34,21.873,-166.55,
2003-02-08,00:40,23.868,-166.28,
2003-02-08,03:59,23.866,-166.279,
2003-02-08,19:01,23.867,-166.294,
2003-02-09,04:54,23.874,-166.277,
2003-02-09,06:11,23.873,-166.269,
2003-02-09,08:39,23.869,-166.298,
2003-02-09,13:02,23.869,-166.284,
2003-02-09,16:58,23.872,-166.29,
2003-02-09,17:26,23.87,-166.298,
2003-02-09,21:06,23.865,-166.277,
2003-02-09,21:53,23.872,-166.289,
2003-02-10,00:18,23.864,-166.307,
2003-02-10,03:10,23.863,-166.282,
2003-02-10,08:18,23.873,-166.285,
2003-02-10,09:10,23.868,-166.297,
2003-02-10,12:48,23.868,-166.28,
2003-02-10,15:35,23.871,-166.28,
2003-02-10,20:42,23.876,-166.305,
2003-02-10,22:21,23.86,-166.29,
2003-02-11,00:03,23.844,-166.302,
2003-02-11,00:06,23.859,-166.275,
2003-02-11,05:26,23.872,-166.285,
2003-02-11,12:37,23.876,-166.287,
2003-02-11,16:51,23.871,-166.292,
2003-02-11,17:52,23.871,-166.287,
2003-02-11,18:41,23.865,-166.277,
2003-02-11,21:26,23.866,-166.286,
2003-02-11,23:55,23.878,-166.316,
2003-02-12,05:02,23.878,-166.281,
2003-02-12,05:03,23.878,-166.281,
2003-02-12,09:13,23.872,-166.288,
2003-02-12,14:06,23.863,-166.287,
2003-02-12,16:26,23.868,-166.274,
2003-02-12,19:06,23.855,-166.277,
2003-02-13,10:08,20.331,-165.501,
2003-02-13,16:02,19.684,-165.258,
2003-02-14,13:46,21.572,-167.665,
2003-02-14,15:38,21.724,-167.758,
2003-02-15,05:32,23.413,-167.707,
2003-02-17,08:59,17.324,-167.045,
2003-02-17,21:45,19.54,-167.888,
2003-02-18,09:00,21.097,-168.537