Black-footed Albatross 
2802001 39466
2002-12-16,09:15,23.855,-166.322,
2002-12-16,13:10,23.874,-166.302,
2002-12-16,18:25,23.853,-166.239,
2002-12-16,22:50,23.888,-166.297,
2002-12-17,08:53,23.868,-166.281,
2002-12-17,10:04,23.873,-166.284,
2002-12-17,18:02,23.866,-166.292,
2002-12-17,21:18,23.864,-166.3,
2002-12-18,08:30,23.871,-166.281,
2002-12-18,12:48,23.872,-166.29,
2002-12-18,15:45,23.868,-166.296,
2002-12-18,17:39,23.868,-166.295,
2002-12-18,20:57,23.876,-166.31,
2002-12-18,22:21,23.869,-166.294,
2002-12-19,00:04,23.864,-166.291,
2002-12-19,00:05,23.862,-166.292,
2002-12-19,04:50,23.876,-166.292,
2002-12-19,08:08,23.861,-166.303,
2002-12-19,18:14,23.875,-166.283,
2002-12-21,05:42,26.163,-158.779,
2002-12-21,16:29,25.729,-159.031,
2002-12-23,04:59,27.617,-156.75,
2002-12-24,04:15,28.605,-158.177,
2002-12-24,06:15,28.716,-158.444,
2002-12-25,05:50,32.544,-161.462,
2002-12-25,07:35,32.529,-161.416,
2002-12-25,21:36,35.234,-163.403,
2002-12-25,22:22,35.267,-163.983,
2002-12-26,08:06,35.146,-164.752,
2002-12-26,10:33,35.406,-165.072,
2002-12-26,18:22,36.437,-165.941,
2002-12-27,05:06,35.634,-167.904,
2002-12-27,12:47,35.592,-167.95,
2002-12-27,17:26,35.621,-168.054,
2002-12-27,23:35,35.765,-167.973,
2002-12-28,06:22,36.375,-169.25,
2002-12-29,06:00,35.871,-167.814,
2002-12-29,09:27,35.712,-167.876,
2002-12-30,05:34,35.74,-167.758,
2002-12-30,08:48,35.7,-167.724,
2002-12-30,12:12,35.697,-167.922,
2002-12-31,10:14,35.904,-167.827,
2002-12-31,22:42,35.863,-167.574,
2003-01-01,06:28,35.564,-167.752,
2003-01-01,08:17,35.563,-167.778,
2003-01-01,09:59,35.571,-167.794,
2003-01-01,10:02,35.565,-167.752,
2003-01-02,00:54,35.525,-167.846,
2003-01-02,09:35,35.782,-167.819,
2003-01-03,23:14,35.191,-169.626,
2003-01-04,05:48,35.313,-170.523,
2003-01-04,06:59,35.266,-170.559,
2003-01-04,14:36,35.06,-170.863,
2003-01-05,16:48,26.268,-170.835,
2003-01-05,18:02,25.899,-170.649