Blue Whale
2204016 10825
2004-08-19, 23:44,  37.532,  -123.332,
2004-08-20, 02:16,  37.674,  -123.122,
2004-08-20, 02:34,  37.752,  -122.773,
2004-08-20, 15:17,  37.712,  -123.141,
2004-08-20, 23:07,  37.506,  -122.606,
2004-08-22, 02:11,  37.9,  -123.355,
2004-08-22, 12:52,  37.593,  -123.865,
2004-08-22, 15:27,  37.764,  -123.164,
2004-08-23, 02:02,  38.449,  -123.492,
2004-08-23, 02:47,  38.372,  -123.243,
2004-08-23, 23:44,  38.809,  -123.952,
2004-08-24, 02:22,  38.996,  -123.911,
2004-08-24, 12:56,  39.526,  -123.91,
2004-08-24, 15:52,  39.649,  -123.888,
2004-08-24, 23:21,  39.647,  -123.94,
2004-08-24, 23:54,  39.689,  -123.984,
2004-08-25, 23:45,  39.785,  -124.345,
2004-08-26, 02:59,  39.685,  -124.196,
2004-08-26, 12:55,  39.555,  -123.882,
2004-08-26, 15:26,  39.531,  -123.944,
2004-08-26, 15:32,  39.532,  -123.916