Blue Shark
1602003 36894
2002-07-03,03:54,32.662,-118.116,
2002-07-03,21:32,32.442,-118.267,
2002-07-06,23:11,31.946,-117.727,
2002-07-08,22:18,32.509,-117.994,
2002-07-13,03:18,31.848,-117.797,
2002-07-15,05:20,30.993,-117.847,
2002-07-15,22:41,30.711,-117.889,
2002-07-17,12:29,30.841,-117.395,
2002-07-17,22:12,30.689,-117.488,
2002-07-19,06:04,31.12,-116.929,
2002-07-20,10:26,31.07,-116.705,
2002-07-23,11:30,31.153,-116.786,
2002-07-24,02:22,31.206,-117.207,
2002-07-25,14:20,31.402,-117.464,
2002-07-25,22:33,31.329,-117.6,
2002-07-27,17:53,31.165,-118.025,
2002-08-04,18:16,32.217,-120.211,
2002-08-05,20:27,32.608,-120.018,
2002-08-05,22:09,32.708,-120.032,
2002-08-06,19:07,32.936,-119.904,
2002-08-07,03:37,33.002,-119.796,
2002-08-07,08:45,33.047,-119.77,
2002-08-07,12:05,33.095,-119.757,
2002-08-07,14:12,33.068,-119.742,
2002-08-10,05:23,33.519,-120.026,
2002-08-10,17:38,33.492,-120.082,
2002-08-10,22:59,33.497,-120.1,
2002-08-11,03:43,33.496,-120.021,
2002-08-11,05:55,33.499,-119.921,
2002-08-11,11:23,33.533,-119.908,
2002-08-11,12:31,33.538,-119.865,
2002-08-15,08:58,33.86,-120.364,
2002-08-15,10:38,33.825,-120.305,
2002-08-15,14:14,33.818,-120.302,
2002-08-15,16:00,33.805,-120.198,
2002-08-16,10:27,33.747,-120.141,
2002-08-20,04:58,33.794,-120.179,
2002-08-21,03:16,33.789,-120.244,
2002-08-21,06:59,33.758,-120.169,
2002-08-21,09:34,33.751,-120.124,
2002-08-21,11:09,33.787,-120.104,
2002-08-22,04:14,33.553,-119.943,
2002-08-22,05:00,33.528,-119.95,
2002-08-22,05:50,33.499,-119.986,
2002-08-22,06:42,33.502,-120.019,
2002-08-23,01:49,33.606,-120.365,
2002-08-24,10:38,33.499,-120.225,
2002-08-24,14:26,33.481,-120.307,
2002-08-24,15:46,33.448,-120.308,
2002-08-24,16:03,33.438,-120.308,
2002-08-24,17:30,33.421,-120.328,
2002-08-24,18:42,33.407,-120.303,
2002-08-24,19:09,33.411,-120.289,
2002-08-24,20:23,33.37,-120.211,
2002-08-25,10:29,33.207,-120.071,
2002-08-25,13:36,33.163,-120.015,
2002-08-25,13:51,33.169,-120.018,
2002-08-25,17:04,33.172,-119.962,
2002-08-25,18:45,33.124,-119.893,
2002-08-26,07:24,32.863,-119.766,
2002-08-28,01:44,32.012,-119.866,
2002-08-28,21:17,31.77,-119.809,
2002-09-08,09:35,33.706,-120.085,
2002-09-10,07:10,33.903,-120.103,
2002-09-11,01:45,33.812,-120.149,
2002-09-11,09:02,33.755,-120.156,
2002-09-11,10:44,33.737,-120.166,
2002-09-11,11:47,33.805,-120.176,
2002-09-11,17:27,33.931,-119.953,
2002-09-12,13:00,33.807,-120.046,
2002-09-13,04:20,33.787,-120.174,
2002-09-13,05:04,33.79,-120.165,
2002-09-13,08:40,33.779,-120.121,
2002-09-13,12:37,33.807,-120.055,
2002-09-13,13:15,33.789,-120.03,
2002-09-16,09:47,33.755,-119.956,
2002-09-16,11:28,33.788,-119.942,
2002-09-18,03:10,33.868,-120.239,
2002-09-18,09:25,33.797,-120.163,
2002-09-22,05:56,33.724,-120.143,
2002-09-24,06:57,33.809,-120.322,
2002-09-25,04:51,33.705,-120.098,
2002-10-02,03:55,33.741,-120.183,
2002-10-15,03:31,33.82,-120,
2002-10-15,06:06,33.832,-120.004,
2002-10-16,02:04,33.845,-119.984,
2002-10-16,03:09,33.811,-119.969,
2002-10-17,05:00,33.809,-120.122,
2002-10-18,02:19,33.72,-120.028,
2002-10-20,03:11,33.738,-120.03,
2002-10-20,05:32,33.738,-120.047,
2002-10-21,05:11,33.72,-119.957,
2002-10-24,03:21,33.841,-119.889,
2002-10-25,06:59,33.752,-120.001,
2002-10-25,09:15,33.739,-119.913,
2002-10-27,03:09,33.886,-119.761,
2002-10-27,11:33,33.874,-119.746,
2002-10-30,07:53,33.713,-119.923,
2002-10-30,11:03,33.694,-119.915,
2002-10-31,03:17,33.702,-119.808,
2002-11-01,23:46,33.78,-119.863,
2002-11-10,14:01,33.806,-119.555,
2002-11-10,14:21,33.808,-119.527,
2002-11-10,23:55,33.904,-119.543