Leatherback Sea Turtle 
2605014 56275 
2005-07-08,08:28,0.081,-227.568,
2005-07-08,14:01,0.175,-227.601,
2005-07-08,23:37,0.298,-227.55,
2005-07-09,02:33,0.471,-227.57,
2005-07-09,04:25,0.416,-227.531,
2005-07-09,07:02,0.454,-227.587,
2005-07-09,12:19,0.473,-227.513,
2005-07-09,17:17,0.447,-227.477,
2005-07-09,18:45,0.481,-227.42,
2005-07-09,20:41,0.462,-227.422,
2005-07-09,23:22,0.519,-227.363,
2005-07-10,08:16,0.544,-227.435,
2005-07-10,10:26,0.551,-227.295,
2005-07-10,19:10,0.547,-227.174,
2005-07-10,20:47,0.52,-227.15,
2005-07-11,00:15,0.435,-227.198,
2005-07-11,16:44,0.263,-227.213,
2005-07-11,22:58,0.144,-227.215,
2005-07-12,10:14,0.134,-227.226,
2005-07-12,16:30,-0.078,-227.228,
2005-07-13,01:01,0.006,-227.031,
2005-07-13,11:29,-0.208,-227.381,
2005-07-13,13:12,-0.283,-227.354,
2005-07-13,22:31,-0.269,-227.414,
2005-07-14,08:11,-0.221,-227.14,
2005-07-14,13:23,-0.325,-227.499,
2005-07-14,19:14,-0.343,-227.428,
2005-07-15,00:22,-0.326,-227.39,
2005-07-15,03:33,-0.331,-227.269,
2005-07-15,09:01,-0.318,-227.355,
2005-07-15,10:40,-0.334,-227.308,
2005-07-15,13:02,-0.391,-227.21,
2005-07-15,19:57,-0.308,-227.368,
2005-07-16,10:19,-0.339,-227.306,
2005-07-17,01:13,-0.3,-227.403,
2005-07-17,10:37,-0.202,-227.302,
2005-07-17,12:16,-0.322,-227.355,
2005-07-17,15:57,-0.342,-227.426,
2005-07-18,02:35,-0.245,-227.479,
2005-07-18,07:48,-0.237,-227.613,
2005-07-18,22:09,-0.305,-227.599,
2005-07-18,23:08,-0.316,-227.57,
2005-07-19,04:36,-0.165,-227.497,
2005-07-19,17:21,-0.273,-227.839,
2005-07-20,04:20,0.063,-227.723,
2005-07-20,08:44,0.201,-227.838,
2005-07-20,09:10,0.201,-227.836,
2005-07-20,14:21,0.206,-228.023,
2005-07-20,18:19,0.314,-227.991,
2005-07-20,19:42,0.325,-228.007,
2005-07-21,09:58,0.623,-228.153,
2005-07-21,14:06,0.717,-228.273,
2005-07-21,20:55,0.878,-228.208,
2005-07-21,21:17,0.891,-228.225,
2005-07-22,00:07,0.941,-228.196,
2005-07-22,01:02,0.964,-228.177,
2005-07-22,11:12,1.139,-228.04,
2005-07-22,16:47,1.202,-228,
2005-07-22,18:01,1.207,-227.998,
2005-07-22,20:52,1.236,-228.039,
2005-07-22,22:12,1.272,-228.008,
2005-07-23,13:16,1.405,-227.782,
2005-07-23,21:50,1.385,-227.839,
2005-07-24,02:00,1.329,-227.933,
2005-07-24,14:36,1.339,-227.753,
2005-07-25,06:16,1.11,-227.782,
2005-07-25,16:11,1.007,-228.123,
2005-07-25,19:40,0.964,-228.189,
2005-07-25,21:00,0.945,-228.228,
2005-07-25,23:19,0.903,-228.244,
2005-07-26,04:27,0.865,-228.272,
2005-07-26,09:37,0.882,-228.253,
2005-07-26,17:08,0.742,-228.597,
2005-07-27,20:17,0.596,-228.655,
2005-07-27,21:58,0.63,-228.662,
2005-07-28,07:31,0.635,-228.609,
2005-07-28,09:04,0.532,-228.677,
2005-07-28,11:36,0.488,-228.481,
2005-07-28,21:33,0.554,-228.573,
2005-07-29,00:20,0.615,-228.556,
2005-07-29,04:30,0.578,-228.517,
2005-07-29,15:34,0.454,-228.459,
2005-07-29,18:17,0.474,-228.449,
2005-07-30,04:20,0.488,-228.337,
2005-07-30,08:06,0.545,-228.272,
2005-07-30,09:41,0.47,-228.307,
2005-07-30,13:53,0.493,-228.241,
2005-07-30,23:53,0.4,-228.232,
2005-07-31,05:50,0.429,-228.201,
2005-07-31,17:52,0.352,-228.234,
2005-07-31,20:21,0.345,-228.17,
2005-07-31,21:58,0.353,-228.172,
2005-08-01,00:33,0.345,-228.131,
2005-08-01,05:38,0.415,-228.091,
2005-08-01,07:30,0.422,-228.048,
2005-08-01,10:43,0.442,-228.008,
2005-08-01,12:22,0.424,-228.026,
2005-08-01,20:00,0.409,-227.998,
2005-08-02,01:06,0.493,-228.02,
2005-08-02,01:49,0.462,-228.032,
2005-08-02,06:30,0.491,-227.984,
2005-08-02,10:32,0.492,-227.954,
2005-08-02,14:28,0.52,-228.034,
2005-08-03,03:39,0.506,-227.998,
2005-08-03,08:13,0.599,-227.923,
2005-08-03,09:46,0.536,-227.966,
2005-08-03,14:08,0.589,-228.046,
2005-08-03,22:27,0.652,-227.921,
2005-08-03,23:03,0.659,-227.958,
2005-08-04,09:27,0.827,-227.897,
2005-08-04,13:26,0.872,-227.899,
2005-08-04,13:48,0.9,-227.911,
2005-08-04,20:35,0.96,-227.929,
2005-08-05,00:28,1.034,-227.931,
2005-08-05,11:35,1.235,-227.86,
2005-08-05,13:22,1.274,-227.804,
2005-08-05,18:36,1.315,-227.835,
2005-08-05,21:41,1.338,-227.802,
2005-08-06,05:41,1.448,-227.689,
2005-08-06,05:43,1.448,-227.689,
2005-08-06,11:22,1.544,-227.562,
2005-08-06,13:07,1.575,-227.457,
2005-08-06,22:22,1.607,-227.371,
2005-08-07,08:16,1.531,-227.124,
2005-08-08,01:12,1.596,-226.897,
2005-08-08,02:51,1.589,-226.891,
2005-08-08,07:02,1.591,-226.84,
2005-08-08,07:55,1.641,-226.783,
2005-08-08,09:31,1.601,-226.813,
2005-08-09,12:19,1.587,-226.308,
2005-08-09,20:07,1.681,-225.947,
2005-08-10,12:11,1.553,-225.639,
2005-08-10,14:49,1.554,-225.645,
2005-08-10,23:13,1.514,-225.379,
2005-08-12,01:19,1.597,-224.68,
2005-08-12,03:01,1.551,-224.71,
2005-08-12,09:36,1.73,-224.551,
2005-08-12,12:14,1.811,-224.629,
2005-08-12,13:58,1.823,-224.484,
2005-08-13,02:33,2.07,-224.116,
2005-08-13,09:15,2.166,-223.972,
2005-08-13,13:35,2.233,-223.796,
2005-08-13,16:24,2.278,-223.694,
2005-08-14,05:09,2.456,-223.362,
2005-08-14,11:25,2.62,-223.105,
2005-08-14,16:48,2.645,-222.938,
2005-08-14,18:33,2.689,-222.858,
2005-08-15,11:06,2.942,-222.282,
2005-08-15,16:02,2.982,-222.123,
2005-08-15,16:42,2.981,-222.073,
2005-08-15,18:19,2.937,-221.947,
2005-08-15,19:27,2.924,-221.88,
2005-08-16,01:28,3.01,-221.829,
2005-08-16,07:05,2.986,-221.755,
2005-08-16,10:57,3.055,-221.508,
2005-08-17,20:17,3.003,-220.222,
2005-08-17,21:55,3.005,-220.159,
2005-08-17,23:24,2.999,-220.13,
2005-08-18,02:22,3.066,-219.958,
2005-08-18,04:28,2.982,-219.826,
2005-08-18,07:19,3.044,-219.798,
2005-08-18,13:22,2.919,-219.54,
2005-08-18,17:45,2.957,-219.364,
2005-08-18,23:12,2.95,-219.181,
2005-08-19,00:21,2.946,-219.091,
2005-08-19,01:56,2.969,-219.023,
2005-08-19,04:54,2.972,-218.901,
2005-08-19,10:12,3.029,-218.673,
2005-08-19,23:01,3.197,-218.229,
2005-08-19,23:54,3.172,-218.165,
2005-08-20,04:09,3.219,-217.978,
2005-08-20,14:15,3.335,-217.606,
2005-08-21,00:24,3.507,-217.212,
2005-08-21,01:10,3.507,-217.176,
2005-08-21,20:19,3.788,-216.469,
2005-08-22,22:17,4.071,-215.735,
2005-08-23,03:38,4.168,-215.593,
2005-08-23,08:25,4.217,-215.411,
2005-08-23,13:04,4.277,-215.38,
2005-08-23,18:25,4.412,-215.268,
2005-08-23,22:02,4.415,-215.115,
2005-08-23,23:45,4.443,-215.075,
2005-08-24,03:27,4.483,-214.951,
2005-08-24,05:37,4.504,-214.889,
2005-08-24,08:16,4.532,-214.765,
2005-08-24,12:46,4.552,-214.608,
2005-08-24,16:36,4.6,-214.576,
2005-08-24,19:08,4.56,-214.49,
2005-08-24,21:55,4.558,-214.501,
2005-08-25,01:26,4.558,-214.531,
2005-08-25,04:55,4.669,-214.242,
2005-08-25,10:40,4.724,-214.123,
2005-08-26,00:58,4.808,-213.762,
2005-08-26,20:00,4.885,-213.331,
2005-08-27,07:01,4.875,-213.055,
2005-08-27,19:35,5.025,-212.843,
2005-08-27,21:13,5.032,-212.686,
2005-08-28,17:31,5.162,-212.368,
2005-08-28,20:55,5.167,-212.31,
2005-08-29,00:21,5.288,-212.213,
2005-08-29,04:35,5.226,-211.99,
2005-08-29,18:52,5.37,-211.928,
2005-08-29,20:27,5.369,-211.893,
2005-08-29,22:27,5.413,-211.907,
2005-08-29,23:22,5.434,-211.888,
2005-08-30,00:06,5.436,-211.901,
2005-08-30,04:09,5.499,-211.865,
2005-08-30,04:29,5.507,-211.844,
2005-08-30,09:36,5.588,-211.746,
2005-08-30,12:10,5.641,-211.762,
2005-08-30,15:28,5.657,-211.728,
2005-08-30,20:04,5.697,-211.694,
2005-08-30,22:14,5.713,-211.662,
2005-08-31,00:41,5.738,-211.643,
2005-08-31,05:58,5.742,-211.649,
2005-08-31,07:07,5.768,-211.544,
2005-08-31,09:24,5.769,-211.47,
2005-08-31,13:28,5.816,-211.508,
2005-08-31,14:56,5.82,-211.489,
2005-08-31,16:39,5.825,-211.459,
2005-08-31,22:02,5.821,-211.425,
2005-09-01,03:43,5.81,-211.383,
2005-09-01,14:48,5.858,-211.211,
2005-09-02,12:16,5.953,-211.131,
2005-09-02,14:35,5.86,-210.972,
2005-09-02,16:34,5.911,-210.94,
2005-09-02,23:34,5.914,-210.956,
2005-09-03,05:06,5.946,-210.903,
2005-09-03,07:34,5.932,-210.702,
2005-09-03,10:24,5.961,-210.85,
2005-09-03,14:28,6.029,-210.801,
2005-09-04,04:58,6.162,-210.644,
2005-09-04,17:51,6.23,-210.46,
2005-09-04,19:24,6.211,-210.398,
2005-09-05,03:18,6.245,-210.29,
2005-09-05,04:59,6.271,-210.257,
2005-09-05,11:28,6.291,-210.206,
2005-09-05,13:09,6.307,-210.131,
2005-09-05,16:02,6.316,-210.161,
2005-09-06,09:45,6.346,-209.924,
2005-09-06,11:23,6.409,-209.921,
2005-09-06,17:20,6.471,-209.884,
2005-09-06,23:43,6.444,-209.83,
2005-09-07,12:31,6.601,-209.57,
2005-09-07,17:17,6.632,-209.709,
2005-09-07,19:53,6.667,-209.703,
2005-09-07,22:11,6.656,-209.628,
2005-09-07,23:53,6.67,-209.622,
2005-09-08,23:39,6.912,-209.413,
2005-09-09,00:35,6.935,-209.427,
2005-09-09,11:45,7.069,-209.32,
2005-09-09,15:13,7.116,-209.294,
2005-09-09,16:50,7.109,-209.265,
2005-09-09,19:04,7.158,-209.224,
2005-09-09,21:42,7.187,-209.122,
2005-09-10,14:56,7.293,-208.956,
2005-09-10,16:34,7.247,-208.887,
2005-09-10,20:40,7.283,-208.875,
2005-09-10,23:16,7.264,-208.824,
2005-09-10,23:51,7.259,-208.817,
2005-09-11,06:05,7.442,-208.429,
2005-09-11,12:38,7.373,-208.598,
2005-09-11,23:24,7.449,-208.562,
2005-09-12,03:37,7.479,-208.568,
2005-09-12,03:39,7.481,-208.566,
2005-09-12,17:56,7.643,-208.333,
2005-09-12,23:04,7.713,-208.254,
2005-09-13,00:45,7.587,-208.35,
2005-09-13,05:07,7.781,-208.285,
2005-09-14,18:37,7.979,-207.766,
2005-09-14,20:49,7.936,-207.762,
2005-09-15,20:24,8.173,-207.631,
2005-09-15,22:09,8.193,-207.626,
2005-09-15,23:34,8.219,-207.631,
2005-09-16,01:16,8.245,-207.647,
2005-09-16,02:57,8.292,-207.653,
2005-09-16,10:56,8.395,-207.608,
2005-09-16,12:16,8.425,-207.564,
2005-09-16,15:38,8.437,-207.559,
2005-09-16,17:08,8.5,-207.588,
2005-09-16,17:49,8.499,-207.563,
2005-09-16,19:59,8.505,-207.569,
2005-09-16,22:02,8.451,-207.501,
2005-09-16,23:13,8.533,-207.513,
2005-09-16,23:37,8.539,-207.522,
2005-09-17,00:56,8.554,-207.515,
2005-09-17,10:43,8.634,-207.405,
2005-09-17,11:59,8.642,-207.374,
2005-09-17,17:22,8.712,-207.32,
2005-09-17,19:39,8.619,-207.268,
2005-09-18,00:30,8.676,-207.288,
2005-09-18,04:09,8.698,-207.244,
2005-09-18,04:15,8.696,-207.248,
2005-09-18,08:20,8.695,-207.202,
2005-09-18,15:22,8.707,-207.114,
2005-09-18,23:11,8.696,-207.053,
2005-09-19,00:10,8.725,-207.028,
2005-09-19,07:57,8.782,-206.991,
2005-09-20,01:23,8.848,-206.796,
2005-09-20,07:33,8.858,-206.706,
2005-09-20,16:26,8.919,-206.701,
2005-09-20,16:38,8.92,-206.698,
2005-09-20,18:27,8.932,-206.687,
2005-09-20,20:03,8.981,-206.73,
2005-09-21,02:09,8.982,-206.617,
2005-09-21,06:33,8.977,-206.609,
2005-09-21,14:45,9.02,-206.553,
2005-09-21,17:54,9.034,-206.536,
2005-09-21,19:42,9.042,-206.544,
2005-09-21,22:33,9.056,-206.529,
2005-09-21,22:57,9.064,-206.518,
2005-09-22,03:23,9.088,-206.501,
2005-09-22,05:00,9.087,-206.496,
2005-09-22,07:48,9.11,-206.51,
2005-09-22,14:34,9.136,-206.416,
2005-09-22,17:40,9.152,-206.414,
2005-09-22,18:39,9.143,-206.358,
2005-09-22,21:01,9.062,-206.353,
2005-09-23,04:54,9.168,-206.336,
2005-09-23,15:50,9.165,-206.186,
2005-09-23,17:31,9.18,-206.182,
2005-09-23,20:34,9.194,-206.158,
2005-09-23,22:07,9.229,-206.117,
2005-09-24,04:37,9.229,-206.081,
2005-09-24,10:48,9.333,-205.962,
2005-09-24,12:34,9.299,-205.976,
2005-09-24,17:56,9.318,-205.996,
2005-09-25,15:24,9.528,-205.896,
2005-09-25,19:07,9.45,-205.714,
2005-09-25,23:06,9.489,-205.671,
2005-09-26,00:47,9.483,-205.682,
2005-09-26,11:50,9.559,-205.592,
2005-09-26,15:16,9.608,-205.551,
2005-09-26,16:54,9.555,-205.538,
2005-09-26,21:29,9.573,-205.511,
2005-09-26,22:44,9.574,-205.522,
2005-09-27,15:22,9.63,-205.407,
2005-09-27,19:04,9.609,-205.336,
2005-09-27,20:42,9.615,-205.349,
2005-09-27,21:14,9.618,-205.341,
2005-09-28,00:01,9.62,-205.331,
2005-09-28,02:37,9.631,-205.325,
2005-09-28,06:05,9.624,-205.25,
2005-09-28,07:45,9.637,-205.257,
2005-09-29,06:38,9.718,-204.859,
2005-09-29,08:58,9.646,-205.062,
2005-09-29,16:43,9.638,-205.003,
2005-09-29,17:28,9.629,-204.937,
2005-09-29,23:18,9.653,-204.902,
2005-09-30,03:32,9.684,-204.842,
2005-09-30,03:54,9.698,-204.835,
2005-09-30,06:08,9.717,-204.895,
2005-09-30,06:55,9.696,-204.824,
2005-09-30,16:11,9.791,-204.722,
2005-10-01,02:05,9.832,-204.587,
2005-10-01,05:45,9.828,-204.541,
2005-10-01,22:01,9.826,-204.395,
2005-10-02,15:47,9.913,-204.239,
2005-10-02,21:50,9.926,-204.163,
2005-10-02,23:31,9.962,-204.124,
2005-10-02,23:42,9.958,-204.128,
2005-10-03,01:26,9.972,-204.099,
2005-10-03,01:47,9.966,-204.086,
2005-10-03,19:58,9.986,-203.918,
2005-10-03,21:37,9.976,-203.903,
2005-10-03,23:22,9.98,-203.879,
2005-10-04,10:26,9.878,-203.938,
2005-10-04,17:54,10.074,-203.628,
2005-10-04,23:01,10.134,-203.619,
2005-10-05,14:00,10.118,-203.53,
2005-10-05,15:46,10.114,-203.499,
2005-10-05,19:58,10.082,-203.439,
2005-10-05,20:47,10.078,-203.383,
2005-10-05,21:11,10.088,-203.379,
2005-10-05,22:55,10.082,-203.499,
2005-10-06,04:35,10.114,-203.375,
2005-10-06,11:24,10.152,-203.211,
2005-10-06,16:39,10.178,-203.204,
2005-10-07,04:27,10.299,-203.124,
2005-10-07,09:54,9.982,-203.328,
2005-10-07,15:22,10.318,-203.067,
2005-10-08,09:31,10.325,-203.018,
2005-10-08,16:53,10.327,-202.902,
2005-10-08,19:42,10.322,-202.892,
2005-10-08,22:16,10.327,-202.883,
2005-10-08,23:08,10.355,-202.86,
2005-10-09,16:06,10.264,-202.741,
2005-10-09,18:24,10.21,-202.614,
2005-10-09,22:00,10.247,-202.74,
2005-10-09,22:46,10.256,-202.73,
2005-10-09,23:39,10.253,-202.711,
2005-10-10,20:30,10.353,-202.487,
2005-10-10,23:30,10.375,-202.451,
2005-10-11,02:06,10.467,-202.486,
2005-10-11,10:40,10.441,-202.452,
2005-10-11,17:24,10.515,-202.442,
2005-10-11,20:05,10.496,-202.383,
2005-10-11,23:39,10.492,-202.387,
2005-10-12,12:26,10.526,-202.352,
2005-10-12,14:30,10.572,-202.372,
2005-10-12,18:00,10.578,-202.281,
2005-10-12,23:18,10.582,-202.273,
2005-10-13,00:54,10.592,-202.256,
2005-10-13,04:21,10.562,-202.327,
2005-10-13,08:29,10.629,-202.227,
2005-10-13,12:01,10.562,-202.206,
2005-10-13,16:09,10.503,-202.16,
2005-10-14,05:27,10.495,-202.096,
2005-10-15,00:11,10.571,-202.027,
2005-10-15,14:00,10.615,-201.897,
2005-10-15,17:36,10.654,-201.883,
2005-10-15,18:33,10.655,-201.895,
2005-10-15,20:15,10.711,-202.025,
2005-10-16,15:34,10.81,-201.73,
2005-10-16,22:11,10.855,-201.669,
2005-10-16,23:27,10.865,-201.664,
2005-10-17,16:20,10.971,-201.518,
2005-10-17,18:30,10.994,-201.643,
2005-10-18,02:31,10.973,-201.388,
2005-10-18,15:13,10.978,-201.292,
2005-10-18,16:06,10.99,-201.296,
2005-10-18,18:55,10.869,-201.325,
2005-10-18,20:38,10.976,-201.261,
2005-10-18,21:42,10.959,-201.246,
2005-10-18,22:39,10.958,-201.228,
2005-10-19,02:24,10.929,-201.202,
2005-10-19,14:58,10.806,-201.171,
2005-10-19,20:15,10.78,-201.088,
2005-10-19,21:31,10.777,-201.083,
2005-10-19,22:16,10.834,-201.093,
2005-10-19,23:13,10.868,-201.07,
2005-10-20,02:16,10.812,-201.067,
2005-10-20,17:16,10.702,-200.939,
2005-10-20,18:49,10.681,-200.907,
2005-10-21,06:58,10.712,-200.882,
2005-10-21,12:17,10.753,-200.846,
2005-10-21,14:38,10.759,-200.834,
2005-10-21,16:21,10.778,-200.81,
2005-10-21,16:45,10.806,-200.808,
2005-10-21,23:17,10.704,-200.837,
2005-10-22,04:20,10.774,-200.801,
2005-10-22,06:33,10.751,-200.753,
2005-10-22,11:51,10.797,-200.724,
2005-10-22,16:57,10.82,-200.717,
2005-10-22,19:09,10.787,-200.695,
2005-10-22,20:45,10.853,-200.709,
2005-10-23,00:27,10.787,-200.692,
2005-10-23,06:11,10.809,-200.617,
2005-10-23,11:30,10.834,-200.637,
2005-10-23,20:19,10.804,-200.418,
2005-10-24,00:05,10.804,-200.533,
2005-10-24,05:38,10.853,-200.502,
2005-10-24,11:12,10.762,-200.493,
2005-10-24,15:47,10.912,-200.62,
2005-10-24,19:59,10.708,-200.44,
2005-10-25,16:15,10.891,-200.091,
2005-10-26,07:09,10.639,-200.311,
2005-10-26,16:10,10.649,-200.193,
2005-10-27,03:16,10.584,-200.229,
2005-10-27,07:53,10.617,-200.199,
2005-10-27,13:40,10.685,-200.156,
2005-10-27,18:53,10.747,-200.226,
2005-10-27,22:34,10.694,-200.132,
2005-10-28,04:44,10.743,-199.944,
2005-10-28,10:21,10.707,-200.039,
2005-10-29,10:02,10.653,-199.979,
2005-10-29,15:04,10.633,-199.982,
2005-10-29,19:40,10.635,-200.003,
2005-10-31,07:26,10.517,-199.937,
2005-10-31,17:49,10.568,-199.775,
2005-11-01,08:35,10.481,-199.452,
2005-11-01,23:01,10.511,-199.068,
2005-11-02,10:10,10.401,-199.184,
2005-11-02,15:21,10.378,-199.189,
2005-11-03,00:38,10.326,-199.097,
2005-11-03,20:23,10.262,-198.869,
2005-11-04,06:09,10.242,-198.789,
2005-11-05,03:50,10.149,-198.595,
2005-11-06,07:21,10.166,-198.323,
2005-11-06,22:41,10.218,-198.208,
2005-11-07,19:24,10.294,-198.527,
2005-11-08,04:02,10.092,-198.376,
2005-11-08,10:29,10.137,-198.266,
2005-11-08,14:56,10.132,-198.346,
2005-11-10,01:55,9.957,-198.658,
2005-11-12,19:10,9.907,-197.931,
2005-11-14,00:19,10.16,-197.976,
2005-11-14,20:54,10.087,-197.764,
2005-11-15,11:24,9.847,-197.666,
2005-11-16,17:37,9.578,-197.581,
2005-11-16,22:18,9.707,-197.534,
2005-11-17,04:09,9.633,-197.552,
2005-11-17,22:58,9.39,-197.239,
2005-11-18,09:06,9.603,-197.701,
2005-11-19,10:39,9.557,-197.843,
2005-11-19,21:29,9.589,-197.916,
2005-11-20,06:52,9.768,-197.494,
2005-11-20,16:23,9.605,-197.664,
2005-11-22,03:25,9.678,-197.539,
2005-11-22,14:15,9.594,-197.13,
2005-11-23,04:47,9.41,-197.419,
2005-11-23,09:45,9.432,-197.438,
2005-11-23,14:11,9.416,-197.377,
2005-11-24,01:19,9.695,-197.22,
2005-11-24,06:48,9.724,-197.143,
2005-11-24,10:58,9.705,-197.416,
2005-11-25,02:43,9.702,-197.289,
2005-11-25,12:10,9.663,-197.642,
2005-11-26,18:41,9.891,-198.113,
2005-11-27,15:09,10.107,-197.986,
2005-11-27,18:14,10.08,-198.079,
2005-11-28,11:14,10.562,-197.848,
2005-11-30,07:47,10.513,-197.577,
2005-12-01,22:30,10.733,-197.67,
2005-12-02,03:16,10.709,-197.67,
2005-12-02,05:23,10.694,-197.525,
2005-12-02,09:26,10.77,-197.542,
2005-12-02,14:14,10.782,-197.683,
2005-12-02,19:34,10.747,-197.706,
2005-12-03,09:19,10.736,-197.702,
2005-12-03,10:47,10.702,-197.713,
2005-12-04,10:29,10.654,-197.777,
2005-12-04,12:12,10.7,-197.823,
2005-12-04,15:17,10.669,-197.775,
2005-12-04,21:41,10.684,-197.775,
2005-12-05,21:29,10.7,-197.864,
2005-12-06,02:22,10.819,-197.837,
2005-12-06,08:42,10.744,-197.845,
2005-12-07,03:42,10.592,-197.29,
2005-12-08,10:42,10.675,-198.394,
2005-12-09,05:59,11.052,-197.802,
2005-12-09,11:18,10.957,-197.971,
2005-12-09,16:28,10.985,-198.028,
2005-12-09,20:04,11.01,-197.998,
2005-12-10,13:12,11.084,-197.985,
2005-12-11,03:24,11.058,-197.909,
2005-12-11,22:03,11.05,-197.897,
2005-12-12,03:20,11.093,-197.922,
2005-12-14,05:19,11.371,-197.383,
2005-12-14,15:05,11.599,-197.402,
2005-12-14,16:45,11.556,-197.376,
2005-12-15,02:44,11.599,-197.588,
2005-12-15,21:00,11.74,-197.274,
2005-12-16,02:39,11.752,-197.318,
2005-12-17,23:05,12.29,-197.326,
2005-12-19,16:23,12.553,-196.924,
2005-12-19,21:49,12.365,-197.209,
2005-12-20,11:07,12.428,-197.128,
2005-12-20,17:13,12.42,-197.18,
2005-12-21,07:47,12.43,-197.117,
2005-12-21,12:21,12.464,-197.082,
2005-12-21,17:01,12.448,-196.992,
2005-12-23,11:28,12.562,-196.72,
2005-12-23,15:41,12.394,-196.629,
2005-12-23,19:07,12.416,-196.672,
2005-12-25,06:13,12.256,-196.45,
2005-12-27,19:45,12.092,-196.333,
2005-12-27,23:24,12.113,-196.195,
2005-12-28,04:37,12.076,-196.141,
2005-12-29,10:22,11.884,-195.972,
2005-12-29,21:21,11.985,-195.962,
2005-12-30,05:58,11.826,-195.986,
2005-12-31,09:55,11.594,-195.751,
2005-12-31,22:42,11.424,-195.779,
2006-01-01,06:19,11.355,-195.765,
2006-01-01,14:07,11.242,-195.724,
2006-01-01,15:52,11.292,-195.67,
2006-01-02,00:00,11.204,-195.632,
2006-01-02,09:27,11.184,-195.849,
2006-01-03,21:55,10.974,-195.476,
2006-01-04,09:05,10.855,-195.387,
2006-01-05,09:57,10.664,-195.275,
2006-01-05,22:30,10.673,-195.342,
2006-01-06,03:07,10.785,-195.318,
2006-01-06,15:38,10.682,-195.356,
2006-01-07,14:50,10.632,-195.268,
2006-01-07,15:33,10.601,-195.208,
2006-01-09,18:50,10.421,-194.642,
2006-01-09,22:36,10.394,-194.867,
2006-01-10,09:29,10.315,-194.79,
2006-01-10,14:15,10.341,-194.74,
2006-01-11,23:31,10.137,-194.391,
2006-01-12,14:32,10.212,-194.072,
2006-01-13,07:05,9.88,-194.014,
2006-01-13,10:32,9.837,-194.002,
2006-01-13,15:28,9.786,-193.892,
2006-01-13,21:27,9.732,-193.898,
2006-01-15,02:36,9.464,-194.061,
2006-01-15,13:29,9.546,-193.607,
2006-01-15,18:07,9.515,-193.559,
2006-01-15,22:02,9.477,-193.483,
2006-01-16,10:38,9.476,-193.494,
2006-01-19,08:01,9.428,-192.448,
2006-01-19,11:11,9.489,-192.334,
2006-01-20,03:21,9.534,-192.141,
2006-01-20,18:31,9.462,-191.887,
2006-01-21,03:13,9.48,-191.769,
2006-01-21,10:25,9.484,-191.6,
2006-01-21,14:26,9.513,-191.646,
2006-01-22,00:40,9.562,-191.688,
2006-01-22,04:58,9.566,-191.586,
2006-01-22,14:15,9.374,-191.419,
2006-01-23,01:08,9.505,-191.461,
2006-01-23,11:17,9.352,-191.37,
2006-01-23,16:25,9.592,-191.41,
2006-01-23,21:00,9.599,-191.347,
2006-01-24,02:54,9.729,-191.297,
2006-01-25,10:34,9.62,-191.1,
2006-01-25,17:18,9.575,-191.061,
2006-01-25,18:11,9.563,-191.056,
2006-01-25,22:17,9.493,-191.015,
2006-01-25,23:07,9.484,-190.984,
2006-01-26,15:00,9.426,-191.09,
2006-01-27,19:02,9.315,-190.962,
2006-01-28,06:07,9.291,-190.832,
2006-01-28,21:59,9.299,-190.626,
2006-01-29,07:28,9.402,-190.477,
2006-01-30,04:22,9.344,-190.231,
2006-01-30,14:23,9.479,-190.192,
2006-01-30,17:51,9.486,-190.211,
2006-01-31,14:09,9.586,-189.881,
2006-01-31,19:08,9.599,-189.81,
2006-02-01,20:44,9.867,-189.616,
2006-02-02,01:11,9.875,-189.577,
2006-02-02,15:26,9.999,-189.293,
2006-02-02,18:22,10.056,-189.461,
2006-02-03,02:37,10.076,-189.304,
2006-02-03,09:18,10.11,-189.223,
2006-02-03,13:38,10.124,-189.184,
2006-02-04,04:00,10.17,-189.001,
2006-02-04,15:11,10.296,-189.036,
2006-02-05,09:46,10.42,-188.724,
2006-02-05,14:59,10.47,-188.674,
2006-02-05,23:57,10.49,-188.601,
2006-02-06,05:54,10.562,-188.496,
2006-02-06,11:02,10.603,-188.467,
2006-02-07,21:02,10.802,-188.135,
2006-02-08,01:50,10.789,-188.068,
2006-02-08,16:02,10.98,-188.057,
2006-02-08,17:41,10.969,-187.963,
2006-02-08,22:35,11.045,-188.042,
2006-02-09,09:44,11.119,-187.913,
2006-02-09,18:55,11.236,-187.833,
2006-02-09,22:21,11.368,-187.777,
2006-02-10,14:10,11.251,-187.545,
2006-02-11,05:41,11.567,-187.462,
2006-02-11,09:13,11.376,-187.537,
2006-02-11,10:46,11.4,-187.413,
2006-02-12,12:04,11.57,-187.295,
2006-02-13,00:57,11.582,-187.202,
2006-02-13,02:23,11.677,-187.17,
2006-02-14,18:36,11.953,-186.818,
2006-02-15,03:40,11.979,-186.755,
2006-02-15,04:29,12.001,-186.714,
2006-02-15,06:10,11.994,-186.726,
2006-02-15,14:40,12.046,-186.62,
2006-02-15,14:57,12.037,-186.64,
2006-02-16,05:16,12.067,-186.507,
2006-02-16,21:25,12.262,-186.392,
2006-02-19,09:24,12.305,-185.899,
2006-02-19,14:14,12.305,-185.903,
2006-02-19,18:18,12.309,-186.22,
2006-02-20,04:03,12.246,-185.712,
2006-02-21,15:16,11.605,-184.774,
2006-02-22,01:03,12.302,-185.2,
2006-02-22,17:09,12.322,-184.744,
2006-02-23,06:14,12.432,-184.953,
2006-02-23,22:05,12.556,-184.585,
2006-02-24,07:10,12.654,-184.529,
2006-02-24,13:26,12.646,-184.475,
2006-02-25,20:29,12.572,-184.092,
2006-02-26,02:04,12.574,-183.963,
2006-02-27,21:52,12.291,-183.786,
2006-02-28,10:57,12.214,-183.806,
2006-02-28,18:06,12.272,-183.848,
2006-03-01,05:08,12.258,-183.722,
2006-03-01,08:46,12.285,-183.712,
2006-03-01,12:32,12.341,-183.697,
2006-03-01,17:37,12.387,-183.653,
2006-03-02,10:11,12.507,-183.534,
2006-03-03,11:26,12.7,-183.236,
2006-03-03,20:56,12.716,-183.112,
2006-03-04,02:03,12.718,-182.988,
2006-03-04,16:27,12.767,-182.8,
2006-03-04,23:34,12.721,-182.63,
2006-03-05,03:31,12.736,-182.636,
2006-03-05,06:49,12.733,-182.6,
2006-03-05,16:10,12.71,-182.531,
2006-03-06,17:30,12.774,-182.263,
2006-03-06,22:55,12.811,-182.091,
2006-03-07,10:02,12.769,-182.158,
2006-03-08,05:51,13.027,-181.81,
2006-03-08,10:35,13.037,-181.778,
2006-03-08,11:16,13.051,-181.764,
2006-03-08,14:40,13.11,-181.735,
2006-03-08,15:34,13.11,-181.697,
2006-03-08,21:34,13.218,-181.771,
2006-03-09,00:14,13.162,-181.562,
2006-03-09,05:26,13.281,-181.633,
2006-03-09,10:50,13.372,-181.514,
2006-03-09,17:44,13.405,-181.509,
2006-03-10,16:51,13.553,-181.2,
2006-03-10,21:20,13.555,-181.141,
2006-03-10,22:55,13.515,-181.151,
2006-03-11,02:28,13.567,-181.158,
2006-03-13,21:32,13.462,-181.115,
2006-03-14,07:43,13.533,-180.999,
2006-03-14,11:32,13.675,-180.839,
2006-03-15,03:38,13.702,-180.975,
2006-03-15,07:16,13.686,-180.745,
2006-03-15,18:03,13.745,-180.639,
2006-03-15,22:01,13.803,-180.553,
2006-03-15,22:42,13.8,-180.607,
2006-03-15,23:44,13.79,-180.544,
2006-03-16,23:20,13.852,-180.343,
2006-03-17,09:40,13.852,-180.213,
2006-03-17,10:28,13.862,-180.203,
2006-03-17,14:07,13.883,-180.165,
2006-03-17,14:53,13.884,-180.156,
2006-03-18,01:23,13.88,-180.053,
2006-03-18,10:00,13.952,-180.086,
2006-03-18,11:43,13.942,-179.953,
2006-03-18,15:44,13.977,-179.937,
2006-03-18,20:14,14.02,-179.859,
2006-03-19,01:13,14,-179.8,
2006-03-19,16:14,14.122,-179.74,
2006-03-20,06:56,14.137,-179.444,
2006-03-20,09:04,14.139,-179.404,
2006-03-20,12:36,14.159,-179.35,
2006-03-20,17:42,14.179,-179.263,
2006-03-21,08:46,14.183,-179.149,
2006-03-21,10:31,14.186,-179.166,
2006-03-21,13:30,14.223,-179.162,
2006-03-22,06:12,14.296,-178.959,
2006-03-22,15:05,14.307,-178.834,
2006-03-22,21:12,14.253,-178.876,
2006-03-23,16:32,14.339,-178.704,
2006-03-24,07:04,14.444,-178.419,
2006-03-24,16:54,14.509,-178.246,
2006-03-24,21:54,14.582,-178.294,
2006-03-25,02:23,14.574,-178.186,
2006-03-25,17:25,14.799,-177.96,
2006-03-26,03:22,14.887,-177.852,
2006-03-26,09:21,14.946,-177.837,
2006-03-26,10:23,14.925,-177.744,
2006-03-26,14:18,14.955,-177.716,
2006-03-26,14:46,14.961,-177.71,
2006-03-27,05:48,15.079,-177.561,
2006-03-27,09:18,15.158,-177.53,
2006-03-27,10:57,15.141,-177.562,
2006-03-27,15:47,15.163,-177.503,
2006-03-28,00:08,15.187,-177.425,
2006-03-28,05:19,15.17,-177.437,
2006-03-28,16:00,15.151,-177.229,
2006-03-28,22:02,15.173,-177.131,
2006-03-29,01:15,15.18,-177.072,
2006-03-29,06:40,15.223,-177.022,
2006-03-29,12:30,15.268,-176.908,
2006-03-29,23:05,15.313,-176.827,
2006-03-30,10:10,15.505,-176.479,
2006-03-30,13:37,15.39,-176.63,
2006-03-31,13:29,15.352,-176.293,
2006-04-01,04:23,15.358,-176.047,
2006-04-01,09:47,15.369,-175.969,
2006-04-01,15:20,15.388,-175.8,
2006-04-01,23:59,15.408,-175.814,
2006-04-02,03:59,15.582,-175.63,
2006-04-02,14:09,15.623,-175.511,
2006-04-02,16:19,15.648,-175.415,
2006-04-02,19:30,15.668,-175.342,
2006-04-03,00:56,15.666,-175.293,
2006-04-03,03:45,15.818,-175.272,
2006-04-03,11:17,15.808,-175.151,
2006-04-03,16:13,15.845,-175.084,
2006-04-04,13:43,16.08,-174.785,
2006-04-04,17:08,16.097,-174.73,
2006-04-04,21:44,16.096,-174.66,
2006-04-05,15:16,16.154,-174.352,
2006-04-05,17:08,16.156,-174.28,
2006-04-06,04:15,16.21,-174.07,
2006-04-06,10:14,16.24,-173.911,
2006-04-06,12:59,16.396,-173.778,
2006-04-06,14:44,16.3,-173.856,
2006-04-06,18:18,16.324,-173.735,
2006-04-07,15:57,16.442,-173.514,
2006-04-07,16:21,16.451,-173.517,
2006-04-07,20:37,16.468,-173.437,
2006-04-08,02:00,16.497,-173.385,
2006-04-08,07:22,16.548,-173.217,
2006-04-08,21:46,16.501,-173.595,
2006-04-09,06:20,16.776,-172.932,
2006-04-09,21:27,17.095,-172.687,
2006-04-10,04:13,17.243,-172.601,
2006-04-10,14:12,17.446,-172.282,
2006-04-10,18:22,17.466,-172.148,
2006-04-10,22:41,17.619,-172.246,
2006-04-11,03:07,17.596,-172.114,
2006-04-11,13:57,17.728,-171.935,
2006-04-11,14:01,17.73,-171.935,
2006-04-11,18:01,17.78,-171.872,
2006-04-12,07:51,18.125,-171.72,
2006-04-14,20:11,18.344,-170.293,
2006-04-15,02:21,18.202,-170.32,
2006-04-15,14:53,18.272,-170.02,
2006-04-15,18:09,18.284,-169.94,
2006-04-16,05:14,18.305,-169.7,
2006-04-16,09:40,18.354,-169.464,
2006-04-17,00:22,18.371,-169.288,
2006-04-17,04:52,18.363,-169.308,
2006-04-17,15:11,18.406,-169.059,
2006-04-18,16:01,18.521,-168.675,
2006-04-19,04:02,18.591,-168.519,
2006-04-19,12:35,18.706,-168.329,
2006-04-19,16:03,18.745,-168.275,
2006-04-19,17:39,18.77,-168.264,
2006-04-20,03:02,18.882,-168.047,
2006-04-20,12:20,19.144,-168.004,
2006-04-20,15:34,19.15,-167.749,
2006-04-20,23:39,19.286,-167.591,
2006-04-21,03:21,19.385,-167.431,
2006-04-21,09:25,19.45,-167.371,
2006-04-21,15:44,19.543,-167.2,
2006-04-22,01:08,19.653,-166.932,
2006-04-22,06:14,19.709,-166.831,
2006-04-22,07:37,19.738,-166.73,
2006-04-22,11:57,19.834,-166.594,
2006-04-22,15:17,19.873,-166.538,
2006-04-22,20:11,19.936,-166.424,
2006-04-23,13:23,20.074,-166.028,
2006-04-23,15:06,20.084,-165.932,
2006-04-23,16:34,20.086,-165.89,
2006-04-23,20:02,20.181,-165.953,
2006-04-24,03:51,20.266,-165.836,
2006-04-24,09:59,20.427,-165.56,
2006-04-25,07:49,20.913,-165.291,
2006-04-25,17:29,21.138,-165.2,
2006-04-26,00:27,21.266,-165.017,
2006-04-26,09:09,21.382,-164.814,
2006-04-26,14:28,21.456,-164.765,
2006-04-27,00:15,21.534,-164.496,
2006-04-27,01:40,21.529,-164.454,
2006-04-27,06:32,21.546,-164.315,
2006-04-29,01:22,21.836,-163.76,
2006-04-29,09:30,21.962,-163.674,
2006-04-29,22:00,22.074,-163.486,
2006-05-01,00:59,22.326,-163.046,
2006-05-02,00:47,22.487,-162.76,
2006-05-02,08:28,22.63,-162.919,
2006-05-03,08:33,22.645,-162.072,
2006-05-03,13:09,22.811,-162.154,
2006-05-03,20:34,22.883,-161.734,
2006-05-04,02:06,22.924,-161.178,
2006-05-04,14:45,23.149,-161.249,
2006-05-04,17:10,23.206,-161.134,
2006-05-05,03:40,23.395,-160.973,
2006-05-05,16:55,23.612,-160.273,
2006-05-06,00:25,23.753,-160.784,
2006-05-06,15:50,23.946,-160.618,
2006-05-06,21:02,23.964,-160.596,
2006-05-07,01:22,23.874,-160.588,
2006-05-07,20:40,24.198,-160.407,
2006-05-08,09:36,24.3,-160.201,
2006-05-08,14:46,24.372,-160.152,
2006-05-08,15:28,24.368,-160.082,
2006-05-08,20:18,24.359,-159.918,
2006-05-08,23:52,24.38,-159.923,
2006-05-09,01:09,24.374,-159.915,
2006-05-09,03:41,24.39,-159.838,
2006-05-09,12:29,24.378,-159.704,
2006-05-10,02:38,24.354,-159.402,
2006-05-10,03:17,24.324,-159.354,
2006-05-10,14:02,24.353,-159.331,
2006-05-10,19:38,24.41,-159.12,
2006-05-11,14:49,24.516,-158.938,
2006-05-11,19:23,24.522,-158.915,
2006-05-11,21:04,24.534,-158.895,
2006-05-12,12:55,24.616,-158.634,
2006-05-12,13:42,24.597,-158.644,
2006-05-12,15:48,24.591,-158.564,
2006-05-12,23:14,24.612,-158.429,
2006-05-13,02:54,24.849,-158.24,
2006-05-15,03:48,25.273,-157.591,
2006-05-16,04:13,25.504,-157.194,
2006-05-16,12:57,25.556,-157.037,
2006-05-16,20:02,25.578,-156.92,
2006-05-17,02:09,25.58,-156.844,
2006-05-17,03:47,25.602,-156.749,
2006-05-18,04:10,25.416,-156.384,
2006-05-18,07:26,25.553,-156.283,
2006-05-18,15:04,25.543,-156.039,
2006-05-19,07:02,25.487,-155.733,
2006-05-19,12:22,25.549,-155.796,
2006-05-20,02:22,25.402,-155.411,
2006-05-20,04:08,25.36,-155.238,
2006-05-22,01:01,25.091,-154.356,
2006-05-22,01:59,25.106,-154.281,
2006-05-22,23:13,25.121,-153.858,
2006-05-23,01:40,25.115,-153.814,
2006-05-23,02:17,25.117,-153.786,
2006-05-23,12:34,25.053,-153.705,
2006-05-23,16:22,25.137,-153.528,
2006-05-23,23:54,25.141,-153.303,
2006-05-24,02:25,25.098,-153.239,
2006-05-24,08:26,25.186,-153.155,
2006-05-24,14:53,25.232,-153.016,
2006-05-25,05:37,25.282,-152.733,
2006-05-25,07:14,25.309,-152.601,
2006-05-26,11:56,25.551,-152.06,
2006-05-26,15:14,25.365,-151.814,
2006-05-27,02:23,25.464,-151.622,
2006-05-27,02:56,25.422,-151.603,
2006-05-27,09:03,25.41,-151.244,
2006-05-27,10:59,25.537,-151.17,
2006-05-27,15:06,25.499,-151.31,
2006-05-28,00:00,25.57,-151.061,
2006-05-28,02:22,25.562,-151.084,
2006-05-28,06:58,25.637,-150.94,
2006-05-29,03:11,25.651,-150.336,
2006-05-29,14:34,25.625,-150.428,
2006-05-30,04:26,25.625,-150.059,
2006-05-30,14:35,25.683,-149.717,
2006-05-30,18:38,25.724,-149.674,
2006-05-30,21:56,25.724,-149.588,
2006-05-31,09:08,25.888,-149.271,
2006-05-31,14:53,25.752,-149.187,
2006-06-01,07:05,25.722,-148.754,
2006-06-01,10:13,25.678,-148.664,
2006-06-01,14:09,25.693,-148.608,
2006-06-01,21:07,25.836,-148.446,
2006-06-02,10:02,25.676,-148.075,
2006-06-03,21:10,25.959,-147.496,
2006-06-04,07:33,26.032,-147.157,
2006-06-04,09:13,26.036,-147.118,
2006-06-05,03:51,26.111,-146.614,
2006-06-05,04:51,26.162,-146.656,
2006-06-05,08:15,26.118,-146.619,
2006-06-05,08:54,26.114,-146.572,
2006-06-05,13:24,26.086,-146.4,
2006-06-06,00:08,25.964,-146.091,
2006-06-06,06:19,26.029,-145.959,
2006-06-06,10:58,26.054,-145.846,
2006-06-06,14:32,26.045,-145.73,
2006-06-07,00:26,26.105,-145.502,
2006-06-07,06:26,26.197,-145.405,
2006-06-07,10:47,26.272,-145.484,
2006-06-07,12:33,26.314,-145.343,
2006-06-07,17:03,26.356,-145.215,
2006-06-07,22:14,26.306,-145.209,
2006-06-08,06:04,26.459,-144.973,
2006-06-08,22:00,26.528,-144.774,
2006-06-09,02:42,26.524,-144.599,
2006-06-09,03:50,26.547,-144.609,
2006-06-09,10:28,26.531,-144.547,
2006-06-09,14:42,26.398,-144.414,
2006-06-09,19:45,26.491,-144.367,
2006-06-09,23:31,26.515,-144.245,
2006-06-10,03:29,26.498,-144.196,
2006-06-10,14:05,26.476,-144.002,
2006-06-10,14:13,26.474,-143.998,
2006-06-10,19:35,26.464,-143.808,
2006-06-10,21:01,26.474,-143.868,
2006-06-10,23:17,26.469,-143.775,
2006-06-11,10:10,26.486,-143.516,
2006-06-11,20:39,26.427,-143.38,
2006-06-12,04:59,26.315,-143.263,
2006-06-12,07:50,26.382,-143.189,
2006-06-13,21:28,26.526,-142.167,
2006-06-14,03:38,26.532,-142.06,
2006-06-14,08:42,26.584,-141.986,
2006-06-15,08:22,26.866,-141.363,
2006-06-15,15:51,26.956,-141.152,
2006-06-16,19:55,26.835,-140.235,
2006-06-17,02:21,26.937,-140.222,
2006-06-18,01:39,27.002,-139.703,
2006-06-18,12:27,27.11,-139.638,
2006-06-18,21:14,27.256,-139.335,
2006-06-19,17:39,27.436,-139.113,
2006-06-20,23:30,27.66,-138.69,
2006-06-21,06:07,27.645,-138.929,
2006-06-23,18:25,27.937,-137.623,
2006-06-23,20:58,27.984,-137.447,
2006-06-24,02:56,28.009,-137.272,
2006-06-24,08:16,28.016,-137.18,
2006-06-24,18:16,27.989,-137.035,
2006-06-25,04:12,28.012,-136.831,
2006-06-25,09:25,28.064,-136.745,
2006-06-25,13:22,28.045,-136.721,
2006-06-25,20:13,28.07,-136.583,
2006-06-26,14:29,28.208,-136.413,
2006-06-27,00:11,28.196,-136.188,
2006-06-27,05:13,28.294,-136.071,
2006-06-27,06:47,28.275,-136.128,
2006-06-27,10:51,28.372,-136.132,
2006-06-27,17:36,28.315,-135.913,
2006-06-27,22:08,28.37,-135.804,
2006-06-28,01:24,28.405,-135.726,
2006-06-28,03:00,28.372,-135.698,
2006-06-28,12:12,28.443,-135.464,
2006-06-28,12:13,28.444,-135.465,
2006-06-30,14:43,28.897,-134.574,
2006-07-01,21:13,29.156,-133.923,
2006-07-02,00:43,29.219,-133.892,
2006-07-02,05:12,29.119,-133.942,
2006-07-03,01:00,29.2,-133.947,
2006-07-03,17:54,29.521,-133.591,
2006-07-04,07:46,29.66,-133.442,
2006-07-04,12:44,29.721,-133.371,
2006-07-05,05:45,29.796,-133.115,
2006-07-05,09:25,29.788,-133.123,
2006-07-05,14:22,29.971,-133.181,
2006-07-05,18:04,29.851,-132.908,
2006-07-06,14:01,29.949,-132.595,
2006-07-06,15:33,29.943,-132.582,
2006-07-06,15:35,29.941,-132.58,
2006-07-07,04:55,29.993,-132.397,
2006-07-10,03:13,30.319,-131.526,
2006-07-10,13:14,30.37,-131.588,
2006-07-10,18:06,30.398,-131.576,
2006-07-10,22:57,30.39,-131.463,
2006-07-10,23:15,30.396,-131.458,
2006-07-11,19:09,30.459,-131.174,
2006-07-12,20:19,30.56,-130.655,
2006-07-13,11:23,30.669,-130.388,
2006-07-13,21:07,30.74,-130.237,
2006-07-14,22:11,30.888,-129.684,
2006-07-16,04:21,31.073,-128.927,
2006-07-17,00:26,31.24,-128.473,
2006-07-17,05:51,31.24,-128.569,
2006-07-17,20:06,31.305,-128.345,
2006-07-18,00:59,31.344,-128.256,
2006-07-18,11:37,31.437,-128.028,
2006-07-19,07:06,31.611,-127.836,
2006-07-19,17:41,31.644,-127.702,
2006-07-20,13:16,31.774,-127.341,
2006-07-20,23:13,31.898,-127.193,
2006-07-21,04:36,31.955,-127.076,
2006-07-22,00:15,32.082,-126.762,
2006-07-23,20:57,32.579,-126.301,
2006-07-24,02:29,32.621,-126.233,
2006-07-24,21:56,32.693,-125.849,
2006-07-25,13:02,32.698,-125.673,
2006-07-26,03:57,32.557,-125.274,
2006-07-26,14:17,32.689,-125.335,
2006-07-27,05:22,32.537,-125.294,
2006-07-27,20:15,32.546,-125.126,
2006-07-28,01:08,32.578,-125.129,
2006-07-28,11:26,32.572,-125.054,
2006-07-29,02:20,32.646,-124.852,
2006-07-29,11:58,32.72,-124.772,
2006-07-29,17:14,32.732,-124.621,
2006-08-01,15:10,33.184,-123.537,
2006-08-03,22:30,33.394,-122.564,
2006-08-04,03:24,33.417,-122.383,
2006-08-05,19:35,33.959,-121.672,
2006-08-06,05:07,34.092,-121.721,
2006-08-06,10:35,34.12,-121.566,
2006-08-08,12:27,34.428,-121.4,
2006-08-08,16:55,34.394,-121.524,
2006-08-08,22:23,34.403,-121.459,
2006-08-09,03:05,34.399,-121.512,
2006-08-10,03:59,34.651,-121.541,
2006-08-10,15:00,34.806,-121.489,
2006-08-10,19:45,34.928,-121.598,
2006-08-11,20:30,35.317,-121.619,
2006-08-12,21:38,35.774,-121.722,
2006-08-13,22:31,36.113,-122.068,
2006-08-14,13:13,36.332,-122.316,
2006-08-15,04:41,36.438,-122.788,
2006-08-15,09:01,36.533,-122.834,
2006-08-15,14:02,36.595,-122.901,
2006-08-16,10:36,36.777,-123.208,
2006-08-17,05:59,36.809,-123.891,
2006-08-18,02:11,36.885,-123.749,
2006-08-18,07:10,36.83,-123.84,
2006-08-18,12:20,36.926,-123.885,
2006-08-18,22:04,37.019,-123.928,
2006-08-19,13:00,37.171,-124.154,
2006-08-19,17:55,37.292,-124.483,
2006-08-19,23:04,37.209,-124.466,
2006-08-21,15:34,37.336,-124.651,
2006-08-22,01:22,36.985,-125.119,
2006-08-22,21:02,37.301,-124.682,
2006-08-23,02:31,37.421,-124.573,
2006-08-23,22:25,37.535,-124.712,
2006-08-25,04:08,37.825,-124.645,
2006-08-25,14:06,38.129,-125.036,
2006-08-26,20:13,37.767,-124.487,
2006-08-27,00:56,37.784,-124.474,
2006-08-27,21:01,37.753,-124.495,
2006-08-29,07:59,37.634,-124.33,
2006-08-29,13:12,37.642,-124.372,
2006-08-29,23:07,37.645,-124.204,
2006-08-31,00:07,37.336,-124.114,
2006-08-31,15:01,37.094,-124.029,
2006-09-01,06:05,36.982,-124.332,
2006-09-02,17:05,36.415,-124.116,
2006-09-03,03:08,36.247,-124.127,
2006-09-03,18:21,35.999,-124.093,
2006-09-04,08:58,35.746,-124.088,
2006-09-04,14:08,35.635,-124.065,
2006-09-05,20:12,35.09,-123.919,
2006-09-06,01:04,34.963,-124.32,
2006-09-08,18:09,34.728,-124.354,
2006-09-09,04:11,34.612,-124.516,
2006-09-11,20:56,34.352,-123.188,
2006-09-12,06:54,34.046,-123.272,
2006-09-12,22:21,33.906,-123.497,
2006-09-14,08:55,33.511,-123.663,
2006-09-14,18:59,33.335,-123.445,
2006-09-15,00:03,33.283,-123.356,
2006-09-16,01:00,33.096,-122.737,
2006-09-16,21:30,32.908,-122.482,
2006-09-18,12:57,32.382,-122.305,
2006-09-19,14:35,32.123,-122.193,
2006-09-20,20:14,31.876,-121.943,
2006-09-21,00:59,31.778,-121.85,
2006-09-22,07:09,31.444,-121.741,
2006-09-22,17:09,31.356,-121.802,
2006-09-22,21:57,31.297,-121.683,
2006-09-24,04:22,31.14,-121.317,
2006-09-24,23:54,30.973,-121.256,
2006-09-25,10:31,30.962,-121.14,
2006-09-25,19:57,30.908,-120.911,
2006-09-27,02:24,30.57,-120.778,
2006-09-27,17:30,30.444,-120.678,
2006-09-28,08:16,30.332,-120.583,
2006-09-28,22:59,30.121,-120.653,
2006-09-30,05:41,29.458,-120.645,
2006-09-30,11:19,29.822,-120.811,
2006-10-02,22:14,29.011,-120.145,
2006-10-03,02:56,29,-120.105,
2006-10-03,13:37,28.922,-120.037,
2006-10-03,23:09,28.83,-119.992,
2006-10-04,03:54,28.827,-119.886,
2006-10-05,00:22,28.693,-120.115,
2006-10-05,10:21,28.673,-119.643,
2006-10-06,01:46,28.714,-119.653,
2006-10-06,06:41,28.684,-119.587,
2006-10-06,11:16,28.697,-119.535,
2006-10-07,12:02,28.644,-119.426,
2006-10-10,00:19,28.41,-119.269,
2006-10-10,20:54,28.354,-119.304,
2006-10-11,01:20,28.287,-119.244,
2006-10-11,06:32,28.248,-119.195,
2006-10-11,10:59,28.256,-119.334,
2006-10-11,21:38,28.199,-119.321,
2006-10-13,13:19,27.833,-119.33,
2006-10-13,18:09,27.812,-119.382,
2006-10-16,01:05,27.192,-119.311,
2006-10-16,11:01,27.059,-119.273,
2006-10-17,12:31,26.86,-119.269,
2006-10-18,18:18,26.555,-119.18,
2006-10-18,23:37,26.468,-119.156,
2006-10-19,03:55,26.424,-119.126,
2006-10-19,19:10,26.204,-119.006,
2006-10-20,10:17,26.023,-118.923,
2006-10-21,00:55,25.731,-118.953,
2006-10-22,02:00,25.568,-118.753,
2006-10-22,17:30,25.406,-118.666,
2006-10-22,22:11,25.377,-118.787,
2006-10-24,04:31,25.12,-118.785,
2006-10-25,00:06,25.148,-118.791,
2006-10-25,10:23,25.185,-118.711,
2006-10-27,06:55,25.177,-118.856,
2006-10-28,02:55,24.932,-118.82,
2006-10-29,05:31,24.887,-118.78,
2006-10-30,05:59,25.245,-118.256,
2006-10-31,02:46,24.479,-118.833,
2006-10-31,12:05,24.43,-118.939,
2006-11-01,13:08,24.08,-118.851,
2006-11-06,11:55,23.434,-119.455,
2006-11-06,17:15,23.413,-119.084,
2006-11-09,11:06,22.777,-118.727,
2006-11-13,05:11,22.105,-120,
2006-11-14,04:57,21.807,-119.729,
2006-11-17,09:46,21.173,-120.537,
2006-11-19,00:11,20.109,-120.975,
2006-11-19,15:01,20.765,-120.594,
2006-11-20,22:10,20.646,-120.572,
2006-11-21,12:22,20.236,-120.663,
2006-11-22,10:33,20.231,-120.852,
2006-11-25,11:36,19.16,-121.142,
2006-11-26,01:25,18.952,-121.353,
2006-11-26,13:12,19.077,-120.566,
2006-11-27,09:43,18.577,-121.679,
2006-11-28,20:50,18.309,-121.313,
2006-11-30,19:45,17.565,-121.4