Leatherback Sea Turtle 
2604004 41709
2004-01-22,12:40,10.326,-85.994,
2004-01-22,17:08,10.47,-85.855,
2004-01-22,22:43,10.408,-85.899,
2004-01-23,09:37,10.653,-86.04,
2004-01-23,12:17,10.673,-86.025,
2004-01-23,13:56,10.647,-85.99,
2004-01-23,14:25,10.672,-86.013,
2004-01-23,18:26,10.695,-85.901,
2004-01-24,23:01,10.739,-86.002,
2004-01-25,05:11,10.772,-85.835,
2004-01-25,20:27,10.879,-85.995,
2004-01-26,07:27,10.974,-85.895,
2004-01-26,12:48,10.964,-86.009,
2004-01-26,20:17,10.924,-85.969,
2004-01-27,01:00,10.942,-85.928,
2004-01-27,02:47,10.985,-85.767,
2004-01-28,17:13,10.858,-86.171,
2004-01-29,13:12,10.975,-85.982,
2004-01-29,14:50,10.955,-85.973,
2004-01-29,19:44,10.928,-86.043,
2004-01-29,23:15,10.886,-86.021,
2004-01-30,00:22,10.897,-86.064,
2004-01-30,04:54,10.956,-85.96,
2004-01-30,05:52,10.94,-86.028,
2004-01-30,11:12,10.998,-86.044,
2004-01-30,14:37,10.985,-86.01,
2004-01-30,19:30,11.012,-86.117,
2004-01-31,15:26,11.027,-86.083,
2004-02-01,01:39,11.01,-86.208,
2004-02-02,03:24,10.846,-86.21,
2004-02-03,09:14,10.614,-86.34,
2004-02-03,13:45,10.615,-86.442,
2004-02-03,18:45,10.573,-86.555,
2004-02-04,04:38,10.478,-86.743,
2004-02-04,09:05,10.417,-86.829,
2004-02-05,00:45,10.295,-87.42,
2004-02-05,11:02,10.282,-87.458,
2004-02-05,15:03,10.24,-87.474,
2004-02-05,20:04,10.149,-87.496,
2004-02-06,08:39,9.901,-87.628,
2004-02-06,11:45,9.878,-87.648,
2004-02-06,12:13,9.874,-87.651,
2004-02-07,08:28,9.532,-87.826,
2004-02-07,17:47,9.342,-88.018,
2004-02-07,22:54,9.261,-88.138,
2004-02-08,03:12,9.215,-88.247,
2004-02-08,18:04,9.104,-88.453,
2004-02-09,09:23,9.068,-88.753,
2004-02-09,14:12,9.027,-88.805,
2004-02-09,19:15,9.011,-88.879,
2004-02-10,10:37,8.907,-88.905,
2004-02-10,20:46,8.695,-88.875,
2004-02-11,16:15,8.179,-89.011,
2004-02-12,03:19,8.023,-89.251,
2004-02-13,04:41,7.843,-89.292,
2004-02-13,09:05,7.904,-89.241,
2004-02-14,01:00,7.71,-88.967,
2004-02-14,05:36,7.597,-89.079,
2004-02-14,14:49,7.468,-88.757,
2004-02-15,01:58,7.234,-88.628,
2004-02-15,06:59,7.183,-88.535,
2004-02-15,21:18,6.908,-88.381,
2004-02-15,21:28,6.895,-88.379,
2004-02-16,11:25,6.757,-88.351,
2004-02-16,16:04,6.509,-88.12,
2004-02-16,21:19,6.247,-87.991,
2004-02-17,03:06,6.302,-87.952,
2004-02-17,14:06,5.74,-87.633,
2004-02-17,19:28,6.033,-87.629,
2004-02-17,22:11,5.987,-87.721,
2004-02-18,09:02,5.787,-87.738,
2004-02-18,09:46,5.779,-87.745,
2004-02-18,14:00,5.714,-87.702,
2004-02-18,23:05,5.548,-87.704,
2004-02-19,00:47,5.529,-87.664,
2004-02-19,06:11,5.431,-87.662,
2004-02-19,09:36,5.354,-87.682,
2004-02-19,14:54,5.321,-87.767,
2004-02-19,19:04,5.229,-87.698,
2004-02-19,21:16,5.281,-87.695,
2004-02-20,02:33,5.114,-87.673,
2004-02-20,05:15,5.061,-87.571,
2004-02-20,20:37,4.898,-88.086,
2004-02-21,03:15,4.749,-87.86,
2004-02-21,12:36,4.601,-87.887,
2004-02-21,23:31,4.581,-88.391,
2004-02-22,03:46,4.449,-88.237,
2004-02-22,04:35,4.45,-88.234,
2004-02-22,09:00,4.43,-88.324,
2004-02-22,13:50,4.395,-88.402,
2004-02-22,17:06,4.376,-88.475,
2004-02-22,18:07,4.375,-88.487,
2004-02-22,23:13,4.356,-88.63,
2004-02-23,08:46,4.315,-88.862,
2004-02-23,13:27,4.298,-88.941,
2004-02-23,18:01,4.275,-89.101,
2004-02-24,05:28,4.309,-89.351,
2004-02-24,11:27,4.344,-89.443,
2004-02-24,14:27,4.254,-89.473,
2004-02-25,00:09,4.348,-89.504,
2004-02-25,17:33,4.173,-90.251,
2004-02-26,01:19,4.121,-90.041,
2004-02-26,03:02,4.107,-90.161,
2004-02-26,21:02,3.982,-90.346,
2004-02-26,23:14,3.995,-90.223,
2004-02-27,04:16,3.878,-90.565,
2004-02-29,00:10,3.664,-91.513,
2004-03-01,20:19,3.884,-92.468,
2004-03-02,01:07,3.825,-92.569,
2004-03-02,06:06,3.816,-92.572,
2004-03-02,09:03,3.807,-92.593,
2004-03-02,13:41,3.782,-92.621,
2004-03-02,17:04,3.731,-92.647,
2004-03-03,02:19,3.643,-92.701,
2004-03-03,04:05,3.623,-92.698,
2004-03-03,08:45,3.592,-92.746,
2004-03-03,14:26,3.57,-92.732,
2004-03-03,17:31,3.553,-92.723,
2004-03-04,00:14,3.535,-92.825,
2004-03-04,05:24,3.517,-92.909,
2004-03-04,14:07,3.509,-93.109,
2004-03-04,18:01,3.525,-93.118,
2004-03-04,18:57,3.511,-93.167,
2004-03-05,19:35,3.555,-93.589,
2004-03-07,13:22,3.684,-94.14,
2004-03-10,01:12,3.013,-95.298,
2004-03-10,09:13,2.895,-95.751,
2004-03-10,14:39,2.822,-95.697,
2004-03-10,20:13,2.734,-96.037,
2004-03-11,06:05,2.604,-96.274,
2004-03-12,18:14,2.288,-97.326,
2004-03-12,19:56,2.28,-97.349,
2004-03-13,23:39,2.169,-97.983,
2004-03-14,09:31,2.246,-98.242,
2004-03-15,01:54,2.004,-98.373,
2004-03-16,06:52,1.782,-98.672,
2004-03-16,07:48,1.804,-98.643,
2004-03-18,06:00,0.639,-98.762,
2004-03-18,13:21,0.514,-98.616,
2004-03-18,18:43,0.404,-98.559,
2004-03-21,15:33,-0.766,-97.871,
2004-03-21,19:27,-0.961,-97.771,
2004-03-21,20:51,-1.027,-97.738,
2004-03-22,00:35,-1.025,-97.628,
2004-03-24,15:59,-1.178,-97.306,
2004-03-29,14:59,-1.796,-97.121,
2004-04-05,01:01,-3.706,-98.757,
2004-04-11,20:53,-6.203,-100.562,
2004-05-02,15:05,-12.046,-102.364,
2004-05-04,05:35,-12.386,-102.133,
2004-05-04,14:43,-12.423,-102.115,
2004-05-04,18:13,-12.457,-102.121,
2004-05-04,18:19,-12.454,-102.119,
2004-05-04,21:36,-12.449,-102.142,
2004-05-05,02:24,-12.408,-102.016,
2004-05-05,10:23,-12.556,-102.09,
2004-05-05,14:28,-12.556,-102.233,
2004-05-05,21:25,-12.693,-101.779,
2004-05-06,06:37,-12.732,-102.082,
2004-05-10,04:55,-13.591,-102.073,
2004-05-10,10:38,-13.605,-102.042,
2004-05-10,15:07,-13.637,-102.047,
2004-05-10,17:39,-13.652,-102.073,
2004-05-10,18:31,-13.68,-102.026,
2004-05-12,09:01,-13.764,-101.925,
2004-05-12,12:29,-13.758,-101.941,
2004-05-12,14:07,-13.749,-101.941,
2004-05-12,14:41,-13.753,-101.931,
2004-05-13,05:29,-13.752,-101.874,
2004-05-16,22:38,-14.451,-101.713,
2004-05-17,05:35,-14.448,-101.668,
2004-05-17,09:47,-14.534,-101.644,
2004-05-17,13:42,-14.492,-101.645,
2004-05-17,15:16,-14.551,-101.59,
2004-05-17,22:20,-14.63,-101.65,
2004-05-19,09:27,-14.954,-101.713,
2004-05-21,12:15,-15.545,-101.739,
2004-05-21,21:37,-15.652,-101.69,
2004-05-24,09:55,-16.107,-101.531,
2004-05-25,01:19,-16.164,-101.441,
2004-05-25,06:01,-16.151,-101.523,
2004-05-25,07:09,-16.157,-101.463,
2004-05-29,06:04,-16.337,-101.157,
2004-05-29,09:13,-16.338,-101.037,
2004-05-30,05:43,-16.331,-101.036,
2004-05-30,10:43,-16.343,-101.082,
2004-05-31,06:59,-16.276,-101.113,
2004-05-31,11:39,-16.348,-101.054,
2004-06-02,04:31,-16.208,-101.068,
2004-06-04,05:27,-16.26,-101.239,
2004-06-04,06:35,-16.274,-101.149,
2004-06-05,01:52,-16.341,-101.273,
2004-06-05,06:15,-16.284,-101.201,
2004-06-05,11:35,-16.242,-101.118,
2004-06-07,05:59,-16.098,-101.02,
2004-06-11,22:37,-15.942,-100.769,
2004-06-16,02:34,-15.796,-100.737,
2004-06-17,00:34,-15.718,-100.748,
2004-06-17,15:29,-15.712,-100.756,
2004-06-17,21:27,-15.753,-100.728,
2004-06-18,01:49,-15.747,-100.695,
2004-06-18,05:14,-15.779,-100.71,
2004-06-18,06:47,-15.728,-100.66,
2004-06-18,11:17,-15.742,-100.679,
2004-06-18,12:58,-15.732,-100.624,
2004-06-18,16:13,-15.689,-100.602,
2004-06-18,17:57,-15.725,-100.645,
2004-06-18,22:59,-15.678,-100.67,
2004-06-19,04:46,-15.665,-100.643,
2004-06-19,08:33,-15.671,-100.688,
2004-06-19,12:35,-15.691,-100.733,
2004-06-20,22:38,-15.6,-100.89,
2004-06-29,09:58,-16.589,-100.619,
2004-06-29,12:01,-16.625,-100.585,
2004-06-29,15:25,-16.578,-100.598,
2004-07-05,12:54,-15.543,-100.564,
2004-07-05,13:19,-15.51,-100.566,
2004-07-05,16:29,-15.513,-100.592,
2004-07-09,05:37,-14.862,-100.81,
2004-07-09,08:04,-14.867,-100.79,
2004-07-09,11:21,-14.857,-100.82,
2004-07-09,14:40,-14.863,-100.786,
2004-07-09,15:52,-14.86,-100.829,
2004-07-09,18:15,-14.845,-100.838,
2004-07-10,02:37,-14.758,-100.804,
2004-07-10,05:08,-14.775,-100.716,
2004-07-10,09:36,-14.785,-100.824,
2004-07-10,12:42,-14.786,-100.839,
2004-07-11,13:56,-14.662,-100.931,
2004-07-11,15:54,-14.648,-100.96,
2004-07-11,17:39,-14.557,-100.89,
2004-07-11,21:55,-14.591,-101.051,
2004-07-12,02:22,-14.588,-101.107,
2004-07-13,11:02,-14.358,-101.246,
2004-07-16,00:48,-13.826,-101.31,
2004-07-16,06:13,-13.781,-101.28,
2004-07-16,14:18,-13.689,-101.285,
2004-07-16,15:58,-13.687,-101.288,
2004-07-16,17:16,-13.664,-101.311,
2004-07-17,05:56,-13.599,-101.342,
2004-07-18,09:44,-13.395,-101.266,
2004-07-26,02:42,-13.43,-102.934,
2004-07-26,16:57,-13.286,-103.191,
2004-07-27,09:46,-13.519,-103.155,
2004-07-29,15:47,-13.675,-103.4,
2004-07-30,01:53,-13.679,-103.403,
2004-07-31,12:42,-13.664,-103.568,
2004-08-02,04:43,-13.581,-103.504,
2004-08-05,02:52,-13.878,-103.322,
2004-08-05,22:19,-13.89,-103.369,
2004-08-08,01:03,-14.078,-103.647,
2004-08-09,11:38,-14.007,-103.747,
2004-08-10,17:50,-14.264,-103.493,
2004-08-12,05:56,-14.404,-103.367,
2004-08-14,02:46,-14.453,-102.977,
2004-08-14,07:55,-14.467,-102.93,
2004-08-14,16:25,-14.534,-102.844,
2004-08-15,03:25,-14.545,-102.765,
2004-08-15,13:22,-14.567,-102.708,
2004-08-18,10:34,-14.764,-102.528,
2004-08-18,21:23,-14.864,-102.63,
2004-08-20,10:08,-14.987,-102.391,
2004-08-20,22:46,-15.1,-102.295,
2004-08-21,05:52,-15.146,-102.3,
2004-08-24,22:04,-15.659,-102.651,
2004-08-25,09:14,-15.793,-102.413,
2004-08-28,00:27,-16.416,-101.533,
2004-08-28,22:55,-16.625,-101.521,
2004-08-29,06:15,-16.613,-102.106,
2004-08-29,17:21,-16.729,-101.481,
2004-09-01,16:02,-17.306,-101.228,
2004-09-02,01:50,-17.395,-101.25,
2004-09-03,02:44,-18.186,-101.206,
2004-09-09,13:36,-18.354,-100.53,
2004-09-30,03:40,-22.306,-99.429,
2004-10-13,10:01,-24.844,-98.204,
2004-10-13,13:56,-24.836,-98.234,
2004-10-13,20:48,-24.904,-98.204,
2004-10-14,00:14,-24.926,-98.105,
2004-10-17,13:36,-25.571,-98.003,
2004-10-18,07:20,-25.69,-97.945,
2004-10-18,09:02,-25.694,-97.929,
2004-10-19,01:40,-25.796,-97.864,
2004-10-19,23:33,-26.084,-97.74,
2004-10-20,02:56,-26.141,-97.731,
2004-10-27,23:48,-27.792,-96.797,
2004-10-29,04:10,-27.826,-96.732,
2004-10-31,16:01,-28.174,-96.168,
2004-11-02,23:04,-28.505,-95.576,
2004-11-03,05:22,-28.49,-95.531,
2004-11-03,08:43,-28.448,-95.564,
2004-11-03,10:17,-28.487,-95.511,
2004-11-06,01:44,-28.717,-94.635,
2004-11-06,06:01,-28.733,-94.531,
2004-11-06,16:26,-28.837,-94.518,
2004-11-08,22:31,-28.88,-93.579,
2004-11-09,12:56,-28.867,-93.345,
2004-11-16,11:04,-28.772,-91.718,
2004-11-16,14:57,-28.736,-91.743,
2004-11-16,15:47,-28.717,-91.765,
2004-11-18,11:01,-28.658,-91.578,
2004-11-18,12:39,-28.686,-91.548,
2004-11-18,12:58,-28.684,-91.531,
2004-11-19,14:24,-28.73,-91.406,
2004-11-22,13:41,-28.765,-91.419,
2004-11-22,15:27,-28.795,-91.333,
2004-11-22,16:50,-28.803,-91.435,
2004-11-23,12:30,-28.843,-91.517,
2004-11-25,03:23,-28.68,-91.374,
2004-11-25,05:58,-28.672,-91.324,
2004-11-25,06:49,-28.653,-91.361,
2004-11-25,08:23,-28.605,-91.496,
2004-11-25,23:58,-28.667,-91.427,
2004-11-26,00:47,-28.626,-91.448,
2004-11-26,15:16,-28.607,-91.512,
2004-11-29,04:14,-28.28,-91.429,
2004-11-30,11:16,-28.373,-91.164,
2004-12-06,01:08,-28.697,-90.608,
2004-12-10,21:59,-28.507,-90.43,
2004-12-11,10:50,-28.548,-90.295,
2004-12-12,14:27,-28.526,-90.395,
2004-12-12,21:03,-28.527,-90.393,
2004-12-18,01:19,-28.824,-90.35,
2004-12-18,09:46,-28.884,-90.389,
2004-12-18,21:34,-28.99,-90.342,
2004-12-19,03:31,-29.074,-90.314,
2004-12-20,06:59,-29.266,-90.427,
2004-12-20,19:29,-29.337,-90.392,
2004-12-21,00:01,-29.526,-90.181,
2004-12-21,15:47,-29.514,-90.44,
2004-12-22,01:23,-29.59,-90.456,
2004-12-22,04:09,-29.563,-90.484,
2004-12-22,12:33,-29.972,-90.067,
2004-12-22,23:15,-29.734,-90.38,
2004-12-23,00:54,-29.86,-90.407,
2004-12-24,06:18,-29.822,-90.265,
2004-12-24,11:48,-29.849,-90.231,
2004-12-25,01:56,-29.898,-90.171,
2004-12-25,06:23,-29.891,-90.154,
2004-12-25,13:11,-29.9,-90.072,
2004-12-25,21:52,-29.935,-90.163,
2004-12-27,09:16,-30.186,-90.155,
2004-12-27,12:16,-30.187,-90.19,
2004-12-27,12:58,-30.185,-90.215,
2004-12-27,19:53,-30.234,-90.212,
2004-12-30,12:18,-30.245,-89.944,
2004-12-31,01:12,-30.252,-89.823,
2004-12-31,10:50,-30.171,-89.854,
2005-01-01,00:41,-30.057,-89.624,
2005-01-03,14:47,-30.101,-89.624,
2005-01-06,19:40,-29.936,-89.694,
2005-01-11,14:27,-29.999,-89.902,
2005-01-13,21:35,-29.938,-89.89,
2005-01-28,13:06,-31.421,-89.959,
2005-01-29,06:20,-31.463,-89.943,
2005-01-29,12:38,-31.585,-89.947,
2005-01-29,14:18,-31.591,-89.957,
2005-01-29,17:33,-31.61,-89.877,
2005-01-31,03:57,-31.602,-89.928,
2005-01-31,16:48,-31.657,-89.912,
2005-01-31,21:29,-31.66,-90.051,
2005-02-01,05:10,-31.603,-90.068,
2005-02-01,13:06,-31.681,-90.047,
2005-02-01,15:18,-31.677,-89.975,
2005-02-01,23:44,-31.748,-90.022,
2005-02-02,09:10,-31.804,-90.066,
2005-02-02,10:43,-31.731,-90.11,
2005-02-02,12:43,-31.847,-90.055,
2005-02-02,13:30,-31.853,-90.053,
2005-02-03,01:10,-32.049,-89.66,
2005-02-03,08:27,-32.005,-90.011,
2005-02-03,12:18,-32.023,-90.017,
2005-02-03,13:13,-32.036,-89.977,
2005-02-03,22:46,-32.05,-89.869,
2005-02-04,03:22,-32.084,-89.93,
2005-02-04,04:04,-32.081,-89.929,
2005-02-04,05:42,-32.069,-89.941,
2005-02-04,08:22,-32.06,-89.888,
2005-02-12,12:09,-31.915,-89.892,
2005-02-12,14:39,-31.915,-89.894,
2005-02-15,22:02,-31.984,-89.872,
2005-02-16,00:53,-32.195,-90.065,
2005-02-16,12:17,-31.939,-89.909,
2005-02-20,22:44,-31.988,-89.673,
2005-03-11,23:47,-32.72,-88.681,
2005-03-16,02:33,-33.16,-88.465