Leatherback Sea Turtle 
2605023 56270 
2005-09-14,01:40,37.572,-122.592,
2005-09-14,06:25,37.496,-122.579,
2005-09-14,06:30,37.49,-122.585,
2005-09-15,01:20,37.492,-122.589,
2005-09-15,02:53,37.441,-122.708,
2005-09-15,06:12,37.492,-122.727,
2005-09-15,12:09,37.561,-122.729,
2005-09-15,13:34,37.607,-122.738,
2005-09-15,16:52,37.71,-122.759,
2005-09-15,22:47,37.884,-122.754,
2005-09-16,04:21,37.904,-122.84,
2005-09-16,07:24,37.962,-122.85,
2005-09-16,12:36,37.949,-122.912,
2005-09-16,13:10,37.95,-122.964,
2005-09-16,14:19,37.962,-122.963,
2005-09-16,14:52,37.956,-122.974,
2005-09-16,23:19,37.909,-123.052,
2005-09-17,04:04,37.879,-122.969,
2005-09-17,05:47,37.9,-122.909,
2005-09-17,09:59,37.939,-122.997,
2005-09-17,14:26,37.932,-122.844,
2005-09-17,18:09,37.862,-122.847,
2005-09-17,23:10,37.759,-122.874,
2005-09-18,00:07,37.706,-122.897,
2005-09-18,14:03,37.794,-122.876,
2005-09-18,15:09,37.766,-122.884,
2005-09-18,15:41,37.76,-122.863,
2005-09-18,19:52,37.673,-123.002,
2005-09-19,00:42,37.568,-123.124,
2005-09-19,01:25,37.56,-123.138,
2005-09-19,15:17,37.264,-123.408,
2005-09-19,16:02,37.251,-123.437,
2005-09-19,20:13,37.149,-123.486,
2005-09-19,21:04,37.163,-123.494,
2005-09-20,02:39,36.997,-123.632,
2005-09-20,07:33,36.962,-123.666,
2005-09-20,12:39,36.947,-123.727,
2005-09-20,16:33,36.955,-123.702,
2005-09-20,18:09,36.942,-123.818,
2005-09-21,02:17,36.852,-123.905,
2005-09-21,04:56,36.822,-123.895,
2005-09-21,07:09,36.764,-124.01,
2005-09-21,09:32,36.755,-124.009,
2005-09-21,12:40,36.674,-124.123,
2005-09-21,19:00,36.55,-124.269,
2005-09-21,23:34,36.426,-124.349,
2005-09-22,05:05,36.328,-124.409,
2005-09-22,10:44,36.116,-124.503,
2005-09-22,13:33,36.031,-124.515,
2005-09-22,14:10,36.013,-124.507,
2005-09-23,04:40,35.537,-124.618,
2005-09-23,06:11,35.449,-124.665,
2005-09-23,14:47,35.303,-124.764,
2005-09-24,00:24,34.923,-124.944,
2005-09-24,01:02,34.898,-124.943,
2005-09-24,15:06,34.494,-124.91,
2005-09-24,20:25,34.325,-124.94,
2005-09-25,07:14,33.996,-125.066,
2005-09-25,11:55,33.88,-125.073,
2005-09-25,16:19,33.76,-125.102,
2005-09-25,21:37,33.635,-125.184,
2005-09-25,21:55,33.62,-125.204,
2005-09-26,03:35,33.466,-125.256,
2005-09-26,15:13,33.269,-125.463,
2005-09-27,00:44,33.023,-125.542,
2005-09-27,01:34,33.029,-125.558,
2005-09-27,03:10,33.003,-125.581,
2005-09-27,15:33,32.712,-125.641,
2005-09-27,16:00,32.714,-125.647,
2005-09-27,18:48,32.648,-125.661,
2005-09-27,23:19,32.563,-125.699,
2005-09-28,00:35,32.532,-125.702,
2005-09-28,01:06,32.518,-125.698,
2005-09-28,05:03,32.441,-125.708,
2005-09-28,07:43,32.369,-125.743,
2005-09-28,12:43,32.261,-125.774,
2005-09-28,14:24,32.216,-125.761,
2005-09-28,15:07,32.196,-125.766,
2005-09-28,19:10,32.098,-125.8,
2005-09-28,20:08,32.075,-125.808,
2005-09-29,00:24,31.981,-125.828,
2005-09-29,00:43,31.956,-125.83,
2005-09-29,13:01,31.671,-125.889,
2005-09-29,21:11,31.451,-125.936,
2005-09-30,01:12,31.355,-125.963,
2005-09-30,01:58,31.34,-125.965,
2005-09-30,06:56,31.283,-125.936,
2005-09-30,11:20,31.15,-126.021,
2005-09-30,12:42,31.099,-125.942,
2005-09-30,14:20,31.073,-125.998,
2005-09-30,17:10,31.018,-126.067,
2005-09-30,21:07,30.946,-126.036,
2005-09-30,22:13,30.915,-126.045,
2005-10-01,02:32,30.83,-126.092,
2005-10-01,04:26,30.789,-126.075,
2005-10-01,04:55,30.767,-126.094,
2005-10-01,08:16,30.787,-126.215,
2005-10-01,11:19,30.596,-126.09,
2005-10-01,12:23,30.582,-126.055,
2005-10-02,04:08,30.215,-126.223,
2005-10-02,10:39,30.079,-126.295,
2005-10-02,12:19,30.014,-126.203,
2005-10-02,18:20,29.877,-126.194,
2005-10-02,18:37,29.875,-126.185,
2005-10-03,00:00,29.715,-126.194,
2005-10-03,12:03,29.513,-126.387,
2005-10-03,14:51,29.474,-126.407,
2005-10-03,19:58,29.408,-126.439,
2005-10-04,00:25,29.281,-126.478,
2005-10-04,07:14,29.265,-126.739,
2005-10-04,10:15,29.097,-126.801,
2005-10-04,16:14,29.019,-126.681,
2005-10-05,03:20,28.834,-126.797,
2005-10-05,06:50,28.756,-126.752,
2005-10-05,10:33,28.697,-126.868,
2005-10-05,12:10,28.674,-126.855,
2005-10-05,17:27,28.609,-126.912,
2005-10-05,21:20,28.579,-126.911,
2005-10-06,02:56,28.419,-126.957,
2005-10-06,12:07,28.255,-127.033,
2005-10-06,17:28,28.134,-127.02,
2005-10-06,23:21,28.026,-127.053,
2005-10-07,12:59,27.759,-127.005,
2005-10-07,14:00,27.695,-126.951,
2005-10-07,14:55,27.717,-126.996,
2005-10-07,18:24,27.643,-127.013,
2005-10-07,18:58,27.632,-127.014,
2005-10-07,23:12,27.56,-127.002,
2005-10-07,23:40,27.537,-126.996,
2005-10-08,07:12,27.405,-126.947,
2005-10-08,10:09,27.309,-126.859,
2005-10-08,14:31,27.294,-126.846,
2005-10-08,15:18,27.241,-126.85,
2005-10-08,19:41,27.208,-126.84,
2005-10-09,00:11,27.134,-126.846,
2005-10-09,00:55,27.111,-126.888,
2005-10-09,01:42,27.101,-126.859,
2005-10-09,06:00,27.044,-126.83,
2005-10-09,07:00,27.063,-126.832,
2005-10-09,10:57,26.965,-126.74,
2005-10-09,12:33,26.929,-126.774,
2005-10-09,15:47,26.879,-126.779,
2005-10-10,03:04,26.686,-126.841,
2005-10-10,04:53,26.664,-126.857,
2005-10-10,12:46,26.513,-126.783,
2005-10-10,14:33,26.463,-126.811,
2005-10-10,15:22,26.454,-126.828,
2005-10-10,16:38,26.43,-126.821,
2005-10-10,23:38,26.392,-126.796,
2005-10-11,10:36,26.081,-126.992,
2005-10-11,11:10,26.065,-127.021,
2005-10-11,12:19,26.028,-127.11,
2005-10-11,20:13,25.881,-127.129,
2005-10-11,20:55,25.877,-127.175,
2005-10-11,22:31,25.83,-127.131,
2005-10-12,02:14,25.757,-127.165,
2005-10-12,03:51,25.702,-127.125,
2005-10-12,05:49,25.683,-127.161,
2005-10-12,15:22,25.548,-127.134,
2005-10-12,18:04,25.388,-127.265,
2005-10-12,23:18,25.348,-127.166,
2005-10-13,06:56,24.755,-127.642,
2005-10-13,15:53,24.994,-127.242,
2005-10-13,19:27,24.91,-127.264,
2005-10-14,00:48,24.81,-127.316,
2005-10-14,01:25,24.803,-127.309,
2005-10-14,02:04,24.792,-127.285,
2005-10-14,03:05,24.771,-127.322,
2005-10-14,10:40,24.589,-127.24,
2005-10-14,15:32,24.518,-127.327,
2005-10-14,17:31,24.496,-127.381,
2005-10-14,20:18,24.41,-127.368,
2005-10-14,23:00,24.39,-127.359,
2005-10-14,23:41,24.394,-127.384,
2005-10-15,01:03,24.355,-127.383,
2005-10-15,04:45,24.287,-127.348,
2005-10-15,06:25,24.261,-127.331,
2005-10-15,08:00,24.214,-127.488,
2005-10-15,13:05,24.128,-127.317,
2005-10-15,15:00,24.231,-127.38,
2005-10-15,17:17,24.059,-127.268,
2005-10-15,18:44,24.028,-127.253,
2005-10-15,23:40,23.969,-127.27,
2005-10-16,00:21,23.932,-127.314,
2005-10-16,02:14,23.937,-127.218,
2005-10-16,04:35,23.891,-127.239,
2005-10-16,05:50,23.871,-127.265,
2005-10-16,11:19,23.801,-127.228,
2005-10-16,12:04,23.79,-127.216,
2005-10-16,12:53,23.793,-127.23,
2005-10-16,17:06,23.725,-127.216,
2005-10-16,22:32,23.587,-127.23,
2005-10-17,11:53,23.372,-127.264,
2005-10-17,15:55,23.286,-127.279,
2005-10-17,16:46,23.286,-127.266,
2005-10-17,19:34,23.232,-127.255,
2005-10-17,23:14,23.186,-127.243,
2005-10-18,00:05,23.146,-127.241,
2005-10-18,04:07,23.055,-127.326,
2005-10-18,06:52,23.017,-127.454,
2005-10-18,13:59,22.879,-127.216,
2005-10-18,14:33,22.867,-127.221,
2005-10-18,15:40,22.857,-127.141,
2005-10-18,21:16,22.752,-127.245,
2005-10-19,00:05,22.705,-127.246,
2005-10-19,02:48,22.641,-127.223,
2005-10-19,08:00,22.576,-127.23,
2005-10-19,09:59,22.475,-127.206,
2005-10-19,10:47,22.492,-127.201,
2005-10-19,11:35,22.513,-127.199,
2005-10-19,12:21,22.498,-127.207,
2005-10-19,18:44,22.389,-127.196,
2005-10-19,22:01,22.331,-127.132,
2005-10-20,02:22,22.227,-127.201,
2005-10-20,03:39,22.212,-127.208,
2005-10-20,07:39,22.133,-127.151,
2005-10-20,09:43,22.104,-127.173,
2005-10-20,14:47,22.008,-127.15,
2005-10-20,17:53,21.94,-127.157,
2005-10-20,18:27,21.936,-127.179,
2005-10-22,04:56,21.282,-127.234,
2005-10-22,09:23,21.187,-127.249,
2005-10-22,11:03,21.154,-127.233,
2005-10-22,11:49,21.14,-127.226,
2005-10-22,17:39,21.006,-127.194,
2005-10-22,19:21,21,-127.222,
2005-10-22,23:07,20.94,-127.274,
2005-10-23,00:08,20.922,-127.285,
2005-10-23,09:14,20.845,-127.173,
2005-10-23,13:42,20.729,-127.112,
2005-10-23,15:12,20.778,-127.196,
2005-10-23,17:15,20.696,-127.141,
2005-10-24,16:58,20.404,-127.202,
2005-10-24,20:15,20.371,-127.193,
2005-10-25,04:11,20.276,-127.239,
2005-10-25,05:43,20.254,-127.245,
2005-10-25,07:30,20.252,-127.223,
2005-10-25,12:57,20.185,-127.257,
2005-10-25,16:07,20.14,-127.306,
2005-10-25,16:48,20.142,-127.303,
2005-10-25,21:55,19.859,-127.475,
2005-10-26,02:10,20.045,-127.437,
2005-10-26,14:05,19.925,-127.536,
2005-10-26,17:51,19.881,-127.564,
2005-10-26,18:15,19.871,-127.554,
2005-10-26,22:16,19.784,-127.604,
2005-10-26,23:21,19.765,-127.614,
2005-10-27,10:46,19.643,-127.598,
2005-10-27,16:24,19.519,-127.856,
2005-10-27,23:09,19.471,-127.903,
2005-10-27,23:47,19.465,-127.916,
2005-10-28,10:41,19.281,-128.124,
2005-10-28,11:44,19.262,-128.138,
2005-10-28,14:55,19.193,-128.225,
2005-10-29,05:58,18.965,-128.455,
2005-10-29,12:15,18.664,-128.725,
2005-10-29,15:04,18.774,-128.586,
2005-10-29,20:04,18.725,-128.689,
2005-10-29,21:04,18.7,-128.643,
2005-10-30,01:42,18.626,-128.76,
2005-10-30,03:14,18.624,-128.763,
2005-10-30,10:48,18.414,-128.75,
2005-10-30,15:39,18.466,-128.847,
2005-10-30,18:25,18.441,-128.881,
2005-10-30,23:38,18.388,-128.942,
2005-10-31,09:28,18.276,-129.074,
2005-10-31,10:35,18.268,-129.079,
2005-10-31,14:53,18.308,-129.27,
2005-10-31,16:27,18.212,-129.15,
2005-10-31,18:10,18.203,-129.17,
2005-10-31,18:36,18.21,-129.17,
2005-10-31,23:55,18.174,-129.267,
2005-11-01,01:39,18.122,-129.25,
2005-11-01,07:04,18.043,-129.28,
2005-11-01,18:01,17.925,-129.386,
2005-11-02,07:01,17.75,-129.474,
2005-11-02,12:23,17.692,-129.49,
2005-11-02,21:10,17.59,-129.514,
2005-11-02,21:26,17.585,-129.521,
2005-11-03,02:43,17.577,-129.8,
2005-11-03,13:22,17.356,-129.495,
2005-11-03,17:34,17.309,-129.522,
2005-11-03,22:57,17.268,-129.51,
2005-11-04,06:24,17.159,-129.614,
2005-11-04,09:52,17.183,-129.596