Leatherback Sea Turtle 
2605004 56276
2005-02-04,11:45,10.29,-85.911,
2005-02-04,14:31,10.381,-85.897,
2005-02-04,16:51,10.274,-85.883,
2005-02-04,19:16,10.31,-85.894,
2005-02-04,20:53,10.215,-85.989,
2005-02-05,03:22,10.311,-85.909,
2005-02-05,03:50,10.304,-85.94,
2005-02-05,11:01,10.382,-85.916,
2005-02-05,11:24,10.365,-85.9,
2005-02-05,20:46,10.318,-85.89,
2005-02-06,00:05,10.277,-85.889,
2005-02-06,03:07,10.435,-85.88,
2005-02-06,05:14,10.338,-85.876,
2005-02-06,07:46,10.349,-85.969,
2005-02-06,11:00,10.398,-85.96,
2005-02-06,17:42,10.425,-85.868,
2005-02-06,20:34,10.409,-85.946,
2005-02-06,21:36,10.4,-86.019,
2005-02-06,23:39,10.371,-85.953,
2005-02-07,03:05,10.371,-85.897,
2005-02-07,04:44,10.404,-85.829,
2005-02-07,07:27,10.387,-85.969,
2005-02-07,09:15,10.403,-85.849,
2005-02-07,23:16,10.465,-85.803,
2005-02-08,00:58,10.484,-85.89,
2005-02-08,04:24,10.439,-85.871,
2005-02-08,08:56,10.691,-86.067,
2005-02-08,13:28,10.351,-85.926,
2005-02-08,15:19,10.189,-85.886,
2005-02-08,18:32,10.325,-85.901,
2005-02-08,20:51,10.313,-85.853,
2005-02-08,21:54,10.301,-85.891,
2005-02-09,00:37,10.33,-85.919,
2005-02-09,08:54,10.405,-85.879,
2005-02-09,11:06,10.432,-85.846,
2005-02-09,13:07,10.44,-85.824,
2005-02-09,14:53,10.433,-85.81,
2005-02-09,15:03,10.436,-85.8,
2005-02-09,16:34,10.427,-85.817,
2005-02-10,08:46,10.299,-86.034,
2005-02-10,10:38,10.334,-86.044,
2005-02-10,14:51,10.326,-85.898,
2005-02-10,19:51,10.282,-85.86,
2005-02-11,04:50,10.291,-85.866,
2005-02-11,11:53,10.295,-85.856,
2005-02-11,14:41,10.335,-85.885,
2005-02-11,19:38,10.392,-85.869,
2005-02-11,21:20,10.387,-85.938,
2005-02-12,01:02,10.393,-85.887,
2005-02-12,15:27,10.361,-85.952,
2005-02-12,20:52,10.488,-86.014,
2005-02-12,21:06,10.491,-86.014,
2005-02-12,22:57,10.557,-86.109,
2005-02-13,02:29,10.603,-85.957,
2005-02-13,11:08,10.768,-85.862,
2005-02-13,11:30,10.772,-85.872,
2005-02-13,13:15,10.811,-85.927,
2005-02-13,16:42,10.803,-85.818,
2005-02-14,00:16,10.727,-85.762,
2005-02-14,07:54,10.671,-85.669,
2005-02-15,01:09,10.504,-85.864,
2005-02-15,01:32,10.487,-85.857,
2005-02-15,05:09,10.478,-85.931,
2005-02-15,09:22,10.493,-85.901,
2005-02-15,10:45,10.475,-85.873,
2005-02-15,12:25,10.459,-85.871,
2005-02-15,13:51,10.407,-85.812,
2005-02-15,18:50,10.355,-85.925,
2005-02-15,20:34,10.408,-85.947,
2005-02-16,02:58,10.34,-85.902,
2005-02-16,09:11,10.33,-85.875,
2005-02-16,10:22,10.312,-85.857,
2005-02-16,20:22,10.408,-85.906,
2005-02-16,20:54,10.412,-85.855,
2005-02-17,00:50,10.413,-85.874,
2005-02-17,08:58,10.425,-85.851,
2005-02-17,11:09,10.406,-85.82,
2005-02-17,13:16,10.42,-85.858,
2005-02-17,15:05,10.435,-85.894,
2005-02-17,16:47,10.394,-85.862,
2005-02-17,22:15,10.352,-85.985,
2005-02-18,07:10,10.308,-85.896,
2005-02-18,08:47,10.315,-85.867,
2005-02-18,21:37,10.385,-85.864,
2005-02-18,23:57,10.347,-85.919,
2005-02-19,12:59,10.39,-85.887,
2005-02-19,17:43,10.45,-85.857,
2005-02-20,03:28,10.453,-85.792,
2005-02-20,09:52,10.288,-85.859,
2005-02-20,14:20,10.503,-86.101,
2005-02-20,19:33,10.286,-85.852,
2005-02-21,04:28,10.332,-85.852,
2005-02-21,21:04,10.322,-85.858,
2005-02-22,00:30,10.334,-85.87,
2005-02-22,05:43,10.317,-85.843,
2005-02-22,11:18,10.339,-85.882,
2005-02-22,15:40,10.454,-86.018,
2005-02-22,20:54,10.705,-86.062,
2005-02-22,21:50,10.738,-86.062,
2005-02-23,01:07,10.856,-86.005,
2005-02-23,07:49,10.978,-85.927,
2005-02-23,09:26,11.028,-85.961,
2005-02-23,11:58,10.985,-85.879,
2005-02-23,12:35,10.986,-85.866,
2005-02-24,05:01,10.879,-85.954,
2005-02-24,07:38,10.884,-85.978,
2005-02-24,13:38,10.734,-85.81,
2005-02-24,17:35,10.713,-85.884,
2005-02-24,20:31,10.729,-85.894,
2005-02-24,22:35,10.69,-85.91,
2005-02-25,04:34,10.644,-85.833,
2005-02-25,07:29,10.608,-85.846,
2005-02-25,09:06,10.604,-85.861,
2005-02-25,11:12,10.567,-85.839,
2005-02-25,13:29,10.534,-85.908,
2005-02-25,22:50,10.395,-85.913,
2005-02-26,02:33,10.36,-85.941,
2005-02-26,04:18,10.462,-86.02,
2005-02-26,07:18,10.357,-85.977,
2005-02-26,14:47,10.519,-85.961,
2005-02-26,16:45,10.538,-85.942,
2005-02-26,20:04,10.543,-85.896,
2005-02-27,00:05,10.591,-85.762,
2005-02-27,03:52,10.542,-85.76,
2005-02-27,08:47,10.549,-85.883,
2005-02-27,10:22,10.55,-85.831,
2005-02-27,12:39,10.551,-85.852,
2005-02-27,12:57,10.55,-85.848,
2005-02-27,16:23,10.524,-85.903,
2005-02-27,21:37,10.562,-85.819,
2005-02-28,01:24,10.517,-85.856,
2005-02-28,05:10,10.568,-85.834,
2005-02-28,08:34,10.61,-85.978,
2005-02-28,10:37,10.532,-85.922,
2005-02-28,12:13,10.571,-85.929,
2005-02-28,14:23,10.612,-85.968,
2005-02-28,15:59,10.612,-85.92,
2005-02-28,17:42,10.582,-85.917,
2005-02-28,19:45,10.634,-85.913,
2005-02-28,21:23,10.649,-85.914,
2005-02-28,22:43,10.677,-85.982,
2005-03-01,04:39,10.637,-85.802,
2005-03-01,22:54,10.463,-85.788,
2005-03-02,09:48,10.351,-85.949,
2005-03-02,10:47,10.345,-85.873,
2005-03-02,13:12,10.354,-85.924,
2005-03-02,19:22,10.407,-85.908,
2005-03-03,00:12,10.416,-85.827,
2005-03-03,07:58,10.466,-85.797,
2005-03-03,09:38,10.469,-85.822,
2005-03-03,23:10,10.391,-85.861,
2005-03-04,03:34,10.338,-85.887,
2005-03-04,12:23,10.303,-85.912,
2005-03-04,17:49,10.406,-85.869,
2005-03-04,18:54,10.328,-85.926,
2005-03-04,20:37,10.356,-85.884,
2005-03-05,03:13,10.343,-85.885,
2005-03-05,07:36,10.304,-85.844,
2005-03-05,23:01,10.306,-85.88,
2005-03-06,00:43,10.304,-85.849,
2005-03-06,07:27,10.277,-85.878,
2005-03-06,09:02,10.359,-85.994,
2005-03-06,18:36,10.474,-86.052,
2005-03-07,07:10,10.776,-86.305,
2005-03-07,08:55,10.774,-86.323,
2005-03-07,11:09,10.857,-86.393,
2005-03-07,20:04,10.849,-86.397,
2005-03-07,23:06,10.84,-86.437,
2005-03-07,23:58,10.852,-86.428,
2005-03-08,01:49,10.979,-86.342,
2005-03-08,08:44,10.882,-86.534,
2005-03-08,10:50,10.876,-86.674,
2005-03-08,17:54,10.976,-86.717,
2005-03-08,19:58,11.065,-86.616,
2005-03-09,09:36,10.743,-87.079,
2005-03-09,11:11,10.739,-87.167,
2005-03-09,15:58,10.668,-87.391,
2005-03-09,17:34,10.586,-87.397,
2005-03-09,19:37,10.554,-87.43,
2005-03-10,10:03,10.293,-87.753,
2005-03-10,17:09,10.118,-87.753,
2005-03-10,23:29,9.95,-87.996,
2005-03-11,08:07,9.924,-87.963,
2005-03-11,09:48,9.927,-87.983,
2005-03-12,00:50,9.714,-88.136,
2005-03-12,03:51,9.726,-88.113,
2005-03-12,09:34,9.693,-88.073,
2005-03-12,11:37,9.698,-88.148,
2005-03-12,18:05,9.663,-88.099,
2005-03-12,19:03,9.59,-88.112,
2005-03-13,06:09,9.485,-88.172,
2005-03-13,10:25,9.457,-88.165,
2005-03-13,16:01,9.415,-88.127,
2005-03-13,17:04,9.426,-88.154,
2005-03-13,21:36,9.332,-88.188,
2005-03-14,01:48,9.169,-88.305,
2005-03-14,08:32,9.194,-88.223,
2005-03-14,14:25,9.085,-88.225,
2005-03-14,16:40,9.04,-88.216,
2005-03-14,18:21,8.993,-88.207,
2005-03-14,22:59,8.862,-88.327,
2005-03-15,08:24,8.636,-88.254,
2005-03-15,10:06,8.608,-88.326,
2005-03-15,15:34,8.505,-88.253,
2005-03-15,17:58,8.476,-88.197,
2005-03-15,23:24,8.401,-88.088,
2005-03-16,02:40,8.373,-88.145,
2005-03-16,08:06,8.247,-88.009,
2005-03-16,09:45,8.339,-88.097,
2005-03-16,12:38,8.138,-87.971,
2005-03-16,23:46,7.977,-87.863,
2005-03-17,04:05,7.85,-87.921,
2005-03-17,06:21,7.856,-87.87,
2005-03-17,07:59,7.804,-87.803,
2005-03-17,12:23,7.634,-87.891,
2005-03-17,20:47,7.599,-87.701,
2005-03-18,02:11,7.489,-87.413,
2005-03-18,05:57,7.435,-87.604,
2005-03-18,12:52,7.321,-87.462,
2005-03-18,16:35,7.252,-87.451,
2005-03-18,16:50,7.247,-87.453,
2005-03-18,22:17,7.173,-87.401,
2005-03-19,01:32,7.114,-87.354,
2005-03-19,11:01,6.937,-87.364,
2005-03-19,12:29,6.913,-87.327,
2005-03-19,16:23,6.852,-87.31,
2005-03-19,16:28,6.858,-87.314,
2005-03-19,18:04,6.82,-87.294,
2005-03-19,22:25,6.697,-87.112,
2005-03-20,12:04,6.561,-87.292,
2005-03-20,17:44,6.4,-87.221,
2005-03-20,22:04,6.338,-87.141,
2005-03-21,00:44,6.305,-87.034,
2005-03-21,04:58,6.179,-87.208,
2005-03-21,08:55,6.092,-87.198,
2005-03-21,10:30,6.076,-87.169,
2005-03-21,13:23,6.009,-87.178,
2005-03-21,15:42,5.941,-87.185,
2005-03-22,00:29,5.5,-87.427,
2005-03-22,06:07,5.611,-87.204,
2005-03-22,18:40,5.353,-87.346,
2005-03-23,01:39,5.241,-87.392,
2005-03-23,10:17,5.115,-87.29,
2005-03-23,21:20,4.937,-87.458,
2005-03-23,23:00,4.963,-87.543,
2005-03-24,04:23,4.858,-87.512,
2005-03-24,05:16,4.856,-87.445,
2005-03-24,13:51,4.711,-87.559,
2005-03-25,04:08,4.543,-87.552,
2005-03-25,08:08,4.465,-87.679,
2005-03-25,11:47,4.492,-87.669,
2005-03-25,13:28,4.449,-87.783,
2005-03-26,06:17,4.276,-87.982,
2005-03-27,01:47,4.02,-87.857,
2005-03-27,11:06,3.893,-87.858,
2005-03-27,16:22,3.768,-88.014,
2005-03-27,22:19,3.825,-88.059,
2005-03-28,00:08,3.712,-88.046,
2005-03-28,11:08,3.548,-88.216,
2005-03-28,12:14,3.542,-88.185,
2005-03-28,14:26,3.513,-88.218,
2005-03-28,16:09,3.485,-88.225,
2005-03-28,16:22,3.491,-88.225,
2005-03-28,17:57,3.422,-88.111,
2005-03-28,21:59,3.437,-88.29,
2005-03-28,23:44,3.425,-88.278,
2005-03-29,03:12,3.377,-88.281,
2005-03-29,10:46,3.269,-88.361,
2005-03-29,13:35,3.217,-88.422,
2005-03-29,21:53,3.153,-88.428,
2005-03-30,02:11,3.105,-88.498,
2005-03-30,04:42,3.063,-88.507,
2005-04-01,00:12,2.534,-88.724,
2005-04-01,18:07,2.218,-88.617,
2005-04-04,05:10,1.445,-88.961,
2005-04-04,16:05,1.373,-89.203,
2005-04-05,00:25,0.967,-89.307,
2005-04-05,04:41,1.208,-89.088,
2005-04-05,13:05,1.1,-89.089,
2005-04-05,17:20,1.029,-89.014,
2005-04-05,21:10,1.158,-88.991,
2005-04-06,09:54,0.95,-88.988,
2005-04-07,10:38,0.754,-88.894,
2005-04-13,21:15,-0.827,-90.236,
2005-04-14,10:06,-0.93,-90.159,
2005-04-17,15:54,-1.892,-90.597,
2005-04-17,17:45,-1.887,-90.553,
2005-04-19,09:10,-2.518,-89.999,
2005-04-19,15:25,-2.57,-90.194,
2005-04-20,08:57,-2.803,-89.858,
2005-04-21,21:30,-3.212,-88.637,
2005-04-26,05:04,-3.915,-87.927,
2005-04-28,09:06,-4.079,-87.89,
2005-04-28,21:48,-4.182,-87.929,
2005-05-01,12:50,-4.393,-87.969,
2005-05-03,05:42,-4.136,-88.031,
2005-05-05,09:26,-4.176,-88.089,
2005-05-15,17:08,-6.266,-89.615,
2005-05-17,13:12,-6.506,-89.729,
2005-05-23,15:01,-7.277,-90.045,
2005-06-09,22:04,-9.014,-91.259,
2005-06-12,05:27,-9.445,-91.219,
2005-08-12,01:10,-17.403,-95.813,
2005-09-01,01:35,-17.354,-97.719,
2005-09-08,08:35,-17.554,-97.047,
2005-09-20,05:32,-16.592,-97.998,
2005-10-20,05:45,-14.846,-99.58,
2005-11-09,10:08,-18.033,-99.419,
2006-01-28,15:27,-32.801,-93.921,
2006-02-03,21:08,-33.292,-93.763,
2006-02-27,07:56,-35.196,-92.902,
2006-03-02,01:05,-35.371,-92.953,
2006-03-02,22:41,-35.423,-92.874,
2006-03-03,00:41,-35.414,-92.918,
2006-03-05,09:36,-35.421,-92.988,
2006-03-05,22:00,-35.43,-93.052,
2006-03-06,13:44,-35.411,-93.019,
2006-03-06,16:22,-35.386,-93.039,
2006-03-06,20:57,-35.407,-93.121,
2006-03-07,21:37,-35.32,-93.096,
2006-03-08,03:33,-35.3,-93.078,
2006-03-08,21:33,-35.383,-93.292,
2006-03-08,23:06,-35.295,-93.178,
2006-03-08,23:55,-35.335,-93.198,
2006-03-09,05:34,-35.279,-93.212,
2006-03-09,15:12,-35.25,-93.215,
2006-03-09,16:56,-35.322,-93.347,
2006-03-09,22:56,-35.242,-93.239,
2006-03-09,23:37,-35.244,-93.252,
2006-03-10,01:17,-35.233,-93.257,
2006-03-10,08:38,-35.256,-93.259,
2006-03-10,16:28,-35.186,-93.21,
2006-03-10,22:45,-35.188,-93.184,
2006-03-11,12:06,-35.146,-93.136,
2006-03-11,20:02,-35.124,-93.128,
2006-03-12,00:31,-35.095,-93.101,
2006-03-12,05:22,-35.089,-93.163,
2006-03-12,10:08,-35.095,-93.182,
2006-03-12,16:39,-35.08,-93.148,
2006-03-12,21:41,-35.056,-93.195,
2006-03-13,02:43,-35.032,-93.236,
2006-03-13,16:34,-34.989,-93.224