Leatherback Sea Turtle
2604019 41700
2004-01-29,11:37,10.301,-85.88,
2004-01-29,17:02,10.249,-85.885,
2004-01-30,03:14,10.242,-85.872,
2004-01-30,06:39,10.209,-85.857,
2004-01-30,22:50,10.285,-85.867,
2004-01-31,04:38,10.265,-85.923,
2004-01-31,14:25,10.219,-85.848,
2004-02-01,04:09,10.061,-85.775,
2004-02-01,09:38,10.19,-85.844,
2004-02-01,14:15,10.254,-85.868,
2004-02-01,23:41,10.279,-85.875,
2004-02-02,00:48,10.296,-85.868,
2004-02-02,05:07,10.303,-85.862,
2004-02-02,05:27,10.318,-85.86,
2004-02-02,09:24,10.301,-85.96,
2004-02-02,20:38,10.241,-85.885,
2004-02-03,10:06,10.311,-85.871,
2004-02-03,11:17,10.31,-85.857,
2004-02-03,20:24,10.273,-85.862,
2004-02-04,07:23,10.319,-85.854,
2004-02-05,02:24,10.322,-85.842,
2004-02-05,12:09,10.33,-85.852,
2004-02-05,17:08,10.246,-86.267,
2004-02-06,08:41,10.307,-85.843,
2004-02-06,13:29,10.324,-85.868,
2004-02-06,23:17,10.306,-85.842,
2004-02-07,14:36,10.303,-85.877,
2004-02-07,16:05,10.297,-85.902,
2004-02-08,06:35,10.242,-85.862,
2004-02-08,10:59,10.209,-85.859,
2004-02-08,21:07,10.344,-85.939,
2004-02-08,22:29,10.297,-85.861,
2004-02-09,01:32,10.28,-85.881,
2004-02-09,08:07,10.297,-85.9,
2004-02-09,12:20,10.289,-85.859,
2004-02-09,12:36,10.297,-85.88,
2004-02-09,17:01,10.275,-85.856,
2004-02-10,02:26,10.315,-85.885,
2004-02-10,08:00,10.371,-85.93,
2004-02-10,12:18,10.338,-85.892,
2004-02-10,22:57,10.265,-85.882,
2004-02-11,03:04,10.242,-85.875,
2004-02-11,09:27,10.328,-85.858,
2004-02-12,05:00,10.319,-85.845,
2004-02-12,09:14,10.328,-85.872,
2004-02-12,20:23,10.291,-85.862,
2004-02-13,05:57,10.263,-85.898,
2004-02-14,01:06,10.284,-85.853,
2004-02-14,16:47,10.331,-85.867,
2004-02-15,13:16,10.356,-85.885,
2004-02-15,14:43,10.334,-85.907,
2004-02-15,18:07,10.336,-85.956,
2004-02-15,22:52,10.228,-85.994,
2004-02-16,03:30,10.408,-85.957,
2004-02-16,19:39,10.281,-85.879,
2004-02-17,04:47,10.284,-85.891,
2004-02-17,21:04,10.237,-85.978,
2004-02-18,01:10,10.218,-85.865,
2004-02-18,15:15,10.259,-85.872,
2004-02-19,01:08,10.375,-85.859,
2004-02-19,07:55,10.364,-85.885,
2004-02-19,12:08,10.322,-85.902,
2004-02-19,16:36,10.368,-85.872,
2004-02-19,17:07,10.379,-85.888,
2004-02-19,21:23,10.428,-85.832,
2004-02-20,03:42,10.426,-85.869,
2004-02-20,07:42,10.404,-85.811,
2004-02-20,12:57,10.453,-85.851,
2004-02-20,17:50,10.376,-85.85,
2004-02-21,03:16,10.377,-85.892,
2004-02-21,04:02,10.383,-85.866,
2004-02-21,09:10,10.352,-85.877,
2004-02-21,09:29,10.362,-85.904,
2004-02-21,13:19,10.325,-85.881,
2004-02-21,23:36,10.314,-85.86,
2004-02-22,04:35,10.344,-85.895,
2004-02-22,05:32,10.327,-85.906,
2004-02-22,10:40,10.305,-85.865,
2004-02-23,00:17,10.314,-85.846,
2004-02-23,00:51,10.315,-85.842,
2004-02-23,05:17,10.325,-85.845,
2004-02-23,15:04,10.318,-85.873,
2004-02-24,01:44,10.321,-85.843,
2004-02-24,11:28,10.302,-85.853,
2004-02-24,16:19,10.285,-85.914,
2004-02-24,17:41,10.308,-85.903,
2004-02-25,14:11,10.352,-85.9,
2004-02-25,19:41,10.587,-85.685,
2004-02-26,03:07,10.362,-85.956,
2004-02-26,08:16,10.417,-85.988,
2004-02-26,19:26,10.457,-85.943,
2004-02-26,23:19,10.487,-86.009,
2004-02-27,00:54,10.466,-85.993,
2004-02-27,04:21,10.445,-86.014,
2004-02-27,06:22,10.478,-86.035,
2004-02-27,19:11,10.381,-86.103,
2004-02-27,20:53,10.38,-86.014,
2004-02-28,00:37,10.333,-86.008,
2004-02-28,02:20,10.309,-86.019,
2004-02-28,11:50,10.312,-85.938,
2004-02-28,20:42,10.147,-85.853,
2004-02-29,12:47,10.05,-85.799,
2004-02-29,13:18,10.042,-85.778,
2004-02-29,16:26,9.989,-85.762,
2004-03-01,02:04,9.91,-85.713,
2004-03-01,03:17,9.878,-85.755,
2004-03-01,17:55,9.981,-85.697,
2004-03-01,18:36,9.951,-85.704,
2004-03-01,23:23,9.916,-85.69,
2004-03-02,04:33,9.935,-85.737,
2004-03-02,09:01,10.006,-85.733,
2004-03-02,14:37,10.081,-85.792,
2004-03-03,00:03,10.185,-85.883,
2004-03-03,00:41,10.237,-85.863,
2004-03-03,14:19,10.297,-85.867,
2004-03-04,00:19,10.309,-85.855,
2004-03-04,15:35,10.304,-85.866,
2004-03-04,21:26,10.32,-85.862,
2004-03-05,06:01,10.32,-85.842,
2004-03-05,12:27,10.421,-85.965,
2004-03-05,21:14,10.313,-85.843,
2004-03-05,21:53,10.333,-85.858,
2004-03-06,02:59,10.316,-85.85,
2004-03-06,12:01,10.323,-85.883,
2004-03-06,18:26,10.296,-85.933,
2004-03-06,23:09,10.325,-86.006,
2004-03-07,13:17,10.41,-85.956,
2004-03-07,19:12,10.409,-85.91,
2004-03-08,00:21,10.338,-85.877,
2004-03-08,05:35,10.311,-85.899,
2004-03-08,09:33,10.266,-85.882,
2004-03-08,14:45,10.249,-85.9,
2004-03-08,16:12,10.33,-85.857,
2004-03-08,19:04,10.199,-85.883,
2004-03-09,01:37,10.175,-85.926,
2004-03-09,10:53,10.179,-85.887,
2004-03-09,20:30,10.115,-85.809,
2004-03-10,01:17,10.091,-85.815,
2004-03-10,01:56,10.096,-85.818,
2004-03-10,12:05,10.13,-85.866,
2004-03-10,17:24,10.185,-85.907,
2004-03-10,21:31,10.165,-85.865,
2004-03-11,02:44,10.167,-85.889,
2004-03-11,07:19,10.207,-85.879,
2004-03-11,17:18,10.241,-85.872,
2004-03-11,22:49,10.227,-85.892,
2004-03-12,08:49,10.3,-85.847,
2004-03-12,14:55,10.327,-85.881,
2004-03-13,09:14,10.261,-85.909,
2004-03-13,14:00,10.303,-85.859,
2004-03-13,14:33,10.288,-85.907,
2004-03-13,19:44,10.283,-85.909,
2004-03-14,01:07,10.258,-85.911,
2004-03-14,06:00,10.261,-85.924,
2004-03-14,22:09,10.191,-85.898,
2004-03-15,12:52,10.214,-85.9,
2004-03-15,18:06,10.258,-85.893,
2004-03-16,09:01,10.315,-85.873,
2004-03-16,18:44,10.385,-86.024,
2004-03-16,20:08,10.363,-86.031,
2004-03-17,04:51,10.37,-86.126,
2004-03-17,06:27,10.355,-86.117,
2004-03-17,14:01,10.358,-86.258,
2004-03-17,19:57,10.317,-86.415,
2004-03-18,15:31,10.203,-87.072,
2004-03-19,07:11,10.207,-87.639,
2004-03-19,16:37,10.066,-87.815,
2004-03-19,21:16,9.953,-87.924,
2004-03-20,02:26,9.917,-87.971,
2004-03-21,09:46,9.543,-89.125,
2004-03-21,13:14,9.507,-89.171,
2004-03-21,13:51,9.498,-89.182,
2004-03-22,04:32,9.39,-89.521,
2004-03-22,06:20,9.386,-89.577,
2004-03-22,09:28,9.39,-89.641,
2004-03-22,14:41,9.309,-89.688,
2004-03-22,15:04,9.296,-89.678,
2004-03-22,19:02,9.229,-89.773,
2004-03-23,00:26,9.172,-89.771,
2004-03-23,11:00,8.925,-90.374,
2004-03-23,20:31,8.952,-90.331,
2004-03-24,01:49,8.938,-90.485,
2004-03-24,14:17,8.927,-90.677,
2004-03-25,10:42,8.797,-91.204,
2004-03-26,21:37,8.309,-91.806,
2004-03-28,10:08,8.355,-92.867,
2004-03-29,01:26,8.304,-92.948,
2004-03-29,06:54,7.998,-92.749,
2004-03-30,02:43,7.86,-93.214,
2004-03-31,14:54,7.219,-93.622,
2004-04-02,07:04,7.305,-94.042,
2004-04-02,15:44,6.955,-93.976,
2004-04-03,02:54,6.833,-93.944,
2004-04-03,11:43,6.994,-94.216,
2004-04-04,09:31,6.667,-94.128,
2004-04-04,11:56,6.611,-94.009,
2004-04-05,03:05,6.299,-94.048,
2004-04-05,09:17,6.342,-94.042,
2004-04-05,17:33,6.253,-94.086,
2004-04-05,22:32,6.197,-94.131,
2004-04-06,06:12,6.073,-94.05,
2004-04-06,18:03,5.967,-94.431,
2004-04-07,04:12,5.981,-94.195,
2004-04-07,14:29,5.884,-94.244,
2004-04-08,15:10,5.902,-94.217,
2004-04-09,01:11,5.81,-94.269,
2004-04-09,02:17,5.811,-94.232,
2004-04-09,21:14,5.65,-94.37,
2004-04-10,14:42,5.617,-94.222,
2004-04-11,03:27,5.54,-94.264,
2004-04-11,12:57,5.509,-94.156,
2004-04-11,19:15,5.473,-94.211,
2004-04-11,20:58,5.434,-94.209,
2004-04-12,19:04,5.33,-94.185,
2004-04-13,05:16,5.312,-94.162,
2004-04-13,11:32,5.298,-94.181,
2004-04-13,20:32,5.266,-94.131,
2004-04-14,02:28,5.16,-94.082,
2004-04-14,13:21,5.199,-94.179,
2004-04-15,02:35,4.907,-94.569,
2004-04-15,17:27,4.683,-93.329,
2004-04-16,04:06,5.1,-94.002,
2004-04-17,02:12,4.886,-93.939,
2004-04-17,11:33,4.772,-93.972,
2004-04-17,14:53,4.711,-93.951,
2004-04-18,00:51,4.604,-94.005,
2004-04-18,10:10,4.468,-94.007,
2004-04-20,03:11,4.267,-94.952,
2004-04-21,23:19,3.903,-94.967,
2004-04-23,00:34,3.576,-95.311,
2004-04-24,02:21,3.101,-95.898,
2004-04-25,04:03,2.859,-96.413,
2004-04-26,08:39,2.672,-97.1,
2004-04-27,04:54,2.583,-97.597,
2004-04-28,05:12,2.498,-97.973,
2004-04-28,06:51,2.56,-97.919,
2004-04-30,18:08,2.429,-99.385,
2004-05-01,13:20,2.382,-99.61,
2004-05-02,00:24,2.36,-99.77,
2004-05-03,06:01,2.199,-100.093,
2004-05-03,21:50,2.106,-100.218,
2004-05-04,01:19,2.096,-100.242,
2004-05-04,01:58,2.075,-100.263,
2004-05-05,17:53,1.698,-100.674,
2004-05-06,10:11,1.545,-100.732,
2004-05-07,09:51,1.442,-100.632,
2004-05-08,11:15,1.585,-100.645,
2004-05-08,20:51,1.633,-100.459,
2004-05-09,06:00,1.673,-100.395,
2004-05-10,20:25,1.896,-100.118,
2004-05-10,23:09,1.899,-100.109,
2004-05-11,04:36,1.916,-100.07,
2004-05-13,05:29,1.798,-99.705,
2004-05-13,21:28,1.789,-99.542,
2004-05-14,02:18,1.715,-99.545,
2004-05-14,13:19,1.597,-99.567,
2004-05-15,02:59,1.368,-99.502,
2004-05-15,17:12,1.165,-99.451,
2004-05-16,14:13,0.858,-99.296,
2004-05-19,17:30,-1.076,-97.592,
2004-05-23,06:06,-2.718,-96.118,
2004-05-24,17:18,-3.23,-95.735,
2004-05-28,01:45,-4.253,-95.051,
2004-05-30,14:14,-4.624,-95.485,
2004-05-31,02:57,-4.836,-95.532,
2004-05-31,14:03,-4.964,-95.701,
2004-05-31,18:02,-5.127,-95.6,
2004-06-03,17:50,-5.47,-95.94,
2004-06-04,13:22,-5.666,-96.115,
2004-06-05,09:26,-5.894,-96.196,
2004-06-06,06:03,-6.045,-96.287,
2004-06-06,11:09,-6.069,-96.194,
2004-06-07,01:16,-6.125,-96.156,
2004-06-08,02:52,-6.256,-96.457,
2004-06-08,18:23,-6.391,-96.427,
2004-06-09,02:39,-6.438,-96.396,
2004-06-09,08:47,-6.459,-96.501,
2004-06-11,06:39,-6.507,-96.137,
2004-06-11,10:04,-6.51,-96.129,
2004-06-12,05:45,-6.535,-95.986,
2004-06-13,03:26,-6.661,-95.916,
2004-06-14,18:42,-6.808,-95.544,
2004-06-15,18:29,-6.801,-95.402,
2004-06-19,17:27,-7.467,-95.166,
2004-06-20,03:39,-7.541,-95.156,
2004-06-21,14:35,-7.88,-95.212,
2004-06-24,13:52,-8.644,-95.221,
2004-06-27,16:12,-9.113,-95.232,
2004-06-28,01:11,-9.157,-95.209,
2004-06-29,03:22,-9.253,-95.275,
2004-06-29,13:29,-9.908,-94.917,
2004-06-30,03:15,-9.337,-95.363,
2004-07-01,05:14,-9.358,-95.327,
2004-07-04,02:18,-9.564,-95.773,
2004-07-05,08:49,-9.775,-95.903,
2004-07-07,12:10,-10.098,-96.067,
2004-07-08,11:25,-10.13,-96.022,
2004-07-09,09:46,-10.148,-95.93,
2004-07-09,22:23,-10.139,-95.921,
2004-07-11,01:12,-10.207,-95.684,
2004-07-13,16:43,-10.228,-95.575,
2004-07-13,21:42,-10.16,-95.83,
2004-07-14,03:32,-10.161,-95.627,
2004-07-15,13:55,-10.105,-95.536,
2004-07-18,16:34,-9.863,-95.337,
2004-07-19,02:27,-9.794,-95.241,
2004-07-19,09:34,-9.77,-95.218,
2004-07-19,14:00,-9.736,-95.248,
2004-07-19,22:11,-9.736,-95.224,
2004-07-20,13:35,-9.617,-95.247,
2004-07-21,09:04,-9.571,-95.333,
2004-07-21,14:57,-9.534,-95.35,
2004-07-26,15:12,-8.769,-95.53,
2004-07-28,01:06,-8.453,-95.535,
2004-07-28,02:13,-8.444,-95.506,
2004-07-28,13:45,-8.391,-95.552,
2004-07-28,16:06,-8.374,-95.563,
2004-07-29,04:34,-8.334,-95.52,
2004-07-29,07:37,-8.299,-95.507,
2004-07-30,03:32,-8.164,-95.298,
2004-07-30,09:07,-8.089,-95.236,
2004-07-31,01:35,-7.88,-95.15,
2004-08-01,12:16,-7.77,-95.037,
2004-08-03,13:02,-7.381,-94.83,
2004-08-05,09:36,-7.411,-94.716,
2004-08-10,16:06,-7.045,-94.109,
2004-08-17,01:33,-7.007,-93.911,
2004-08-17,16:45,-7.19,-93.869,
2004-08-18,08:53,-7.215,-93.97,
2004-08-19,13:27,-7.227,-94.033,
2004-08-28,17:40,-7.694,-93.114,
2004-08-29,15:01,-7.444,-92.924,
2004-09-02,04:42,-7.571,-92.559,
2004-09-05,00:41,-7.68,-92.264,
2004-09-07,17:15,-7.954,-92.058,
2004-09-23,08:44,-8.222,-89.859,
2004-10-04,04:13,-8.818,-88.257,
2004-10-05,00:33,-8.958,-88.267,
2004-10-05,05:30,-8.99,-88.27,
2004-10-05,20:41,-9.08,-88.253,
2004-10-21,00:56,-10.443,-88.161,
2004-11-19,05:06,-13.064,-86.404,
2004-11-28,05:00,-13.549,-85.899,
2004-11-30,07:27,-13.397,-85.648,
2004-12-09,11:02,-14.061,-85.578,
2004-12-13,14:09,-14.637,-85.254,
2004-12-18,14:48,-15.271,-84.955,
2004-12-23,14:57,-15.732,-84.988,
2004-12-31,16:55,-16.906,-85.225,
2005-01-03,20:12,-17.498,-85.409,
2005-01-04,07:29,-17.602,-85.46,
2005-01-09,16:53,-18.196,-85.604,
2005-01-14,11:50,-18.438,-85.161,
2005-01-19,12:59,-19.026,-84.558,
2005-01-19,16:22,-19.065,-84.547,
2005-01-21,09:17,-19.401,-84.576,
2005-01-21,14:17,-19.431,-84.569,
2005-01-23,05:18,-19.698,-84.644,
2005-01-23,14:53,-19.763,-84.582,
2005-01-23,16:25,-19.777,-84.56,
2005-01-24,08:47,-19.892,-84.546,
2005-01-27,10:04,-20.15,-84.18,
2005-02-03,01:08,-19.306,-83.642,
2005-02-20,12:54,-20.529,-82.619,
2005-03-22,23:49,-22.83,-83.192,
2005-03-31,12:54,-23.566,-82.194