Leatherback Sea Turtle
2604018 41697
2004-01-27,11:19,10.322,-85.842,
2004-01-27,15:15,10.293,-85.898,
2004-01-28,11:56,10.623,-86.288,
2004-01-29,03:36,10.672,-85.914,
2004-01-29,08:31,10.659,-85.752,
2004-01-29,17:52,10.796,-85.778,
2004-01-30,04:51,10.643,-85.787,
2004-01-30,14:38,10.757,-85.767,
2004-01-30,18:28,10.713,-85.677,
2004-01-31,05:37,10.713,-85.759,
2004-01-31,14:29,10.649,-85.78,
2004-01-31,19:24,10.598,-85.818,
2004-02-01,01:08,10.717,-85.731,
2004-02-01,01:37,10.731,-85.764,
2004-02-01,20:48,10.658,-85.688,
2004-02-02,13:20,10.477,-85.917,
2004-02-02,16:18,10.478,-85.887,
2004-02-03,07:35,10.349,-85.874,
2004-02-03,12:04,10.303,-85.887,
2004-02-03,13:47,10.33,-85.852,
2004-02-04,00:01,10.319,-85.867,
2004-02-04,03:04,10.314,-85.852,
2004-02-04,04:44,10.329,-85.895,
2004-02-04,09:02,10.304,-85.854,
2004-02-04,14:13,10.36,-85.969,
2004-02-04,23:39,10.292,-85.862,
2004-02-05,04:20,10.305,-85.847,
2004-02-05,09:19,10.324,-85.858,
2004-02-05,15:11,10.274,-85.899,
2004-02-06,02:13,10.176,-85.854,
2004-02-06,05:50,10.188,-85.828,
2004-02-06,11:46,10.234,-85.863,
2004-02-06,16:29,10.211,-85.871,
2004-02-06,21:29,10.164,-85.89,
2004-02-07,08:31,10.217,-85.887,
2004-02-07,11:48,10.333,-85.97,
2004-02-07,16:09,10.347,-86.069,
2004-02-07,21:11,10.163,-85.975,
2004-02-08,08:19,10.25,-85.881,
2004-02-08,12:40,10.256,-85.869,
2004-02-08,17:25,10.264,-85.923,
2004-02-08,18:03,10.287,-85.952,
2004-02-09,08:05,10.325,-85.863,
2004-02-09,09:22,10.314,-85.868,
2004-02-09,13:55,10.27,-85.875,
2004-02-09,14:13,10.264,-85.872,
2004-02-09,19:15,10.305,-85.882,
2004-02-10,04:05,10.261,-85.856,
2004-02-10,15:00,10.276,-85.877,
2004-02-11,05:24,10.311,-85.876,
2004-02-11,06:25,10.309,-85.888,
2004-02-11,20:37,10.304,-85.927,
2004-02-12,01:51,10.242,-85.932,
2004-02-12,11:05,10.331,-85.857,
2004-02-12,17:31,10.382,-85.901,
2004-02-13,03:01,10.33,-85.851,
2004-02-13,07:21,10.319,-85.853,
2004-02-13,13:22,10.307,-85.877,
2004-02-13,17:06,10.424,-86.133,
2004-02-13,22:07,10.317,-85.857,
2004-02-13,23:22,10.313,-85.849,
2004-02-14,18:22,10.182,-85.873,
2004-02-14,23:17,10.138,-85.93,
2004-02-15,11:37,10.286,-85.87,
2004-02-16,05:17,10.226,-85.85,
2004-02-16,06:45,10.216,-85.849,
2004-02-16,16:01,10.501,-86.039,
2004-02-17,08:17,10.317,-85.864,
2004-02-17,21:02,10.147,-85.992,
2004-02-18,08:09,10.265,-85.862,
2004-02-18,12:04,10.268,-85.874,
2004-02-18,12:17,10.273,-85.89,
2004-02-18,17:17,10.201,-85.859,
2004-02-18,23:03,10.235,-85.878,
2004-02-19,04:32,10.321,-85.871,
2004-02-19,19:06,10.269,-85.854,
2004-02-20,04:20,10.32,-85.861,
2004-02-20,09:21,10.326,-85.857,
2004-02-20,11:15,10.303,-85.871,
2004-02-20,20:34,10.343,-85.88,
2004-02-21,00:41,10.301,-85.862,
2004-02-21,05:42,10.324,-86.025,
2004-02-21,11:07,10.316,-85.86,
2004-02-21,15:03,10.284,-85.912,
2004-02-21,15:49,10.258,-85.889,
2004-02-22,01:17,10.32,-85.849,
2004-02-22,02:09,10.325,-85.853,
2004-02-22,12:10,10.321,-85.9,
2004-02-22,17:06,10.166,-85.935,
2004-02-23,17:54,10.208,-85.879,
2004-02-24,03:51,10.132,-85.947,
2004-02-24,08:33,10.351,-85.945,
2004-02-25,14:14,10.281,-85.896,
2004-02-25,19:34,10.293,-85.884,
2004-02-26,01:23,10.309,-85.879,
2004-02-26,21:02,10.23,-85.964,
2004-02-27,06:25,10.267,-85.877,
2004-02-27,16:54,10.292,-85.87,
2004-02-28,07:52,10.313,-85.847,
2004-02-28,13:08,10.267,-85.873,
2004-02-29,03:37,10.281,-85.872,
2004-02-29,18:11,10.347,-85.882,
2004-03-01,05:18,10.328,-85.851,
2004-03-01,14:48,10.312,-85.888,
2004-03-02,00:13,10.288,-85.93,
2004-03-02,01:04,10.329,-85.872,
2004-03-02,05:06,10.34,-85.861,
2004-03-02,15:25,10.29,-85.928,
2004-03-02,20:05,10.328,-85.906,
2004-03-03,01:46,10.265,-85.921,
2004-03-03,13:16,10.252,-86.044,
2004-03-04,03:43,10.171,-85.836,
2004-03-04,09:31,10.226,-85.849,
2004-03-04,12:52,10.221,-85.899,
2004-03-05,04:23,10.105,-85.824,
2004-03-06,04:33,10.272,-85.885,
2004-03-06,05:49,10.312,-85.908,
2004-03-06,19:21,10.22,-85.874,
2004-03-07,00:44,10.208,-85.903,
2004-03-07,06:22,10.242,-85.85,
2004-03-07,15:07,10.197,-85.862,
2004-03-07,20:53,10.154,-85.832,
2004-03-08,02:22,10.177,-85.89,
2004-03-08,07:46,10.282,-85.876,
2004-03-08,11:12,10.333,-85.937,
2004-03-08,16:27,10.286,-85.902,
2004-03-09,12:31,10.263,-85.882,
2004-03-09,17:42,10.2,-85.859,
2004-03-10,13:48,10.253,-85.858,
2004-03-10,18:37,10.24,-85.889,
2004-03-11,04:24,10.302,-85.875,
2004-03-11,09:00,10.314,-85.85,
2004-03-11,10:01,10.281,-85.899,
2004-03-11,14:21,10.272,-85.886,
2004-03-12,00:28,10.231,-85.857,
2004-03-12,05:43,10.326,-85.876,
2004-03-12,06:06,10.31,-85.842,
2004-03-12,11:12,10.397,-85.874,
2004-03-13,01:17,10.321,-85.843,
2004-03-13,01:45,10.321,-85.864,
2004-03-13,16:09,10.27,-85.909,
2004-03-14,04:15,10.279,-85.96,
2004-03-14,13:14,10.274,-86.032,
2004-03-14,18:29,10.268,-86.049,
2004-03-15,04:49,10.369,-86.009,
2004-03-15,09:10,10.233,-86.169,
2004-03-15,14:27,10.203,-86.253,
2004-03-15,14:30,10.204,-86.249,
2004-03-15,19:03,10.168,-86.293,
2004-03-16,05:12,10.088,-86.483,
2004-03-16,20:13,10.023,-87.093,
2004-03-17,21:40,9.661,-87.425,
2004-03-18,07:22,9.484,-87.677,
2004-03-18,17:01,9.464,-87.952,
2004-03-18,22:33,9.441,-88.083,
2004-03-19,08:26,9.435,-88.211,
2004-03-19,12:59,9.375,-88.273,
2004-03-19,13:39,9.365,-88.258,
2004-03-19,23:58,9.159,-88.453,
2004-03-20,14:12,8.857,-88.758,
2004-03-20,15:07,8.817,-88.767,
2004-03-20,19:33,8.693,-88.948,
2004-03-21,04:58,8.593,-89.243,
2004-03-21,06:37,8.578,-89.226,
2004-03-21,10:17,8.515,-89.318,
2004-03-22,06:13,8.223,-89.753,
2004-03-22,11:32,8.183,-89.752,
2004-03-23,03:32,7.831,-89.793,
2004-03-23,07:40,7.727,-89.776,
2004-03-23,12:45,7.547,-89.73,
2004-03-24,03:13,7.016,-89.861,
2004-03-24,09:12,6.902,-89.771,
2004-03-24,18:04,6.684,-89.778,
2004-03-24,18:42,6.673,-89.811,
2004-03-24,23:28,6.542,-89.795,
2004-03-25,05:43,6.428,-89.765,
2004-03-25,15:47,6.262,-89.746,
2004-03-26,00:58,6.088,-89.585,
2004-03-26,06:27,5.978,-89.523,
2004-03-26,07:13,5.969,-89.524,
2004-03-26,15:39,5.781,-89.386,
2004-03-27,02:14,5.571,-89.358,
2004-03-27,06:59,5.468,-89.324,
2004-03-28,23:28,4.628,-89.231,
2004-03-29,08:13,4.529,-89.317,
2004-03-29,09:53,4.447,-89.261,
2004-03-29,13:13,4.4,-89.277,
2004-03-30,09:38,4.04,-89.325,
2004-03-30,14:36,3.835,-89.273,
2004-03-31,06:14,3.529,-89.694,
2004-03-31,11:12,3.399,-89.802,
2004-03-31,16:07,3.324,-89.945,
2004-04-01,01:51,3.156,-90.287,
2004-04-01,11:01,2.965,-90.519,
2004-04-01,12:29,2.951,-90.541,
2004-04-02,09:12,2.653,-91.098,
2004-04-02,14:03,2.881,-91.397,
2004-04-02,22:01,2.447,-91.399,
2004-04-04,09:33,2.071,-92.563,
2004-04-05,22:05,1.879,-93.437,
2004-04-06,02:51,1.8,-93.506,
2004-04-06,06:09,1.745,-93.586,
2004-04-06,11:31,1.664,-93.592,
2004-04-07,06:43,1.472,-93.909,
2004-04-11,14:32,0.351,-95.346,
2004-04-11,18:32,0.442,-95.412,
2004-04-12,09:35,0.422,-95.768,
2004-04-12,16:34,0.309,-95.773,
2004-04-13,09:28,0.334,-95.981,
2004-04-13,18:00,0.277,-95.812,
2004-04-13,22:14,0.191,-95.879,
2004-04-17,21:31,-1.203,-95.802,
2004-04-24,14:29,-4.018,-98.3,
2004-04-26,01:02,-4.416,-99.069,
2004-04-29,04:05,-5.639,-100.18,
2004-05-01,10:58,-6.549,-100.648,
2004-05-03,16:58,-7.093,-101.436,
2004-05-09,09:42,-8.567,-101.721,
2004-05-10,05:45,-8.593,-101.643,
2004-05-13,02:42,-9.323,-102.049,
2004-05-16,05:58,-9.874,-102.028,
2004-05-16,10:01,-9.946,-101.641,
2004-05-17,07:25,-9.967,-101.941,
2004-05-25,15:17,-11.316,-102.302,
2004-05-25,16:59,-11.32,-102.291,
2004-05-25,18:24,-11.317,-102.277,
2004-05-26,02:33,-11.412,-102.342,
2004-05-29,17:10,-12.015,-102.778,
2004-05-30,02:40,-12.075,-102.834,
2004-05-31,04:31,-12.258,-103.038,
2004-06-01,08:32,-12.454,-103.125,
2004-06-02,10:06,-12.609,-103.119,
2004-06-02,11:12,-12.602,-103.13,
2004-06-02,15:13,-12.635,-103.114,
2004-06-02,17:20,-12.643,-103.131,
2004-06-02,22:41,-12.675,-103.166,
2004-06-03,17:58,-12.818,-103.062,
2004-06-05,05:06,-12.971,-103.126,
2004-06-05,06:45,-12.952,-103.09,
2004-06-05,22:26,-13.023,-103.141,
2004-06-06,01:39,-13.066,-103.197,
2004-06-06,06:25,-13.024,-103.108,
2004-06-06,11:13,-13.051,-103.154,
2004-06-16,01:01,-13.859,-102.711,
2004-06-17,02:37,-13.939,-102.747,
2004-06-18,10:24,-14.06,-102.734,
2004-06-18,12:57,-14.07,-102.721,
2004-06-18,14:35,-14.075,-102.732,
2004-06-18,17:51,-14.089,-102.72,
2004-06-21,02:18,-14.114,-102.879,
2004-06-23,03:03,-14.109,-102.386,
2004-06-25,13:31,-14.282,-103.159,
2004-06-25,15:23,-14.28,-103.185,
2004-06-25,16:59,-14.27,-103.211,
2004-06-26,01:59,-14.309,-103.203,
2004-06-27,12:37,-14.35,-103.266,
2004-06-28,17:30,-14.454,-103.345,
2004-06-28,22:46,-14.421,-103.386,
2004-07-01,22:13,-14.841,-103.828,
2004-07-02,02:56,-14.878,-103.822,
2004-07-02,04:58,-14.889,-103.88,
2004-07-02,22:00,-15.074,-103.926,
2004-07-03,09:14,-15.209,-103.858,
2004-07-04,15:10,-15.443,-103.803,
2004-07-05,01:53,-15.519,-103.681,
2004-07-05,10:29,-15.45,-103.692,
2004-07-08,17:03,-15.868,-103.504,
2004-07-09,18:22,-15.988,-103.297,
2004-07-10,07:53,-15.975,-103.227,
2004-07-10,09:35,-16.012,-103.219,
2004-07-10,13:52,-15.995,-103.259,
2004-07-10,15:41,-16.008,-103.262,
2004-07-11,02:45,-16.044,-103.132,
2004-07-12,02:24,-16.053,-103.116,
2004-07-12,04:00,-16.028,-103.09,
2004-07-12,17:17,-16.063,-103.421,
2004-07-14,14:17,-16.26,-102.797,
2004-07-15,00:49,-16.254,-102.854,
2004-07-16,02:29,-16.355,-102.7,
2004-07-16,03:09,-16.352,-102.729,
2004-07-17,22:30,-16.537,-102.341,
2004-07-21,05:56,-16.207,-101.886,
2004-07-22,03:26,-16.032,-101.871,
2004-07-23,18:04,-15.812,-101.68,
2004-07-24,06:35,-15.644,-101.773,
2004-07-24,10:17,-15.621,-101.788,
2004-07-26,16:58,-15.339,-101.605,
2004-07-28,03:59,-15.03,-101.74,
2004-07-28,09:32,-14.983,-101.773,
2004-07-28,13:47,-14.929,-101.786,
2004-07-29,06:18,-14.83,-101.892,
2004-07-30,01:56,-14.636,-101.901,
2004-08-01,08:50,-14.256,-101.934,
2004-08-02,14:08,-13.921,-101.99,
2004-08-03,04:19,-13.806,-102.035,
2004-08-03,10:01,-13.865,-102.052,
2004-08-04,15:20,-13.694,-102.034,
2004-08-06,02:34,-13.59,-102.017,
2004-08-06,03:43,-13.587,-102.019,
2004-08-06,17:41,-13.476,-101.958,
2004-08-07,04:38,-13.322,-101.82,
2004-08-07,09:11,-13.353,-101.915,
2004-08-08,05:50,-13.267,-101.938,
2004-08-08,09:01,-13.247,-101.931,
2004-08-09,05:30,-13.147,-101.848,
2004-08-10,02:38,-13.079,-102,
2004-08-10,11:20,-12.961,-102.135,
2004-08-12,04:05,-13.15,-101.984,
2004-08-12,06:01,-13.111,-101.891,
2004-08-12,10:02,-13.186,-101.86,
2004-08-12,22:59,-13.145,-101.954,
2004-08-13,05:41,-13.15,-101.891,
2004-08-13,10:03,-13.103,-101.923,
2004-08-13,14:08,-13.115,-101.914,
2004-08-14,05:16,-13.036,-101.834,
2004-08-14,20:31,-13.037,-101.916,
2004-08-16,22:59,-12.91,-101.916,
2004-08-17,03:05,-12.891,-101.72,
2004-08-17,05:47,-12.896,-101.898,
2004-08-19,05:02,-12.737,-101.853,
2004-08-19,21:23,-12.847,-102.237,
2004-08-20,02:05,-12.681,-101.803,
2004-08-20,21:04,-12.652,-101.764,
2004-08-21,03:47,-12.646,-101.766,
2004-08-21,22:34,-12.665,-101.747,
2004-08-22,03:38,-12.658,-101.738,
2004-08-24,06:27,-12.632,-101.701,
2004-08-25,05:59,-12.77,-101.766,
2004-08-26,12:28,-12.9,-101.59,
2004-08-27,18:03,-12.958,-101.55,
2004-08-28,10:18,-12.964,-101.541,
2004-08-29,01:45,-12.944,-101.471,
2004-08-29,06:11,-12.949,-101.497,
2004-08-30,01:59,-12.915,-101.416,
2004-08-31,12:42,-13.024,-101.238,
2004-09-02,00:11,-13.131,-101.02,
2004-09-02,09:22,-13.134,-100.948,
2004-09-03,06:01,-13.08,-100.963,
2004-09-03,20:07,-13.096,-100.862,
2004-09-04,02:37,-12.997,-100.771,
2004-09-04,12:10,-12.993,-100.815,
2004-09-04,21:36,-12.997,-100.672,
2004-09-05,02:19,-12.982,-100.573,
2004-09-07,06:04,-13.074,-100.315,
2004-09-09,02:24,-13.263,-100.448,
2004-09-09,12:15,-13.362,-100.566,
2004-09-09,23:05,-13.348,-100.635,
2004-09-15,03:37,-13.133,-100.275,
2004-09-21,03:58,-13.455,-99.918,
2004-09-22,14:58,-13.764,-99.88,
2004-09-23,05:08,-13.546,-99.25,
2004-09-24,06:17,-14.188,-99.78,
2004-09-29,21:50,-15.225,-100.065,
2004-10-01,18:07,-15.24,-100.329,
2004-10-05,02:12,-16.121,-100.734,
2004-10-07,09:21,-16.514,-100.944,
2004-10-12,21:03,-17.565,-100.744,
2004-10-13,20:53,-17.758,-100.601,
2004-10-18,21:38,-18.831,-99.725,
2004-10-26,03:07,-19.542,-99.314,
2004-10-26,14:26,-19.502,-99.29,
2004-10-28,05:03,-19.394,-99.139,
2004-10-29,21:13,-19.12,-98.789,
2004-10-29,22:46,-19.199,-98.91,
2004-10-31,14:07,-19.003,-98.881,
2004-11-02,02:11,-18.77,-98.86,
2004-11-04,02:58,-18.428,-98.873,
2004-11-07,01:56,-18.053,-98.64,
2004-11-07,10:11,-18.052,-98.564,
2004-11-09,22:20,-17.881,-98.165,
2004-11-11,09:30,-17.793,-98.059,
2004-11-12,06:02,-17.676,-98.067,
2004-11-15,08:37,-17.558,-97.863,
2004-11-17,00:18,-17.444,-97.755,
2004-11-17,10:43,-17.525,-98.101,
2004-11-17,20:53,-17.514,-98.136,
2004-11-18,01:28,-17.492,-98.084,
2004-11-18,16:12,-17.52,-98.147,
2004-11-19,07:54,-17.515,-98.157,
2004-11-22,05:32,-17.606,-98.233,
2004-11-23,01:12,-17.546,-98.277,
2004-11-24,02:31,-17.573,-98.193,
2004-11-24,11:57,-17.623,-98.182,
2004-11-25,03:25,-17.554,-98.103,
2004-11-25,08:30,-17.588,-98.148,
2004-11-25,13:11,-17.575,-98.149,
2004-11-27,05:23,-17.454,-98.398,
2004-11-28,00:59,-17.42,-98.479,
2004-11-28,06:39,-17.454,-98.546,
2004-11-29,02:10,-17.436,-98.553,
2004-11-29,07:39,-17.445,-98.551,
2004-11-29,17:26,-17.482,-98.605,
2004-11-29,21:57,-17.503,-98.644,
2004-11-30,23:42,-17.477,-98.705,
2004-12-01,09:01,-17.521,-98.538,
2004-12-01,14:13,-17.505,-98.661,
2004-12-02,05:09,-17.503,-98.699,
2004-12-03,06:27,-17.527,-98.771,
2004-12-05,02:58,-17.403,-98.612,
2004-12-06,13:53,-17.48,-99.013,
2004-12-07,15:28,-17.423,-99.02,
2004-12-08,00:56,-17.379,-99.076,
2004-12-09,16:56,-17.323,-99.199,
2004-12-10,03:43,-17.253,-99.295,
2004-12-11,14:42,-17.263,-99.201,
2004-12-12,00:26,-17.174,-99.324,
2004-12-13,05:59,-17.061,-99.428,
2004-12-14,12:29,-16.782,-99.628,
2004-12-15,17:58,-16.792,-99.66,
2004-12-17,00:31,-16.653,-99.744,
2004-12-17,15:04,-16.567,-100.051,
2004-12-20,08:42,-16.564,-99.938,
2004-12-20,13:22,-16.576,-99.926,
2004-12-20,22:53,-16.475,-99.861,
2004-12-22,09:56,-16.542,-100.083,
2004-12-24,12:06,-16.457,-99.989,
2004-12-24,22:08,-16.484,-99.988,
2004-12-26,09:13,-16.548,-100.011,
2004-12-26,14:18,-16.553,-99.999,
2004-12-29,21:16,-16.413,-100.122,
2004-12-31,04:11,-16.463,-100.256,
2004-12-31,13:58,-16.439,-100.322,
2005-01-01,15:13,-16.446,-100.35,
2005-01-01,20:40,-16.449,-100.355,
2005-01-02,11:45,-16.428,-100.373,
2005-01-03,21:55,-16.483,-100.492,
2005-01-06,05:13,-16.544,-100.598,
2005-01-06,10:25,-16.512,-100.456,
2005-01-07,01:44,-16.677,-100.742,
2005-01-07,11:24,-16.577,-100.69,
2005-01-10,09:38,-16.614,-100.922,
2005-01-11,04:57,-16.651,-100.956,
2005-01-12,06:13,-16.681,-101.069,
2005-01-12,16:13,-16.676,-101.151,
2005-01-13,12:15,-16.75,-101.155,
2005-01-13,16:58,-16.725,-101.183,
2005-01-15,04:21,-16.803,-101.319,
2005-01-19,13:15,-16.914,-101.428,
2005-01-19,18:04,-16.944,-101.468,
2005-01-23,02:15,-17.058,-101.573,
2005-01-25,08:34,-17.404,-101.303,
2005-02-22,01:56,-23.657,-100.139,
2005-03-01,17:25,-24.96,-98.898,
2005-03-12,14:57,-26.856,-96.458,
2005-03-16,15:27,-27.482,-96.823,
2005-03-18,12:03,-27.426,-95.895,
2005-03-19,03:01,-27.568,-95.561,
2005-03-26,00:18,-28.334,-94.365,
2005-03-29,23:22,-28.93,-93.652,
2005-04-04,02:24,-29.088,-92.155,
2005-04-04,08:39,-28.821,-92.674,
2005-04-06,09:55,-29.266,-92.396,
2005-04-08,16:21,-29.921,-92.312,
2005-04-08,20:33,-29.783,-92.249,
2005-04-13,16:11,-31.405,-92.333,
2005-04-16,14:59,-31.944,-92.516,
2005-04-16,16:35,-31.964,-92.499,
2005-04-17,11:49,-32.095,-92.352,
2005-04-18,02:46,-32.245,-92.165,
2005-04-18,23:47,-32.348,-92.121,
2005-04-19,09:16,-32.373,-92.076,
2005-04-19,13:55,-32.417,-92.041,
2005-04-20,09:07,-32.65,-92.044,
2005-04-20,15:10,-32.623,-91.804,
2005-04-22,21:00,-33.015,-92.105,
2005-04-23,06:50,-33.156,-91.113,
2005-04-23,23:32,-33.15,-91.285,
2005-05-02,05:54,-34.282,-90.374,
2005-05-02,10:57,-34.335,-90.1,
2005-05-06,15:44,-34.57,-90.063,
2005-05-09,03:17,-34.251,-89.782,
2005-05-10,09:19,-34.593,-90.142,
2005-05-10,14:10,-34.778,-90.255,
2005-05-10,19:18,-34.533,-90.256,
2005-05-11,20:45,-34.808,-89.739,
2005-05-14,04:43,-34.93,-90.693,
2005-05-16,15:14,-34.924,-90.584,
2005-05-17,14:40,-34.886,-90.592,
2005-05-18,22:50,-35.068,-90.69,
2005-05-24,00:54,-34.453,-89.313,
2005-05-25,11:54,-34.684,-91.192