Northern Elephant Seal 
2003004 13361
2003-04-24, 22:13, 36.943, -122.055,
2003-04-26, 23:07, 37.113, -122.334,
2003-04-28, 03:40, 37.1, -122.344,
2003-04-28, 04:27, 37.107, -122.311,
2003-04-28, 04:52, 37.107, -122.319,
2003-04-28, 06:08, 37.11, -122.346,
2003-04-28 ,08:11, 37.167, -122.375,
2003-04-29 ,04:04, 37.042, -122.267