Salmon Shark 
1706001 68284 
2007-05-16, 08:15,  45.797,  -142.533, 
2007-05-16, 10:37,  45.798,  -142.507, 
2007-05-16, 12:18,  45.8,  -142.489, 
2007-05-16, 13:13,  45.799,  -142.482, 
2007-05-16, 14:14,  45.797,  -142.478, 
2007-05-16, 14:54,  45.8,  -142.469, 
2007-05-16, 15:53,  45.8,  -142.455, 
2007-05-16, 18:47,  45.815,  -142.443, 
2007-05-16, 20:28,  45.829,  -142.43, 
2007-05-16, 23:03,  45.844,  -142.383, 
2007-05-17, 00:43,  45.845,  -142.36, 
2007-05-17, 01:38,  45.843,  -142.361, 
2007-05-17, 02:24,  45.845,  -142.358, 
2007-05-17, 03:16,  45.843,  -142.352, 
2007-05-17, 06:11,  45.855,  -142.353, 
2007-05-17, 07:49,  45.868,  -142.335, 
2007-05-17, 10:25,  45.89,  -142.318, 
2007-05-17, 12:09,  45.92,  -142.311, 
2007-05-17, 13:02,  45.921,  -142.289, 
2007-05-17, 14:42,  45.934,  -142.28, 
2007-05-17, 18:22,  45.982,  -142.243, 
2007-05-17, 20:04,  46.003,  -142.234, 
2007-05-17, 21:45,  46.024,  -142.2, 
2007-05-17, 21:54,  46.021,  -142.192, 
2007-05-17, 22:50,  46.032,  -142.166, 
2007-05-17, 23:38,  46.027,  -142.15, 
2007-05-18, 00:29,  46.032,  -142.132, 
2007-05-18, 01:13,  46.035,  -142.113, 
2007-05-18, 02:13,  46.03,  -142.101, 
2007-05-18, 02:53,  46.033,  -142.09, 
2007-05-18, 05:47,  46.055,  -142.056, 
2007-05-18, 07:27,  46.065,  -142.03, 
2007-05-18, 11:57,  46.108,  -141.951, 
2007-05-18, 12:50,  46.111,  -141.921, 
2007-05-18, 13:37,  46.109,  -141.904, 
2007-05-18, 14:31,  46.106,  -141.864, 
2007-05-18, 15:08,  46.107,  -141.861, 
2007-05-18, 16:45,  46.105,  -141.812, 
2007-05-18, 19:39,  46.092,  -141.741, 
2007-05-18, 21:22,  46.083,  -141.732, 
2007-05-18, 21:47,  46.089,  -141.714, 
2007-05-18, 23:26,  46.09,  -141.698, 
2007-05-19, 00:50,  46.09,  -141.676, 
2007-05-19, 02:00,  46.098,  -141.658, 
2007-05-19, 02:31,  46.098,  -141.663, 
2007-05-19, 05:25,  46.109,  -141.58, 
2007-05-19, 10:06,  46.09,  -141.478, 
2007-05-19, 13:27,  46.054,  -141.457, 
2007-05-19, 14:18,  46.058,  -141.445, 
2007-05-19, 14:43,  46.06,  -141.448, 
2007-05-19, 16:23,  46.056,  -141.433, 
2007-05-19, 19:18,  46.056,  -141.411, 
2007-05-19, 20:59,  46.052,  -141.388, 
2007-05-19, 21:33,  46.052,  -141.379, 
2007-05-19, 22:27,  46.063,  -141.387, 
2007-05-19, 23:16,  46.044,  -141.372, 
2007-05-20, 00:07,  46.042,  -141.368, 
2007-05-20, 00:27,  46.04,  -141.368, 
2007-05-20, 01:49,  46.032,  -141.362, 
2007-05-20, 03:45,  46.014,  -141.354, 
2007-05-20, 05:02,  46.014,  -141.348, 
2007-05-20, 06:42,  45.998,  -141.344, 
2007-05-20, 08:23,  45.995,  -141.355, 
2007-05-20, 09:55,  45.992,  -141.357, 
2007-05-20, 11:36,  45.987,  -141.355, 
2007-05-20, 12:26,  45.987,  -141.364, 
2007-05-20, 13:16,  45.989,  -141.367, 
2007-05-20, 14:07,  45.992,  -141.358, 
2007-05-20, 14:19,  45.991,  -141.362, 
2007-05-20, 15:46,  45.991,  -141.353, 
2007-05-20, 15:58,  45.991,  -141.351, 
2007-05-20, 18:53,  45.979,  -141.337, 
2007-05-20, 20:33,  45.974,  -141.331, 
2007-05-20, 21:25,  45.97,  -141.345, 
2007-05-20, 23:05,  45.978,  -141.352, 
2007-05-20, 23:56,  45.98,  -141.367, 
2007-05-21, 00:03,  45.982,  -141.373, 
2007-05-21, 01:35,  45.99,  -141.37, 
2007-05-21, 01:41,  45.99,  -141.372, 
2007-05-21, 03:22,  45.998,  -141.366, 
2007-05-21, 04:40,  45.993,  -141.362, 
2007-05-21, 06:18,  46.003,  -141.354, 
2007-05-21, 11:25,  46.016,  -141.363, 
2007-05-21, 13:07,  46.027,  -141.388, 
2007-05-21, 15:36,  46.031,  -141.386, 
2007-05-21, 17:13,  46.047,  -141.407, 
2007-05-21, 18:31,  46.051,  -141.391, 
2007-05-21, 21:14,  46.061,  -141.382, 
2007-05-21, 21:52,  46.051,  -141.39, 
2007-05-21, 22:57,  46.06,  -141.38, 
2007-05-21, 23:44,  46.062,  -141.376, 
2007-05-22, 01:18,  46.068,  -141.368, 
2007-05-22, 01:24,  46.067,  -141.365, 
2007-05-22, 02:58,  46.068,  -141.366, 
2007-05-22, 05:56,  46.073,  -141.361, 
2007-05-22, 07:36,  46.084,  -141.344, 
2007-05-22, 11:15,  46.105,  -141.335, 
2007-05-22, 12:54,  46.116,  -141.335, 
2007-05-22, 13:42,  46.117,  -141.334, 
2007-05-22, 15:09,  46.126,  -141.327, 
2007-05-22, 15:25,  46.125,  -141.328, 
2007-05-22, 16:49,  46.135,  -141.316, 
2007-05-22, 19:49,  46.149,  -141.295, 
2007-05-22, 21:05,  46.15,  -141.278, 
2007-05-22, 21:28,  46.15,  -141.278, 
2007-05-22, 22:45,  46.143,  -141.266, 
2007-05-22, 23:32,  46.142,  -141.252, 
2007-05-23, 00:55,  46.132,  -141.245, 
2007-05-23, 01:11,  46.137,  -141.247, 
2007-05-23, 02:33,  46.127,  -141.246, 
2007-05-23, 02:55,  46.132,  -141.247, 
2007-05-23, 07:11,  46.135,  -141.257, 
2007-05-23, 11:06,  46.143,  -141.245, 
2007-05-23, 12:46,  46.141,  -141.229, 
2007-05-23, 13:06,  46.149,  -141.234, 
2007-05-23, 13:33,  46.143,  -141.227, 
2007-05-23, 14:48,  46.136,  -141.22, 
2007-05-23, 15:13,  46.135,  -141.221, 
2007-05-23, 16:26,  46.128,  -141.22, 
2007-05-23, 19:25,  46.124,  -141.228, 
2007-05-23, 20:54,  46.124,  -141.215, 
2007-05-23, 21:06,  46.12,  -141.215, 
2007-05-23, 22:35,  46.122,  -141.204, 
2007-05-23, 23:21,  46.122,  -141.213, 
2007-05-24, 00:16,  46.118,  -141.206, 
2007-05-24, 00:31,  46.119,  -141.208, 
2007-05-24, 01:01,  46.122,  -141.196, 
2007-05-24, 05:11,  46.124,  -141.191, 
2007-05-24, 10:55,  46.128,  -141.167, 
2007-05-24, 13:21,  46.14,  -141.17, 
2007-05-24, 14:23,  46.131,  -141.164, 
2007-05-24, 15:00,  46.137,  -141.166, 
2007-05-24, 16:03,  46.127,  -141.169, 
2007-05-24, 22:22,  46.166,  -141.168, 
2007-05-24, 23:10,  46.165,  -141.16, 
2007-05-25, 02:29,  46.157,  -141.11, 
2007-05-25, 06:27,  46.127,  -141.102, 
2007-05-25, 08:04,  46.124,  -141.094, 
2007-05-25, 13:08,  46.144,  -141.109, 
2007-05-25, 13:58,  46.147,  -141.104, 
2007-05-25, 14:49,  46.137,  -141.084, 
2007-05-25, 18:40,  46.144,  -141.052, 
2007-05-25, 22:12,  46.131,  -141.017, 
2007-05-26, 02:19,  46.125,  -141.028, 
2007-05-26, 03:03,  46.121,  -141.019, 
2007-05-26, 06:02,  46.15,  -141.018