Salmon Shark
1702003 37383 
2002-07-16, 05:15,  60.663,  -146.282, 
2002-07-16, 06:24,  60.661,  -146.296, 
2002-07-16, 06:56,  60.665,  -146.3, 
2002-07-16, 08:36,  60.637,  -146.35, 
2002-07-16, 12:51,  60.574,  -146.33, 
2002-07-16, 13:41,  60.535,  -146.329, 
2002-07-18, 04:51,  60.686,  -146.233, 
2002-07-19, 02:30,  60.512,  -147.871, 
2002-07-20, 14:37,  60.608,  -145.864, 
2002-07-20, 15:18,  60.679,  -146.264, 
2002-07-20, 16:17,  60.584,  -145.94, 
2002-07-20, 16:18,  60.707,  -146.31, 
2002-07-29, 19:20,  60.692,  -146.188, 
2002-07-29, 19:23,  60.69,  -146.192, 
2002-08-08, 13:33,  60.712,  -146.156, 
2002-09-12, 10:21,  60.527,  -146.782, 
2002-09-12, 12:07,  60.551,  -146.822, 
2002-09-12, 18:24,  60.536,  -146.538, 
2002-09-12, 18:37,  60.55,  -146.469, 
2002-09-12, 20:05,  60.551,  -146.275, 
2002-09-12, 20:25,  60.538,  -146.359, 
2002-09-13, 00:17,  60.506,  -146.512, 
2002-09-13, 08:34,  60.389,  -146.808, 
2002-09-14, 13:46,  60.239,  -146.811, 
2002-09-15, 08:45,  60.328,  -146.823, 
2002-09-20, 12:17,  60.385,  -146.974, 
2002-09-25, 11:22,  60.444,  -147.13, 
2002-09-26, 11:09,  60.41,  -146.881, 
2002-09-27, 00:29,  60.494,  -146.952, 
2002-09-27, 00:30,  60.466,  -146.921, 
2002-09-27, 02:04,  60.469,  -146.895, 
2002-09-27, 02:18,  60.454,  -146.897, 
2002-09-27, 03:07,  60.444,  -146.914, 
2002-09-27, 18:00,  60.454,  -147.522, 
2002-10-01, 09:27,  60.439,  -147.201, 
2002-10-01, 09:28,  60.472,  -147.26, 
2002-10-01, 10:15,  60.443,  -147.208, 
2002-10-09, 09:20,  60.268,  -147.697, 
2002-10-12, 05:03,  59.89,  -148.184, 
2002-10-12, 05:15,  60.042,  -147.026, 
2002-10-12, 06:29,  59.902,  -148.302, 
2002-10-13, 15:30,  59.907,  -147.907, 
2002-10-14, 03:00,  60.007,  -147.262, 
2002-10-14, 03:03,  59.833,  -148.062, 
2002-10-15, 00:59,  59.702,  -148.374, 
2002-10-15, 14:24,  59.636,  -148.526, 
2002-10-16, 09:24,  60.466,  -146.995, 
2002-10-16, 14:18,  59.736,  -148.249, 
2002-10-17, 02:50,  59.573,  -148.577, 
2002-10-17, 18:50,  59.548,  -148.921, 
2002-10-17, 19:54,  59.639,  -149.1, 
2002-10-18, 03:57,  59.56,  -148.718, 
2002-10-18, 04:06,  59.584,  -148.611, 
2002-10-18, 04:44,  59.581,  -148.72, 
2002-10-18, 05:35,  59.58,  -148.758, 
2002-10-18, 05:53,  59.577,  -148.759, 
2002-10-18, 09:48,  59.664,  -148.733, 
2002-10-18, 12:08,  59.657,  -148.724, 
2002-10-19, 04:21,  59.333,  -149.221, 
2002-10-20, 09:02,  59.405,  -149.537, 
2002-10-20, 10:07,  59.417,  -149.58, 
2002-10-20, 10:11,  59.48,  -149.397, 
2002-10-20, 11:46,  59.394,  -149.629, 
2002-10-20, 15:08,  59.347,  -149.503, 
2002-10-20, 15:26,  59.344,  -149.532, 
2002-10-20, 15:33,  59.341,  -149.54, 
2002-10-21, 06:39,  59.051,  -150.135, 
2002-10-21, 09:54,  58.97,  -150.415, 
2002-10-21, 11:38,  58.938,  -150.542, 
2002-10-21, 13:21,  58.942,  -150.465, 
2002-10-23, 19:19,  58.205,  -153.625, 
2002-10-26, 07:06,  58.008,  -153.483, 
2002-10-28, 07:57,  57.891,  -153.794, 
2002-10-28, 08:40,  57.876,  -153.806, 
2002-10-28, 09:18,  57.887,  -153.905, 
2002-10-29, 07:24,  58.095,  -153.533, 
2002-10-29, 07:32,  58.054,  -153.776, 
2002-10-31, 12:27,  58.196,  -154.076, 
2002-11-01, 12:13,  57.602,  -155.465, 
2002-11-01, 15:39,  57.296,  -155.716, 
2002-11-02, 23:41,  56.814,  -156.109, 
2002-11-03, 00:01,  56.801,  -156.117, 
2002-11-03, 00:58,  56.779,  -156.154, 
2002-11-03, 06:15,  56.656,  -156.082, 
2002-11-03, 06:55,  56.544,  -156.544, 
2002-11-03, 07:08,  56.656,  -156.106, 
2002-11-03, 08:34,  56.282,  -156.489, 
2002-11-03, 08:44,  56.653,  -156.145, 
2002-11-04, 05:54,  56.11,  -156.784, 
2002-11-04, 08:22,  56.139,  -156.893, 
2002-11-04, 14:08,  56.081,  -157.135, 
2002-11-06, 05:04,  55.861,  -158.025, 
2002-11-06, 06:01,  55.843,  -158.09, 
2002-11-06, 06:11,  55.828,  -158.235, 
2002-11-06, 06:49,  55.853,  -157.702, 
2002-11-06, 07:37,  55.806,  -158.351, 
2002-11-06, 07:55,  55.773,  -158.488, 
2002-11-06, 09:18,  55.857,  -158.202, 
2002-11-06, 09:36,  55.84,  -158.168, 
2002-11-07, 07:20,  55.848,  -158.282, 
2002-11-07, 13:38,  55.808,  -158.007, 
2002-11-07, 13:50,  55.811,  -158.371, 
2002-11-07, 15:15,  55.744,  -158.26, 
2002-11-08, 04:17,  55.689,  -158.444, 
2002-11-08, 04:39,  55.699,  -158.542, 
2002-11-08, 05:16,  55.65,  -158.439, 
2002-11-08, 05:56,  55.636,  -158.535, 
2002-11-08, 06:55,  55.604,  -158.527, 
2002-11-08, 08:33,  55.575,  -158.667, 
2002-11-08, 09:07,  55.614,  -158.571, 
2002-11-09, 10:37,  54.44,  -157.487, 
2002-11-14, 09:27,  54.588,  -159.87, 
2002-11-14, 09:39,  54.947,  -160.626, 
2002-11-14, 11:06,  54.975,  -160.54, 
2002-11-14, 12:13,  54.982,  -160.503, 
2002-11-14, 13:55,  54.983,  -160.507, 
2002-11-15, 15:08,  55.027,  -160.526, 
2002-11-15, 15:23,  55.026,  -160.53, 
2002-11-15, 16:48,  55.036,  -160.476, 
2002-11-16, 13:33,  55.039,  -160.408, 
2002-11-16, 16:38,  55.009,  -160.507, 
2002-11-17, 16:12,  55.1,  -160.427, 
2002-11-17, 16:24,  55.104,  -160.51, 
2002-11-17, 16:25,  55.083,  -160.434, 
2002-11-18, 16:04,  55.036,  -160.723, 
2002-11-19, 04:58,  54.865,  -161.242, 
2002-11-19, 05:01,  54.867,  -161.217, 
2002-11-19, 05:27,  54.874,  -161.22, 
2002-11-20, 01:28,  54.529,  -162.097, 
2002-11-20, 02:15,  54.508,  -162.114, 
2002-11-25, 04:12,  54.454,  -162.51, 
2002-11-25, 04:20,  54.493,  -162.538, 
2002-11-25, 05:37,  54.472,  -162.547, 
2002-11-25, 05:54,  54.488,  -162.513, 
2002-11-25, 05:59,  54.489,  -162.534, 
2002-11-25, 06:57,  54.484,  -162.501, 
2002-11-25, 07:17,  54.485,  -162.509, 
2002-11-25, 08:38,  54.469,  -162.436, 
2002-11-25, 08:55,  54.463,  -162.48, 
2002-11-29, 04:29,  54.678,  -162.847, 
2002-11-29, 05:02,  54.354,  -163.916, 
2002-11-29, 05:46,  54.708,  -162.683, 
2002-11-29, 06:00,  54.693,  -162.699, 
2002-11-29, 06:05,  54.675,  -162.664, 
2002-11-29, 07:39,  54.674,  -162.611, 
2002-11-29, 09:04,  54.634,  -162.58, 
2002-11-29, 09:17,  54.652,  -162.529, 
2002-11-29, 11:04,  54.636,  -162.59, 
2002-11-30, 04:43,  54.736,  -162.668, 
2002-11-30, 05:42,  54.588,  -162.638, 
2002-11-30, 06:31,  54.484,  -163.922, 
2002-12-01, 04:36,  54.485,  -162.654, 
2002-12-01, 05:20,  54.478,  -162.671, 
2002-12-01, 06:39,  54.486,  -162.625, 
2002-12-01, 08:21,  54.454,  -162.745, 
2002-12-01, 08:51,  55.15,  -160.085, 
2002-12-01, 09:59,  54.468,  -162.593, 
2002-12-01, 10:32,  54.485,  -162.579, 
2002-12-04, 06:34,  54.292,  -162.402, 
2002-12-04, 07:13,  54.282,  -162.397, 
2002-12-04, 07:15,  54.291,  -162.412, 
2002-12-04, 08:54,  54.259,  -162.509, 
2002-12-04, 09:53,  54.262,  -162.562, 
2002-12-04, 10:33,  54.26,  -162.606, 
2002-12-04, 11:55,  54.264,  -162.679, 
2002-12-04, 13:34,  54.253,  -162.649, 
2002-12-05, 05:13,  54.263,  -162.104, 
2002-12-05, 05:26,  54.26,  -162.073, 
2002-12-05, 05:27,  54.256,  -162.07, 
2002-12-05, 06:17,  54.251,  -162.054, 
2002-12-05, 06:50,  54.258,  -162.074, 
2002-12-05, 09:40,  54.269,  -162.097, 
2002-12-05, 13:23,  54.281,  -161.996, 
2002-12-06, 06:02,  54.315,  -161.33, 
2002-12-06, 06:27,  54.279,  -161.435, 
2002-12-06, 08:07,  54.265,  -161.618, 
2002-12-06, 09:54,  54.28,  -161.501, 
2002-12-06, 11:29,  54.379,  -161.467, 
2002-12-07, 03:22,  54.599,  -161.654, 
2002-12-07, 04:38,  54.611,  -161.549, 
2002-12-07, 04:38,  54.616,  -161.651, 
2002-12-07, 05:01,  54.601,  -161.604, 
2002-12-07, 10:53,  54.595,  -161.621, 
2002-12-07, 11:22,  54.701,  -161.661, 
2002-12-07, 13:02,  54.693,  -161.538, 
2002-12-08, 07:20,  54.65,  -161.77, 
2002-12-08, 07:25,  54.638,  -161.797, 
2002-12-08, 11:09,  54.531,  -161.788, 
2002-12-14, 17:27,  55.353,  -160.32, 
2002-12-23, 05:05,  55.421,  -160.058, 
2002-12-27, 06:53,  55.472,  -159.951, 
2002-12-27, 06:56,  55.436,  -159.94, 
2002-12-27, 07:57,  55.477,  -159.829, 
2002-12-27, 08:40,  55.459,  -159.914, 
2002-12-28, 05:42,  55.571,  -160.179, 
2002-12-28, 07:42,  55.579,  -160.146, 
2002-12-28, 08:16,  55.591,  -160.112, 
2002-12-28, 09:21,  55.603,  -160.244, 
2002-12-28, 09:57,  55.589,  -160.122, 
2002-12-28, 11:05,  55.553,  -159.985, 
2002-12-29, 07:29,  55.523,  -160.124, 
2002-12-29, 14:27,  55.169,  -163.374, 
2002-12-30, 08:54,  55.443,  -159.105, 
2002-12-30, 09:12,  55.421,  -159.996, 
2003-01-02, 14:31,  55.501,  -160.206, 
2003-01-02, 16:15,  54.689,  -160.031, 
2003-01-04, 12:52,  55.07,  -160.256, 
2003-01-04, 14:32,  55.056,  -160.285, 
2003-01-05, 08:31,  55.306,  -160.036, 
2003-01-07, 12:18,  55.296,  -160.047, 
2003-01-07, 14:03,  55.217,  -160.134, 
2003-01-08, 05:02,  55.303,  -159.905, 
2003-01-08, 05:12,  55.343,  -159.961, 
2003-01-08, 07:27,  55.329,  -159.897, 
2003-01-08, 07:27,  55.324,  -159.897, 
2003-01-08, 17:07,  55.339,  -159.757, 
2003-01-09, 16:40,  48.131,  -153.701, 
2003-01-09, 17:05,  55.493,  -160.053, 
2003-01-09, 17:13,  55.498,  -160.06, 
2003-01-10, 11:39,  55.522,  -159.554, 
2003-01-26, 07:20,  55.372,  -159.289, 
2003-01-26, 07:43,  55.398,  -159.272, 
2003-01-26, 10:22,  55.358,  -159.198, 
2003-01-26, 16:52,  55.437,  -158.917, 
2003-01-27, 15:13,  55.772,  -158.436, 
2003-01-27, 16:38,  55.86,  -158.502, 
2003-01-29, 05:21,  55.925,  -157.697, 
2003-01-29, 05:39,  55.98,  -157.672, 
2003-01-29, 05:45,  55.92,  -157.644, 
2003-01-29, 06:13,  55.945,  -157.626, 
2003-01-29, 07:01,  55.934,  -157.619, 
2003-01-30, 00:49,  55.85,  -157.037, 
2003-01-30, 01:55,  55.85,  -156.995, 
2003-01-30, 02:07,  55.816,  -156.963, 
2003-01-30, 03:38,  55.783,  -156.885, 
2003-01-30, 03:48,  55.782,  -156.901, 
2003-01-31, 06:31,  55.099,  -155.954, 
2003-01-31, 06:36,  54.778,  -156.127, 
2003-01-31, 07:09,  55.364,  -156.175, 
2003-02-01, 05:03,  54.908,  -156.076, 
2003-02-01, 06:09,  54.868,  -156.074, 
2003-02-01, 06:20,  54.866,  -156, 
2003-02-01, 06:46,  54.853,  -156.01, 
2003-02-01, 08:24,  54.811,  -155.931, 
2003-02-02, 00:11,  54.345,  -155.559, 
2003-02-02, 01:36,  54.269,  -155.638, 
2003-02-02, 02:26,  54.329,  -155.447, 
2003-02-02, 03:10,  54.378,  -155.326, 
2003-02-02, 04:02,  54.252,  -155.441, 
2003-02-02, 04:48,  54.496,  -154.72, 
2003-02-03, 04:36,  53.843,  -154.434, 
2003-02-03, 05:51,  53.859,  -154.39, 
2003-02-03, 07:36,  53.809,  -154.368, 
2003-02-03, 07:41,  53.797,  -154.381, 
2003-02-03, 09:24,  53.743,  -154.353, 
2003-02-03, 10:35,  53.752,  -154.171, 
2003-02-04, 04:25,  53.467,  -153.601, 
2003-02-04, 05:01,  53.492,  -153.473, 
2003-02-04, 05:40,  53.435,  -153.602, 
2003-02-06, 08:28,  53.06,  -151.377, 
2003-02-06, 15:21,  53.033,  -151.148, 
2003-02-07, 14:59,  52.882,  -150.136, 
2003-02-07, 15:58,  52.89,  -150.066, 
2003-02-08, 11:21,  52.794,  -149.196, 
2003-02-08, 12:53,  52.757,  -149.129, 
2003-02-08, 14:40,  52.73,  -149.022, 
2003-02-08, 15:30,  52.72,  -148.999, 
2003-02-09, 11:12,  52.569,  -148.146, 
2003-02-09, 14:12,  52.516,  -148.118, 
2003-02-10, 10:55,  52.308,  -147.293, 
2003-02-10, 12:38,  52.302,  -147.211, 
2003-02-10, 13:47,  52.243,  -147.111, 
2003-02-10, 15:22,  52.237,  -147.094, 
2003-02-11, 12:31,  51.981,  -146.282, 
2003-02-11, 15:05,  51.919,  -146.426, 
2003-02-11, 15:10,  51.93,  -146.31, 
2003-02-12, 12:58,  51.568,  -145.392, 
2003-02-12, 14:38,  51.553,  -145.364, 
2003-02-12, 14:56,  51.54,  -145.359, 
2003-02-12, 15:39,  51.529,  -145.308, 
2003-02-12, 18:05,  51.49,  -145.172, 
2003-02-13, 05:36,  51.343,  -144.722, 
2003-02-13, 14:15,  51.814,  -145.191, 
2003-02-13, 15:18,  51.376,  -143.648, 
2003-02-14, 04:20,  50.65,  -142.991, 
2003-02-14, 05:14,  50.61,  -143.835, 
2003-02-14, 10:16,  51.127,  -143.411, 
2003-02-15, 03:57,  50.431,  -143.452, 
2003-02-15, 04:47,  50.396,  -143.332, 
2003-02-15, 04:50,  50.572,  -143.274, 
2003-02-15, 05:37,  50.393,  -143.298, 
2003-02-16, 09:52,  49.859,  -142.535, 
2003-02-16, 17:32,  49.533,  -142.054, 
2003-02-16, 18:18,  49.639,  -142.138, 
2003-02-19, 04:35,  48.545,  -141.083, 
2003-02-19, 05:00,  48.56,  -141.105, 
2003-02-19, 05:32,  48.512,  -141.143, 
2003-02-20, 04:20,  47.885,  -140.475, 
2003-02-20, 04:38,  47.914,  -140.488, 
2003-02-20, 06:16,  47.838,  -140.378, 
2003-02-20, 06:56,  47.809,  -140.395, 
2003-02-21, 07:37,  47.064,  -140.104, 
2003-02-22, 04:33,  46.504,  -139.882, 
2003-02-22, 05:33,  46.486,  -139.846, 
2003-02-22, 06:28,  46.518,  -139.835, 
2003-02-22, 07:10,  46.41,  -140.089, 
2003-02-22, 08:06,  46.372,  -140.009, 
2003-02-23, 07:52,  45.948,  -139.48, 
2003-02-23, 10:13,  45.932,  -139.448, 
2003-02-26, 04:38,  44.033,  -138.876, 
2003-02-26, 04:44,  43.991,  -138.81, 
2003-02-26, 05:40,  43.967,  -138.81, 
2003-02-26, 07:14,  44.016,  -138.517, 
2003-02-26, 07:20,  43.918,  -138.818, 
2003-02-26, 08:53,  43.852,  -138.787, 
2003-02-27, 02:36,  43.397,  -138.534, 
2003-02-27, 05:21,  43.344,  -138.437, 
2003-02-28, 00:59,  42.872,  -138.025, 
2003-02-28, 02:10,  42.818,  -138.007, 
2003-02-28, 03:51,  42.789,  -137.985, 
2003-02-28, 04:20,  42.784,  -137.988, 
2003-03-01, 00:11,  42.336,  -137.768, 
2003-03-01, 00:33,  42.617,  -137.144, 
2003-03-01, 01:47,  42.315,  -137.739, 
2003-03-01, 02:14,  42.043,  -137.675, 
2003-03-01, 02:26,  42.274,  -137.752, 
2003-03-01, 03:28,  42.28,  -137.643, 
2003-03-02, 03:54,  41.557,  -137.567, 
2003-03-02, 04:43,  41.661,  -137.478, 
2003-03-02, 04:47,  41.685,  -137.393, 
2003-03-02, 05:50,  41.648,  -137.464, 
2003-03-02, 07:30,  41.597,  -137.436, 
2003-03-03, 02:41,  41.122,  -137.136, 
2003-03-03, 04:19,  41.072,  -137.12, 
2003-03-03, 05:28,  41.051,  -137.11, 
2003-03-03, 06:04,  41.046,  -137.121, 
2003-03-03, 07:05,  41.01,  -137.127, 
2003-03-04, 01:02,  40.31,  -137.228, 
2003-03-04, 01:46,  40.556,  -137.007, 
2003-03-04, 02:14,  40.525,  -137.015, 
2003-03-04, 03:28,  40.622,  -136.936, 
2003-03-04, 03:56,  40.501,  -136.979, 
2003-03-04, 05:05,  40.519,  -136.954, 
2003-03-04, 05:48,  40.469,  -136.956, 
2003-03-05, 00:35,  39.947,  -136.821, 
2003-03-05, 03:33,  39.886,  -136.808, 
2003-03-05, 04:44,  39.843,  -136.781, 
2003-03-06, 00:12,  39.713,  -136.154, 
2003-03-06, 01:23,  39.669,  -136.107, 
2003-03-06, 01:29,  39.709,  -136.101, 
2003-03-06, 01:51,  39.797,  -135.842, 
2003-03-06, 03:03,  39.617,  -136.075, 
2003-03-06, 03:09,  39.66,  -136.084, 
2003-03-06, 04:43,  39.627,  -135.988, 
2003-03-06, 04:50,  39.619,  -136.035, 
2003-03-07, 02:46,  39.561,  -135.496, 
2003-03-07, 02:52,  39.894,  -135.31, 
2003-03-07, 04:25,  39.548,  -135.44, 
2003-03-07, 04:31,  39.544,  -135.405, 
2003-03-07, 05:40,  39.55,  -135.405, 
2003-03-08, 00:58,  39.491,  -134.911, 
2003-03-08, 01:03,  39.489,  -134.912, 
2003-03-08, 02:20,  39.483,  -134.961, 
2003-03-08, 02:38,  39.485,  -134.918, 
2003-03-08, 02:43,  39.476,  -134.897, 
2003-03-08, 04:05,  39.489,  -134.901, 
2003-03-08, 04:19,  39.481,  -134.903, 
2003-03-09, 00:41,  39.392,  -134.202, 
2003-03-09, 01:59,  39.366,  -134.217, 
2003-03-09, 03:19,  39.363,  -134.22, 
2003-03-09, 03:25,  39.784,  -133.817, 
2003-03-09, 04:38,  39.336,  -134.222, 
2003-03-09, 05:06,  39.342,  -134.211, 
2003-03-09, 05:53,  39.309,  -134.207, 
2003-03-10, 01:16,  39.23,  -133.618, 
2003-03-10, 02:34,  39.223,  -133.61, 
2003-03-10, 04:16,  39.19,  -133.734, 
2003-03-10, 04:53,  39.231,  -133.52, 
2003-03-10, 05:58,  39.227,  -133.456, 
2003-03-10, 07:07,  39.247,  -133.406, 
2003-03-10, 07:09,  39.25,  -133.403, 
2003-03-11, 02:14,  39.348,  -132.916, 
2003-03-11, 02:33,  39.198,  -133.253, 
2003-03-11, 03:03,  39.315,  -132.878, 
2003-03-11, 03:52,  39.314,  -132.874, 
2003-03-11, 04:40,  39.317,  -132.865, 
2003-03-11, 05:31,  39.336,  -132.853, 
2003-03-12, 02:07,  39.266,  -133.212, 
2003-03-12, 02:49,  39.413,  -132.479, 
2003-03-12, 11:29,  39.318,  -132.093, 
2003-03-12, 13:06,  39.306,  -132.014, 
2003-03-13, 13:55,  39.044,  -131.11, 
2003-03-13, 15:33,  38.941,  -130.919, 
2003-03-13, 16:38,  38.983,  -131.076, 
2003-03-14, 07:21,  38.621,  -130.525, 
2003-03-15, 16:14,  37.908,  -129.84, 
2003-03-15, 16:15,  37.908,  -129.836, 
2003-03-15, 17:55,  37.918,  -129.83, 
2003-03-16, 03:35,  37.739,  -129.663, 
2003-03-16, 03:37,  37.741,  -129.653, 
2003-03-16, 03:50,  37.578,  -129.764, 
2003-03-16, 06:36,  37.665,  -129.615, 
2003-03-16, 08:13,  37.623,  -129.61, 
2003-03-17, 01:46,  37.369,  -129.464, 
2003-03-17, 03:11,  37.344,  -129.463, 
2003-03-17, 03:23,  37.354,  -130.104, 
2003-03-17, 03:24,  37.345,  -129.459, 
2003-03-17, 04:51,  37.346,  -129.47, 
2003-03-17, 05:04,  37.338,  -129.486, 
2003-03-17, 05:05,  37.331,  -129.464, 
2003-03-18, 01:20,  37.28,  -129.401, 
2003-03-18, 02:47,  37.257,  -129.394, 
2003-03-18, 02:59,  37.287,  -129.396, 
2003-03-18, 04:28,  37.278,  -129.375, 
2003-03-18, 04:54,  37.327,  -129.315, 
2003-03-19, 02:24,  37.046,  -129.236, 
2003-03-19, 02:37,  37.058,  -129.24, 
2003-03-19, 02:59,  36.288,  -129.017, 
2003-03-19, 04:00,  37.035,  -129.234, 
2003-03-19, 04:41,  37.045,  -129.207, 
2003-03-19, 05:27,  37.058,  -129.187, 
2003-03-19, 05:42,  37.021,  -129.209, 
2003-03-20, 02:47,  36.673,  -129.21, 
2003-03-20, 05:18,  36.584,  -129.303, 
2003-03-20, 11:40,  36.347,  -129.313, 
2003-03-21, 02:35,  36.035,  -129.425, 
2003-03-21, 03:17,  36.017,  -129.432, 
2003-03-21, 04:57,  36.013,  -129.439, 
2003-03-22, 01:24,  35.751,  -129.277, 
2003-03-22, 02:21,  35.909,  -129.432, 
2003-03-22, 02:56,  35.925,  -129.419, 
2003-03-22, 03:02,  35.556,  -129.694, 
2003-03-22, 04:01,  35.919,  -129.427, 
2003-03-22, 04:32,  35.92,  -129.423, 
2003-03-22, 05:41,  35.891,  -129.49, 
2003-03-23, 01:01,  35.696,  -129.385, 
2003-03-23, 02:12,  35.691,  -129.309, 
2003-03-23, 02:29,  35.679,  -129.369, 
2003-03-23, 02:39,  35.674,  -129.365, 
2003-03-23, 04:11,  35.662,  -129.358, 
2003-03-24, 02:18,  35.524,  -129.655, 
2003-03-24, 05:24,  35.418,  -129.152, 
2003-03-24, 12:35,  35.243,  -129.117, 
2003-03-24, 14:30,  35.173,  -129.097, 
2003-03-24, 15:58,  35.129,  -129.06, 
2003-03-24, 23:58,  34.916,  -128.994, 
2003-03-25, 00:08,  34.847,  -128.978, 
2003-03-25, 23:46,  34.215,  -129.027, 
2003-03-26, 12:12,  33.937,  -129.131, 
2003-03-27, 02:36,  33.748,  -129.3, 
2003-03-27, 02:37,  33.746,  -129.272, 
2003-03-27, 03:00,  33.738,  -129.28, 
2003-03-27, 04:15,  33.729,  -129.282, 
2003-03-27, 04:40,  33.452,  -129.539, 
2003-03-27, 05:46,  33.71,  -129.299, 
2003-03-27, 05:54,  33.885,  -129.538, 
2003-03-28, 01:07,  33.604,  -129.395, 
2003-03-28, 02:14,  33.617,  -129.393, 
2003-03-28, 02:18,  33.611,  -129.367, 
2003-03-28, 02:46,  33.587,  -128.658, 
2003-03-28, 03:52,  33.61,  -129.433, 
2003-03-28, 07:54,  33.03,  -131.439, 
2003-03-29, 06:39,  33.087,  -129.197, 
2003-03-29, 16:39,  32.941,  -128.915, 
2003-03-29, 17:28,  32.933,  -128.884, 
2003-03-29, 18:21,  32.896,  -128.872, 
2003-03-30, 01:28,  32.854,  -128.598, 
2003-03-30, 02:20,  32.94,  -128.748, 
2003-03-30, 03:05,  32.926,  -128.74, 
2003-03-30, 03:07,  32.585,  -128.757, 
2003-03-30, 04:00,  32.925,  -128.705, 
2003-03-30, 04:44,  32.921,  -128.729, 
2003-03-30, 05:41,  32.943,  -128.711, 
2003-04-01, 00:21,  31.849,  -128.444, 
2003-04-01, 00:40,  31.849,  -128.446, 
2003-04-01, 02:20,  31.834,  -128.433, 
2003-04-01, 03:33,  31.837,  -128.423, 
2003-04-01, 03:57,  31.837,  -128.414, 
2003-04-02, 01:56,  31.531,  -128.327, 
2003-04-02, 03:19,  31.532,  -128.482, 
2003-04-02, 05:01,  31.531,  -128.423, 
2003-04-02, 05:09,  31.599,  -128.218, 
2003-04-02, 12:37,  31.263,  -128.402, 
2003-04-03, 01:31,  31.082,  -128.54, 
2003-04-03, 03:09,  31.085,  -128.535, 
2003-04-03, 03:10,  31.078,  -128.547, 
2003-04-03, 03:11,  31.078,  -128.548, 
2003-04-03, 04:51,  31.073,  -128.586, 
2003-04-03, 04:53,  31.042,  -128.604, 
2003-04-04, 04:24,  30.698,  -128.771, 
2003-04-04, 07:46,  30.61,  -128.789, 
2003-04-04, 07:59,  30.666,  -129.659, 
2003-04-04, 12:15,  30.484,  -128.817, 
2003-04-04, 15:05,  30.465,  -128.864, 
2003-04-05, 04:03,  30.386,  -129.019, 
2003-04-05, 04:26,  30.383,  -129.019, 
2003-04-05, 07:20,  30.316,  -129.067, 
2003-04-06, 01:57,  30.098,  -129.422, 
2003-04-06, 02:30,  30.191,  -129.183, 
2003-04-06, 03:41,  30.134,  -129.264, 
2003-04-06, 03:12,  30.121,  -129.268, 
2003-04-07, 00:34,  29.874,  -129.709, 
2003-04-07, 01:18,  29.967,  -129.5, 
2003-04-07, 04:01,  30.012,  -129.794, 
2003-04-07, 05:38,  29.939,  -129.538, 
2003-04-08, 00:08,  29.736,  -129.718, 
2003-04-08, 01:48,  29.741,  -129.725, 
2003-04-08, 01:51,  29.737,  -129.651, 
2003-04-08, 02:47,  29.733,  -129.72, 
2003-04-08, 18:31,  29.345,  -130.081, 
2003-04-10, 01:01,  28.747,  -130.653, 
2003-04-10, 02:22,  28.758,  -130.651, 
2003-04-10, 02:37,  29.221,  -130.217, 
2003-04-10, 02:45,  28.765,  -130.652, 
2003-04-10, 04:02,  28.584,  -130.451, 
2003-04-10, 04:26,  28.768,  -130.651, 
2003-04-11, 00:36,  28.843,  -130.086, 
2003-04-11, 02:08,  27.708,  -130.721, 
2003-04-11, 02:14,  28.625,  -130.91, 
2003-04-11, 02:23,  28.622,  -130.908, 
2003-04-11, 03:50,  28.619,  -130.934, 
2003-04-11, 04:03,  28.618,  -130.937, 
2003-04-12, 11:27,  27.902,  -130.508, 
2003-04-12, 12:29,  27.941,  -130.607, 
2003-04-13, 12:53,  27.387,  -130.192, 
2003-04-14, 07:57,  26.934,  -129.791, 
2003-04-14, 07:59,  26.996,  -129.902, 
2003-04-14, 11:05,  26.942,  -129.903, 
2003-04-14, 13:25,  26.894,  -129.903, 
2003-04-15, 00:04,  26.737,  -129.867, 
2003-04-15, 00:39,  26.67,  -129.848, 
2003-04-15, 02:26,  26.669,  -129.84, 
2003-04-15, 02:56,  26.673,  -129.842, 
2003-04-15, 02:58,  26.674,  -129.841, 
2003-04-15, 04:08,  26.68,  -129.834, 
2003-04-21, 05:06,  26.395,  -130.922, 
2003-04-21, 05:08,  26.385,  -130.85, 
2003-04-21, 06:22,  26.493,  -130.826, 
2003-04-21, 08:05,  26.119,  -130.7, 
2003-04-23, 04:20,  27.502,  -130.529, 
2003-04-23, 05:58,  27.443,  -130.48, 
2003-04-23, 06:16,  27.476,  -130.524, 
2003-04-23, 07:57,  27.482,  -130.517, 
2003-04-28, 06:02,  28.787,  -130.848, 
2003-04-28, 06:28,  28.781,  -130.859, 
2003-04-28, 08:12,  28.787,  -130.798, 
2003-04-29, 05:41,  28.628,  -130.306, 
2003-04-29, 07:22,  28.628,  -130.293, 
2003-04-29, 07:53,  28.274,  -132.052, 
2003-05-01, 04:41,  28.002,  -129.283, 
2003-05-01, 04:55,  28.025,  -129.277, 
2003-05-01, 06:39,  27.972,  -129.189, 
2003-05-03, 06:59,  28.634,  -128.559, 
2003-05-03, 10:52,  28.659,  -128.539, 
2003-05-04, 10:44,  29.057,  -129.287, 
2003-05-05, 04:38,  29.263,  -129.465, 
2003-05-06, 06:19,  29.52,  -130.057, 
2003-05-06, 06:23,  29.508,  -130.042, 
2003-05-06, 10:17,  29.525,  -130.088, 
2003-05-06, 12:46,  29.517,  -130.105, 
2003-05-07, 10:02,  29.559,  -130.678, 
2003-05-13, 08:03,  30.142,  -134.149, 
2003-05-19, 11:09,  32.525,  -135.005, 
2003-05-20, 06:27,  33.019,  -134.805, 
2003-05-21, 05:45,  33.539,  -134.691, 
2003-05-21, 06:15,  33.544,  -134.696, 
2003-05-21, 07:02,  33.611,  -134.614, 
2003-05-21, 07:25,  33.592,  -134.68, 
2003-05-21, 10:47,  33.631,  -134.602, 
2003-05-21, 13:20,  33.668,  -134.521, 
2003-05-23, 08:22,  34.714,  -133.84, 
2003-05-23, 09:07,  34.578,  -133.798, 
2003-05-23, 10:27,  34.683,  -133.761, 
2003-05-23, 12:32,  34.736,  -133.801, 
2003-05-24, 05:35,  34.941,  -133.384, 
2003-05-24, 05:50,  34.987,  -133.339, 
2003-05-24, 07:14,  35.129,  -133.621, 
2003-05-24, 07:31,  34.954,  -133.265, 
2003-05-24, 07:57,  34.949,  -133.26, 
2003-05-24, 10:15,  35.008,  -133.293, 
2003-05-25, 01:08,  35.165,  -132.897, 
2003-05-25, 01:51,  35.149,  -133.007, 
2003-05-25, 03:30,  35.152,  -133.045, 
2003-05-25, 04:37,  35.319,  -132.789, 
2003-05-26, 00:44,  35.426,  -132.941, 
2003-05-26, 02:22,  35.447,  -132.765, 
2003-05-27, 01:56,  35.585,  -132.411, 
2003-05-27, 02:34,  35.606,  -132.423, 
2003-05-27, 02:45,  35.587,  -132.456, 
2003-05-27, 04:15,  34.586,  -132.68, 
2003-05-27, 04:23,  35.595,  -132.422, 
2003-05-27, 06:14,  35.631,  -132.412, 
2003-05-28, 01:36,  35.992,  -132.107, 
2003-05-28, 02:23,  36.011,  -132.085, 
2003-05-28, 05:47,  36.096,  -132.034, 
2003-05-28, 12:48,  36.234,  -131.949, 
2003-05-29, 02:11,  36.39,  -131.911, 
2003-05-29, 02:48,  36.398,  -131.917, 
2003-05-29, 12:40,  36.573,  -131.795, 
2003-05-30, 00:04,  36.266,  -131.564, 
2003-05-30, 01:34,  36.795,  -131.759, 
2003-05-30, 02:00,  36.796,  -131.652, 
2003-05-30, 03:16,  36.807,  -131.674, 
2003-05-30, 03:35,  36.787,  -131.779, 
2003-05-30, 03:36,  36.786,  -131.767, 
2003-05-30, 12:58,  37.027,  -131.654, 
2003-05-31, 01:59,  37.048,  -131.564, 
2003-05-31, 02:52,  37.041,  -131.567, 
2003-05-31, 03:25,  37.044,  -131.54, 
2003-05-31, 03:25,  37.057,  -131.533, 
2003-05-31, 04:27,  37.042,  -131.624, 
2003-06-01, 04:52,  37.554,  -131.462, 
2003-06-01, 05:02,  37.286,  -131.292, 
2003-06-01, 21:50,  37.651,  -131.133, 
2003-06-02, 01:12,  37.635,  -131.166, 
2003-06-02, 02:03,  37.71,  -131.144, 
2003-06-02, 02:51,  37.643,  -131.119, 
2003-06-03, 00:49,  38.106,  -131.116, 
2003-06-03, 02:28,  37.971,  -131.267, 
2003-06-03, 03:24,  38.005,  -131.274, 
2003-06-03, 04:26,  37.975,  -131.188, 
2003-06-04, 02:03,  38.41,  -131.348, 
2003-06-04, 02:34,  37.523,  -131.132, 
2003-06-04, 02:58,  38.41,  -131.346, 
2003-06-04, 04:16,  38.411,  -131.362, 
2003-06-04, 16:42,  38.699,  -131.899, 
2003-06-05, 02:22,  38.916,  -131.712, 
2003-06-05, 02:37,  38.845,  -131.446, 
2003-06-05, 02:38,  38.846,  -131.438, 
2003-06-05, 04:02,  38.835,  -131.469, 
2003-06-05, 04:12,  38.83,  -131.47, 
2003-06-05, 04:13,  38.837,  -131.481, 
2003-06-05, 05:09,  38.816,  -131.499, 
2003-06-05, 06:08,  38.851,  -131.454, 
2003-06-06, 02:08,  39.202,  -131.546, 
2003-06-06, 02:10,  39.201,  -131.515, 
2003-06-06, 03:46,  39.3,  -131.41, 
2003-06-06, 03:46,  38.943,  -132.047, 
2003-06-06, 07:35,  39.23,  -131.171, 
2003-06-07, 00:56,  38.792,  -132.013, 
2003-06-07, 01:48,  39.487,  -131.515, 
2003-06-07, 01:57,  39.441,  -131.494, 
2003-06-07, 03:28,  39.476,  -131.536, 
2003-06-07, 03:34,  39.484,  -131.493, 
2003-06-07, 03:36,  39.483,  -131.514, 
2003-06-08, 00:06,  39.725,  -131.574, 
2003-06-08, 00:26,  39.682,  -131.509, 
2003-06-08, 01:47,  39.707,  -131.468, 
2003-06-08, 02:06,  39.678,  -131.524, 
2003-06-08, 03:02,  39.709,  -131.563, 
2003-06-08, 03:24,  39.698,  -131.504, 
2003-06-09, 02:41,  40.127,  -131.798, 
2003-06-09, 04:20,  40.104,  -131.829, 
2003-06-10, 02:22,  40.89,  -131.509, 
2003-06-10, 03:00,  40.597,  -132.01, 
2003-06-10, 03:57,  40.571,  -131.984, 
2003-06-10, 06:37,  40.616,  -132.003, 
2003-06-10, 07:06,  40.619,  -131.996, 
2003-06-11, 02:48,  40.948,  -132.165, 
2003-06-11, 03:34,  40.95,  -132.161, 
2003-06-11, 04:27,  40.939,  -132.151, 
2003-06-12, 00:29,  40.988,  -132.202, 
2003-06-12, 01:31,  40.996,  -132.17, 
2003-06-12, 02:06,  39.429,  -133.662, 
2003-06-12, 02:36,  41.039,  -132.187, 
2003-06-12, 05:54,  41.109,  -132.154, 
2003-06-12, 06:17,  41.091,  -132.168, 
2003-06-13, 01:44,  41.422,  -132.108, 
2003-06-13, 02:22,  41.314,  -132.097, 
2003-06-13, 02:50,  41.44,  -132.015, 
2003-06-13, 04:04,  41.393,  -132.137, 
2003-06-13, 04:25,  41.411,  -131.97, 
2003-06-14, 01:22,  41.836,  -132.039, 
2003-06-14, 02:09,  41.873,  -132.053, 
2003-06-14, 02:23,  41.857,  -132.034, 
2003-06-14, 03:48,  41.823,  -132.031, 
2003-06-14, 04:01,  41.824,  -132.085, 
2003-06-14, 05:11,  41.853,  -131.864, 
2003-06-15, 03:41,  42.354,  -132.104, 
2003-06-15, 03:41,  42.286,  -131.281, 
2003-06-15, 05:33,  42.437,  -132.162, 
2003-06-15, 17:34,  42.69,  -132.118, 
2003-06-15, 17:40,  42.726,  -132.133, 
2003-06-15, 18:39,  42.681,  -132.073, 
2003-06-16, 03:16,  42.929,  -132.235, 
2003-06-16, 03:23,  42.935,  -132.216, 
2003-06-16, 15:32,  43.175,  -132.448, 
2003-06-16, 20:58,  43.315,  -132.625, 
2003-06-17, 02:55,  43.467,  -132.682, 
2003-06-17, 19:39,  43.947,  -133.606, 
2003-06-17, 19:47,  43.885,  -133.137, 
2003-06-18, 01:27,  43.949,  -133.057