Shortfin Mako Shark
1503003 18955
2003-06-28, 16:54,  32.764,  -117.926,
2003-06-29, 02:19,  32.874,  -117.8,
2003-06-29, 03:08,  32.876,  -117.831,
2003-06-29, 04:30,  32.901,  -117.809,
2003-07-01, 09:50,  32.928,  -117.659,
2003-07-02, 01:58,  32.825,  -117.663,
2003-07-02, 03:23,  32.837,  -117.672,
2003-07-03, 01:35,  32.948,  -117.618,
2003-07-04, 01:10,  33.024,  -117.594,
2003-07-04, 02:50,  33.024,  -117.577,
2003-07-04, 02:55,  33.023,  -117.576,
2003-07-04, 13:29,  32.96,  -117.435,
2003-07-05, 01:04,  32.789,  -117.515,
2003-07-05, 04:23,  32.827,  -117.605,
2003-07-10, 13:03,  32.621,  -117.261,
2003-07-10, 14:09,  32.597,  -117.324,
2003-07-11, 09:39,  32.576,  -117.317,
2003-07-13, 14:59,  32.504,  -117.436,
2003-07-14, 00:35,  32.423,  -117.243,
2003-07-14, 02:13,  32.461,  -117.316,
2003-07-14, 04:10,  32.447,  -117.33,
2003-07-14, 06:10,  32.419,  -117.378,
2003-07-15, 01:48,  32.3,  -117.493,
2003-07-15, 06:49,  32.242,  -117.33,5
2003-07-15, 16:24,  32.05,  -117.309,
2003-07-16, 01:29,  31.988,  -117.374,
2003-07-16, 01:38,  31.984,  -117.362,
2003-07-16, 03:08,  31.994,  -117.388,
2003-07-16, 05:01,  31.976,  -117.458,
2003-07-16, 13:45,  31.946,  -117.675,
2003-07-16, 17:03,  31.98,  -117.565,
2003-07-16, 17:44,  31.977,  -117.566,
2003-07-16, 18:44,  31.99,  -117.556,
2003-07-16, 19:05,  31.989,  -117.539,
2003-07-17, 15:07,  32.155,  -117.584,
2003-07-18, 00:41,  32.243,  -117.527,
2003-07-18, 00:52,  32.242,  -117.528,
2003-07-18, 02:22,  32.247,  -117.536,
2003-07-18, 04:03,  32.198,  -117.58,
2003-07-18, 06:07,  32.219,  -117.557,
2003-07-18, 14:07,  32.212,  -117.733,
2003-07-18, 16:20,  32.234,  -117.768,
2003-07-18, 17:59,  32.234,  -117.778,
2003-07-19, 00:27,  32.251,  -117.782,
2003-07-19, 01:25,  32.248,  -117.787,
2003-07-19, 05:11,  32.206,  -117.868,
2003-07-19, 05:50,  32.205,  -117.917,
2003-07-19, 06:51,  32.221,  -117.945,
2003-07-19, 13:52,  32.224,  -118.142,
2003-07-19, 14:18,  32.226,  -118.155,
2003-07-19, 14:24,  32.221,  -118.155,
2003-07-19, 15:34,  32.222,  -118.183,
2003-07-19, 15:58,  32.223,  -118.184,
2003-07-19, 18:09,  32.263,  -118.177,
2003-07-19, 18:24,  32.265,  -118.198,
2003-07-20, 01:14,  32.333,  -118.33,
2003-07-20, 02:54,  32.329,  -118.347,
2003-07-20, 03:12,  32.328,  -118.351,
2003-07-20, 05:46,  32.303,  -118.425,
2003-07-20, 06:32,  32.299,  -118.457,
2003-07-20, 07:05,  32.3,  -118.465,
2003-07-21, 01:01,  32.146,  -118.743,
2003-07-21, 04:29,  32.078,  -118.768,
2003-07-21, 04:58,  32.069,  -118.782,
2003-07-21, 05:30,  32.064,  -118.788,
2003-07-21, 06:08,  32.056,  -118.805,
2003-07-21, 06:40,  32.047,  -118.811,
2003-07-21, 07:11,  32.037,  -118.814,
2003-07-22, 00:49,  31.959,  -118.769,
2003-07-22, 04:33,  31.912,  -118.72,
2003-07-22, 05:18,  31.909,  -118.707,
2003-07-22, 06:14,  31.936,  -118.673,
2003-07-22, 06:57,  31.897,  -118.681,
2003-07-22, 07:27,  31.896,  -118.67,
2003-07-23, 02:04,  31.774,  -118.684,
2003-07-23, 02:16,  31.77,  -118.686,
2003-07-23, 07:08,  31.686,  -118.767,
2003-07-23, 08:22,  31.675,  -118.777,
2003-07-23, 09:03,  31.667,  -118.791,
2003-07-23, 10:42,  31.65,  -118.797,
2003-07-25, 01:51,  31.339,  -118.706,
2003-07-26, 00:54,  31.382,  -118.405,
2003-07-26, 00:57,  31.385,  -118.406,
2003-07-26, 15:46,  31.142,  -118.293,
2003-07-26, 18:17,  31.144,  -118.29,
2003-07-27, 07:13,  31.025,  -118.141,
2003-07-27, 07:25,  31.022,  -118.135,
2003-07-27, 16:13,  30.81,  -117.99,
2003-07-28, 05:10,  30.772,  -117.773,
2003-07-28, 05:24,  30.769,  -117.766,
2003-07-28, 05:33,  30.769,  -117.758,
2003-07-28, 06:51,  30.743,  -117.721,
2003-07-28, 07:04,  30.734,  -117.719,
2003-07-28, 07:13,  30.732,  -117.71,
2003-07-28, 19:40,  30.428,  -117.556,
2003-07-29, 05:21,  30.181,  -117.548,
2003-07-29, 06:28,  30.184,  -117.558,
2003-07-29, 06:38,  30.181,  -117.566,
2003-07-29, 06:58,  30.17,  -117.579,
2003-07-29, 09:36,  30.101,  -117.592,
2003-07-29, 17:10,  30.061,  -117.529,
2003-07-29, 17:18,  30.052,  -117.527,
2003-07-30, 09:25,  29.99,  -117.408,
2003-08-02, 21:57,  29.386,  -115.87,
2003-08-03, 14:05,  29.07,  -115.686,
2003-08-03, 15:07,  29.042,  -115.656,
2003-08-04, 10:10,  28.705,  -115.327,
2003-08-04, 11:50,  28.625,  -115.359,
2003-08-05, 05:32,  28.456,  -115.352,
2003-08-05, 06:58,  28.422,  -115.368,
2003-08-05, 09:54,  28.341,  -115.344,
2003-08-05, 11:39,  28.352,  -115.408,
2003-08-05, 22:59,  28.3,  -115.313,
2003-08-06, 11:31,  28.165,  -115.431,
2003-08-07, 15:12,  27.79,  -115.374,
2003-08-08, 11:06,  27.238,  -115.311,
2003-08-09, 20:33,  26.625,  -114.498,
2003-08-09, 22:14,  26.615,  -114.518,
2003-08-09, 23:48,  26.61,  -114.51,
2003-08-11, 18:07,  26.433,  -114.949,
2003-08-11, 18:35,  26.429,  -114.954,
2003-08-11, 18:57,  26.423,  -114.945,
2003-08-12, 04:34,  26.445,  -114.98,
2003-08-12, 07:04,  26.42,  -114.91,
2003-08-12, 08:40,  26.407,  -114.86,
2003-08-12, 20:01,  26.384,  -114.724,
2003-08-12, 21:43,  26.338,  -114.725,
2003-08-12, 22:34,  26.344,  -114.726,
2003-08-13, 01:09,  26.334,  -114.686,
2003-08-13, 05:26,  26.337,  -114.605,
2003-08-13, 06:53,  26.341,  -114.59,
2003-08-13, 14:30,  26.415,  -114.351,
2003-08-13, 15:20,  26.414,  -114.366,
2003-08-13, 16:10,  26.405,  -114.378,
2003-08-13, 23:52,  26.53,  -114.295,
2003-08-14, 01:43,  26.562,  -114.244,
2003-08-14, 02:35,  26.567,  -114.226,
2003-08-14, 11:38,  26.685,  -114.068,
2003-08-14, 12:09,  26.677,  -114.071,
2003-08-14, 13:51,  26.678,  -114.057,
2003-08-14, 23:29,  26.773,  -114.028,
2003-08-15, 01:23,  26.766,  -114.045,
2003-08-15, 22:45,  26.751,  -114.095,
2003-08-16, 02:13,  26.765,  -114.084,
2003-08-16, 13:21,  26.679,  -114.048,
2003-08-17, 12:56,  26.674,  -114.105,
2003-08-17, 14:29,  26.684,  -114.096,
2003-08-17, 16:42,  26.699,  -114.081,
2003-08-18, 13:54,  26.697,  -114.151,
2003-08-19, 06:54,  26.589,  -114.09,
2003-08-19, 10:45,  26.699,  -114.093,
2003-08-19, 22:01,  26.714,  -113.84,
2003-08-20, 03:04,  26.674,  -113.822,
2003-08-20, 11:28,  26.544,  -113.669,
2003-08-21, 00:38,  26.464,  -113.476,
2003-08-21, 01:10,  26.462,  -113.507,
2003-08-21, 02:19,  26.437,  -113.506,
2003-08-21, 11:00,  26.387,  -113.383,
2003-08-21, 22:16,  26.074,  -112.922,
2003-08-22, 00:57,  26.206,  -113.125,
2003-08-22, 12:16,  26.108,  -113.07,
2003-08-22, 14:22,  26.074,  -113.062,
2003-08-22, 15:58,  26.085,  -113.069,
2003-08-22, 21:30,  26.103,  -112.949,
2003-08-23, 00:42,  26.022,  -112.869,
2003-08-23, 13:57,  25.846,  -112.957,
2003-08-23, 16:34,  25.817,  -113.017,
2003-08-24, 01:08,  25.769,  -112.953,
2003-08-24, 13:36,  25.686,  -112.989,
2003-08-25, 14:50,  25.647,  -113.067,
2003-08-25, 22:38,  25.803,  -112.908,
2003-08-27, 20:32,  25.627,  -113.063,
2003-08-27, 20:33,  25.626,  -113.064,
2003-08-28, 00:51,  25.681,  -113.098,
2003-08-28, 05:46,  25.732,  -113.153,
2003-08-28, 13:09,  25.763,  -113.126,
2003-08-28, 13:42,  25.733,  -113.15,
2003-08-28, 18:11,  25.744,  -113.114,
2003-08-29, 04:42,  25.719,  -113.186,
2003-08-29, 10:31,  25.74,  -113.177,
2003-08-29, 15:19,  25.789,  -113.216,
2003-09-01, 05:22,  26.208,  -113.673,
2003-09-01, 08:16,  26.233,  -113.663,
2003-09-01, 17:45,  26.258,  -113.639,
2003-09-02, 06:40,  26.267,  -113.527,
2003-09-03, 06:13,  26.326,  -113.747,
2003-09-03, 23:40,  26.547,  -113.878,
2003-09-04, 09:28,  26.578,  -113.807,
2003-09-05, 03:03,  26.601,  -113.676,
2003-09-05, 03:07,  26.601,  -113.67,
2003-09-06, 02:46,  26.606,  -113.802,
2003-09-06, 17:27,  26.746,  -114.196,
2003-09-06, 20:17,  26.761,  -114.224,
2003-09-06, 22:01,  26.796,  -114.328,
2003-09-09, 23:08,  26.976,  -114.666,
2003-09-10, 13:34,  27.208,  -114.694,
2003-09-11, 09:47,  27.466,  -115.122,
2003-09-11, 11:28,  27.458,  -115.118,
2003-09-11, 15:54,  27.532,  -115.241,
2003-09-12, 22:32,  27.884,  -115.785,
2003-09-12, 23:21,  27.89,  -115.792,
2003-09-13, 13:48,  28.394,  -116.042,
2003-09-13, 15:30,  28.233,  -116.005,
2003-09-13, 15:42,  28.237,  -116.005,
2003-09-13, 16:31,  28.266,  -115.95,
2003-09-13, 19:53,  28.336,  -116.033,
2003-09-13, 22:21,  28.393,  -116.022,
2003-09-14, 00:37,  28.429,  -116.045,
2003-09-14, 01:08,  28.437,  -116.045,
2003-09-14, 01:16,  28.433,  -116.041,
2003-09-14, 17:45,  28.826,  -116.33,
2003-09-14, 17:48,  28.827,  -116.332,
2003-09-14, 18:37,  28.841,  -116.36,
2003-09-14, 22:11,  28.921,  -116.447,
2003-09-14, 22:30,  28.918,  -116.454,
2003-09-15, 14:10,  29.28,  -116.693,
2003-09-15, 14:55,  29.301,  -116.705,
2003-09-15, 15:01,  29.303,  -116.701,
2003-09-15, 16:32,  29.329,  -116.741,
2003-09-15, 18:21,  29.403,  -116.744,
2003-09-15, 20:05,  29.437,  -116.779,
2003-09-15, 20:18,  29.437,  -116.755,
2003-09-16, 17:04,  30.052,  -116.818,
2003-09-16, 19:46,  30.145,  -116.816,
2003-09-18, 05:37,  31.176,  -117.252,
2003-09-18, 17:46,  31.405,  -117.438,
2003-09-18, 17:58,  31.408,  -117.451,
2003-09-18, 21:27,  31.471,  -117.51,
2003-09-19, 19:14,  31.927,  -117.745,
2003-09-19, 22:56,  32.008,  -117.729,
2003-09-20, 14:37,  32.4,  -117.733,
2003-09-20, 16:13,  32.443,  -117.788,
2003-09-20, 18:53,  32.506,  -117.805,
2003-09-20, 20:59,  32.551,  -117.887,
2003-09-21, 01:53,  32.601,  -117.886,
2003-09-21, 03:00,  32.622,  -117.948,
2003-09-21, 04:28,  32.647,  -117.969,
2003-09-21, 15:52,  32.854,  -118.189,
2003-09-21, 20:19,  32.939,  -118.254,
2003-09-21, 22:36,  32.982,  -118.22,
2003-09-21, 23:01,  32.96,  -118.257,
2003-09-22, 01:29,  32.968,  -118.275,
2003-09-22, 02:46,  32.983,  -118.275,
2003-09-22, 04:09,  32.99,  -118.363,
2003-09-22, 15:16,  33.061,  -118.574,
2003-09-23, 06:42,  32.917,  -118.468,
2003-09-23, 20:25,  32.717,  -118.478,
2003-09-23, 22:10,  32.739,  -118.507,
2003-09-24, 05:29,  32.774,  -118.699,
2003-09-24, 06:36,  32.839,  -118.644,
2003-09-24, 16:21,  32.94,  -118.994,
2003-09-24, 16:30,  32.936,  -118.997,
2003-09-24, 17:24,  32.949,  -118.954,
2003-09-24, 23:28,  33.018,  -119.15,
2003-09-25, 05:52,  33.071,  -119.332,
2003-09-25, 06:20,  33.078,  -119.324,
2003-09-25, 06:22,  33.078,  -119.325,
2003-09-25, 06:59,  33.083,  -119.342,
2003-09-25, 07:33,  33.082,  -119.376,
2003-09-25, 08:46,  33.027,  -119.382,
2003-09-25, 11:46,  32.991,  -119.372,
2003-09-25, 12:06,  32.973,  -119.365,
2003-09-26, 03:15,  32.863,  -119.375,
2003-09-26, 03:38,  32.85,  -119.374,
2003-09-26, 04:18,  32.837,  -119.366,
2003-09-26, 05:04,  32.81,  -119.365,
2003-09-26, 05:27,  32.81,  -119.371,
2003-09-26, 06:44,  32.809,  -119.371,
2003-09-26, 07:06,  32.812,  -119.373,
2003-09-26, 10:14,  32.853,  -119.373,
2003-09-26, 11:56,  32.831,  -119.39,
2003-09-27, 03:26,  32.876,  -119.36,
2003-09-27, 04:51,  32.883,  -119.346,
2003-09-27, 05:01,  32.889,  -119.345,
2003-09-27, 05:31,  32.875,  -119.355,
2003-09-27, 08:13,  32.847,  -119.423,
2003-09-27, 10:04,  32.833,  -119.444,
2003-09-28, 02:27,  32.823,  -119.365,
2003-09-28, 03:12,  32.814,  -119.36,
2003-09-28, 05:10,  32.796,  -119.305,
2003-09-28, 06:56,  32.817,  -119.285,
2003-09-28, 07:57,  32.81,  -119.257,
2003-09-28, 09:52,  32.818,  -119.285,
2003-09-29, 03:00,  32.9,  -119.38,
2003-09-29, 07:45,  32.824,  -119.359,
2003-09-29, 18:50,  32.871,  -119.394,
2003-10-01, 02:35,  32.869,  -119.413,
2003-10-01, 19:04,  32.852,  -119.513,
2003-10-01, 22:25,  32.865,  -119.416,
2003-10-02, 02:21,  32.882,  -119.422,
2003-10-02, 02:34,  32.884,  -119.402,
2003-10-02, 07:00,  32.922,  -119.46,
2003-10-02, 09:06,  32.931,  -119.463,
2003-10-02, 10:48,  32.897,  -119.478,
2003-10-02, 13:13,  32.875,  -119.478,
2003-10-02, 13:53,  32.883,  -119.475,
2003-10-02, 14:48,  32.879,  -119.44,
2003-10-02, 14:54,  32.879,  -119.436,
2003-10-03, 08:56,  32.938,  -119.449,
2003-10-03, 11:51,  32.894,  -119.398,
2003-10-03, 12:15,  32.884,  -119.391,
2003-10-04, 00:49,  32.929,  -119.411,
2003-10-04, 01:46,  32.923,  -119.382,
2003-10-05, 18:58,  32.919,  -119.324,
2003-10-06, 01:37,  32.9,  -119.334,
2003-10-06, 12:18,  32.869,  -119.438,
2003-10-07, 02:15,  32.88,  -119.447,
2003-10-07, 05:48,  32.937,  -119.327,
2003-10-07, 09:47,  32.927,  -119.35,
2003-10-07, 15:32,  32.67,  -119.252,
2003-10-08, 19:47,  32.874,  -119.431,
2003-10-08, 21:02,  32.853,  -119.42,
2003-10-09, 04:14,  32.894,  -119.441,
2003-10-09, 06:03,  32.936,  -119.455,
2003-10-09, 22:32,  32.926,  -119.475,
2003-10-10, 02:46,  32.933,  -119.483,
2003-10-10, 14:51,  32.93,  -119.585,
2003-10-10, 16:30,  32.921,  -119.469,
2003-10-11, 00:41,  32.857,  -119.5,
2003-10-13, 15:36,  32.915,  -119.428,
2003-10-14, 05:50,  32.913,  -119.478,
2003-10-14, 16:49,  32.951,  -119.31,
2003-10-14, 18:06,  32.935,  -119.407,
2003-10-14, 21:36,  32.918,  -119.406,
2003-10-14, 23:44,  32.877,  -119.432,
2003-10-15, 15:23,  32.914,  -119.431,
2003-10-18, 01:16,  32.943,  -119.313,
2003-10-18, 01:46,  32.954,  -119.298,
2003-10-18, 20:15,  32.871,  -119.412,
2003-10-19, 02:34,  32.893,  -119.465,
2003-10-19, 03:50,  32.86,  -119.464,
2003-10-19, 16:20,  32.927,  -119.353,
2003-10-21, 12:12,  32.877,  -119.494,
2003-10-22, 03:04,  32.962,  -119.547,
2003-10-22, 03:11,  32.958,  -119.545,
2003-10-22, 12:33,  33.102,  -119.707,
2003-10-22, 16:49,  32.935,  -119.481,
2003-10-23, 02:58,  32.929,  -119.454,
2003-10-23, 16:35,  32.939,  -119.406,
2003-10-24, 23:07,  33.045,  -119.65,
2003-10-25, 22:52,  32.923,  -119.387,
2003-10-26, 22:02,  33.056,  -119.424,
2003-10-27, 16:06,  32.957,  -119.371,
2003-10-27, 19:16,  32.992,  -119.394,
2003-10-27, 20:56,  32.957,  -119.374,
2003-10-28, 00:22,  32.926,  -119.369,
2003-10-28, 16:00,  32.942,  -119.439,
2003-10-28, 17:21,  32.959,  -119.39,
2003-10-28, 18:51,  32.944,  -119.388,
2003-10-28, 20:32,  32.943,  -119.392,
2003-10-28, 23:17,  32.933,  -119.381,
2003-10-29, 19:10,  32.936,  -119.357,
2003-10-29, 20:14,  32.908,  -119.345,
2003-10-29, 21:27,  32.9,  -119.348,
2003-10-29, 23:34,  32.874,  -119.373,
2003-10-30, 01:14,  32.899,  -119.39,
2003-10-30, 19:48,  32.925,  -119.417,
2003-10-30, 20:39,  32.946,  -119.45,
2003-10-30, 22:57,  32.933,  -119.411,
2003-10-31, 00:49,  32.925,  -119.414,
2003-11-01, 01:48,  32.9,  -119.383,
2003-11-02, 14:38,  32.915,  -119.405,
2003-11-02, 14:58,  32.915,  -119.392,
2003-11-02, 16:03,  32.948,  -119.393,
2003-11-02, 17:39,  32.943,  -119.394,
2003-11-02, 20:36,  32.928,  -119.383,
2003-11-02, 22:37,  32.908,  -119.358,
2003-11-03, 11:29,  32.912,  -119.39,
2003-11-03, 14:47,  32.916,  -119.432,
2003-11-03, 15:38,  32.908,  -119.43,
2003-11-03, 17:18,  32.912,  -119.398,
2003-11-03, 21:14,  32.909,  -119.465,
2003-11-04, 12:08,  32.918,  -119.407,
2003-11-04, 14:33,  32.92,  -119.396,
2003-11-06, 14:41,  32.889,  -119.391,
2003-11-06, 15:49,  32.926,  -119.381,
2003-11-06, 16:09,  32.928,  -119.381,
2003-11-06, 17:28,  32.963,  -119.366,
2003-11-10, 16:42,  32.926,  -119.325,
2003-11-10, 18:42,  32.944,  -119.382,
2003-11-12, 16:13,  32.93,  -119.375,
2003-11-12, 18:56,  32.9,  -119.356,
2003-11-14, 15:47,  32.908,  -119.373,
2003-11-14, 17:49,  32.92,  -119.332,
2003-11-15, 15:54,  32.871,  -119.356,
2003-11-15, 19:26,  32.86,  -119.365,
2003-11-15, 23:59,  32.813,  -119.362,
2003-11-16, 06:37,  32.779,  -119.249,
2003-11-16, 06:43,  32.778,  -119.244,
2003-11-16, 09:01,  32.735,  -119.247,
2003-11-16, 10:42,  32.707,  -119.228,
2003-11-16, 12:17,  32.687,  -119.232,
2003-11-17, 02:41,  32.657,  -119.112,
2003-11-17, 02:51,  32.655,  -119.127
,2003-11-17, 04:23,  32.624,  -119.116
,2003-11-17, 04:40,  32.619,  -119.1
,2003-11-17, 06:20,  32.591,  -119.084
,2003-11-19, 16:07,  32.658,  -119.222
,2003-11-19, 16:23,  32.666,  -119.238
,2003-11-19, 23:11,  32.744,  -119.248
,2003-11-20, 15:36,  32.702,  -119.174
,2003-11-20, 17:33,  32.761,  -119.24
,2003-11-20, 21:20,  32.721,  -119.242
,2003-11-21, 03:01,  32.703,  -119.29
,2003-11-21, 03:33,  32.691,  -119.261
,2003-11-21, 09:43,  32.717,  -119.204
,2003-11-21, 15:12,  32.668,  -119.199
,2003-11-21, 23:12,  32.708,  -119.228
,2003-11-22, 02:33,  32.729,  -119.238
,2003-11-22, 03:19,  32.724,  -119.258
,2003-11-22, 04:13,  32.731,  -119.286
,2003-11-22, 04:27,  32.719,  -119.284
,2003-11-22, 05:14,  32.734,  -119.289
,2003-11-22, 06:07,  32.753,  -119.277
,2003-11-22, 06:54,  32.748,  -119.255
,2003-11-23, 02:10,  32.726,  -119.14
,2003-11-23, 03:50,  32.734,  -119.09
,2003-11-23, 04:04,  32.737,  -119.087
,2003-11-23, 05:45,  32.712,  -119.059
,2003-11-23, 11:03,  32.664,  -119.007
,2003-11-25, 04:23,  32.96,  -118.716
,2003-11-25, 05:02,  32.953,  -118.728
,2003-11-25, 09:00,  32.953,  -118.739
,2003-11-25, 10:45,  32.967,  -118.768
,2003-11-25, 12:19,  32.966,  -118.659
,2003-11-25, 15:23,  32.948,  -118.672
,2003-11-26, 02:28,  32.844,  -118.66
,2003-11-26, 05:55,  32.795,  -118.681
,2003-11-28, 02:08,  33.069,  -118.853
,2003-11-29, 13:50,  33.091,  -118.988
,2003-12-01, 15:31,  33.354,  -119.037
,2003-12-01, 16:21,  33.343,  -119.032
,2003-12-01, 18:23,  33.314,  -119.106
,2003-12-01, 22:38,  33.232,  -119.224
,2003-12-02, 05:41,  33.124,  -119.346
,2003-12-02, 06:12,  33.127,  -119.361
,2003-12-02, 22:27,  32.878,  -119.476
,2003-12-02, 23:43,  32.862,  -119.374
,2003-12-03, 01:34,  32.83,  -119.32
,2003-12-03, 03:16,  32.792,  -119.303
,2003-12-03, 04:19,  32.752,  -119.278
,2003-12-03, 05:17,  32.737,  -119.28
,2003-12-03, 06:02,  32.716,  -119.28
,2003-12-03, 07:42,  32.673,  -119.267
,2003-12-03, 09:10,  32.63,  -119.27
,2003-12-03, 10:50,  32.581,  -119.257
,2003-12-04, 04:55,  32.373,  -119.222
,2003-12-04, 14:52,  32.252,  -119.076
,2003-12-04, 15:17,  32.257,  -119.055
,2003-12-04, 16:34,  32.251,  -119.058
,2003-12-04, 17:17,  32.263,  -119.048
,2003-12-04, 18:13,  32.24,  -119.04
,2003-12-04, 18:56,  32.239,  -119.025
,2003-12-05, 02:14,  32.234,  -118.965
,2003-12-05, 19:42,  32.467,  -119.239
,2003-12-07, 12:00,  32.633,  -119.48
,2003-12-07, 14:01,  32.647,  -119.454
,2003-12-08, 13:14,  32.634,  -119.42
,2003-12-08, 21:21,  32.874,  -119.312
,2003-12-09, 03:10,  32.897,  -119.147
,2003-12-09, 12:52,  32.983,  -119.55
,2003-12-09, 21:06,  32.985,  -119.453
,2003-12-11, 15:09,  32.889,  -119.496
,2003-12-11, 16:46,  32.886,  -119.468
,2003-12-12, 02:27,  32.905,  -119.44
,2003-12-12, 03:03,  32.916,  -119.425
,2003-12-12, 07:17,  32.811,  -119.492
,2003-12-12, 10:49,  32.734,  -119.51
,2003-12-12, 18:01,  32.832,  -119.427
,2003-12-12, 20:32,  32.831,  -119.388
,2003-12-13, 02:39,  32.778,  -119.257
,2003-12-13, 03:54,  32.746,  -119.243
,2003-12-13, 04:52,  32.742,  -119.237
,2003-12-13, 05:24,  32.748,  -119.233
,2003-12-13, 16:25,  32.553,  -119.232
,2003-12-15, 07:24,  32.125,  -119.239
,2003-12-15, 10:14,  32.154,  -119.293
,2003-12-16, 03:07,  32.429,  -119.21
,2003-12-16, 03:16,  32.432,  -119.21
,2003-12-16, 05:23,  32.447,  -119.248
,2003-12-16, 07:03,  32.464,  -119.263
,2003-12-16, 08:03,  32.477,  -119.282
,2003-12-16, 18:49,  32.723,  -119.323
,2003-12-16, 21:30,  32.769,  -119.285
,2003-12-17, 16:43,  32.843,  -119.406
,2003-12-17, 22:35,  32.827,  -119.446
,2003-12-18, 02:18,  32.766,  -119.513
,2003-12-18, 06:11,  32.682,  -119.603
,2003-12-18, 18:40,  32.883,  -119.885
,2003-12-22, 20:16,  32.789,  -119.408
,2003-12-24, 03:15,  32.738,  -119.412
,2003-12-24, 03:19,  32.741,  -119.415
,2003-12-24, 14:00,  32.867,  -119.488
,2003-12-24, 19:39,  32.913,  -119.442
,2003-12-25, 20:04,  32.739,  -119.473
,2003-12-25, 21:24,  32.751,  -119.479
,2003-12-26, 04:30,  32.74,  -119.481
,2003-12-26, 04:56,  32.725,  -119.455
,2003-12-26, 05:43,  32.712,  -119.467
,2003-12-26, 06:32,  32.682,  -119.492
,2003-12-26, 07:25,  32.679,  -119.498
,2003-12-26, 11:31,  32.713,  -119.608
,2003-12-26, 14:17,  32.754,  -119.673
,2003-12-26, 16:32,  32.831,  -119.655
,2003-12-27, 02:09,  32.821,  -119.471
,2003-12-27, 03:48,  32.773,  -119.511
,2003-12-27, 04:18,  32.793,  -119.544
,2003-12-27, 05:29,  32.722,  -119.516
,2003-12-27, 06:18,  32.706,  -119.578
,2003-12-27, 11:21,  32.613,  -119.598
,2003-12-28, 05:16,  32.636,  -119.49
,2003-12-30, 04:47,  32.587,  -119.2
,2003-12-30, 09:06,  32.578,  -119.243
,2003-12-30, 10:44,  32.558,  -119.242
,2003-12-30, 12:26,  32.545,  -119.259
,2003-12-30, 12:38,  32.555,  -119.248
,2003-12-30, 13:19,  32.554,  -119.266
,2003-12-30, 22:08,  32.669,  -119.306
2004-01-01, 14:10,  32.667,  -119.569
2004-01-02, 15:24,  32.607,  -119.52
2004-01-02, 17:10,  32.673,  -119.553
2004-01-03, 11:41,  32.698,  -119.662
2004-01-03, 13:23,  32.675,  -119.603
2004-01-03, 15:19,  32.642,  -119.555
2004-01-04, 00:00,  32.666,  -119.581
2004-01-04, 13:58,  32.641,  -119.638
2004-01-05, 15:52,  32.669,  -119.554
2004-01-09, 15:46,  32.539,  -119.264
2004-01-10, 08:40,  32.693,  -119.651
2004-01-10, 10:22,  32.675,  -119.597
2004-01-10, 11:31,  32.662,  -119.541
2004-01-11, 04:30,  32.869,  -119.386
2004-01-11, 05:20,  32.878,  -119.407
2004-01-11, 07:12,  32.888,  -119.426
2004-01-11, 10:09,  32.826,  -119.473
2004-01-11, 13:34,  32.836,  -119.369
2004-01-11, 17:54,  32.863,  -119.403
2004-01-13, 18:50,  32.864,  -119.369
2004-01-13, 22:50,  32.842,  -119.436
2004-01-14, 02:11,  32.826,  -119.366
2004-01-14, 03:23,  32.809,  -119.38
2004-01-14, 06:07,  32.764,  -119.409
2004-01-14, 09:32,  32.708,  -119.362
2004-01-15, 05:44,  32.932,  -119.504
2004-01-15, 07:24,  32.917,  -119.476
2004-01-15, 07:46,  32.909,  -119.465
2004-01-15, 12:45,  32.86,  -119.49
2004-01-15, 13:40,  32.849,  -119.466
2004-01-16, 00:06,  32.832,  -119.455
2004-01-16, 03:23,  32.832,  -119.511
2004-01-16, 23:39,  32.893,  -119.35
2004-01-17, 03:54,  32.812,  -119.385
2004-01-17, 04:58,  32.806,  -119.373
2004-01-17, 05:37,  32.783,  -119.376
2004-01-17, 06:37,  32.771,  -119.401
2004-01-17, 09:03,  32.748,  -119.467
2004-01-17, 10:42,  32.7,  -119.435
2004-01-18, 17:08,  32.677,  -119.595
2004-01-18, 18:38,  32.669,  -119.611
2004-01-18, 21:50,  32.666,  -119.618
2004-01-19, 18:12,  32.673,  -119.627
2004-01-19, 19:52,  32.671,  -119.591
2004-01-19, 21:41,  32.673,  -119.618
2004-01-19, 22:26,  32.673,  -119.587
2004-01-19, 23:23,  32.648,  -119.598
2004-01-20, 00:09,  32.652,  -119.604
2004-01-20, 01:03,  32.652,  -119.606
2004-01-20, 02:34,  32.629,  -119.584
2004-01-20, 02:42,  32.625,  -119.587
2004-01-20, 04:17,  32.609,  -119.58
2004-01-21, 00:40,  32.665,  -119.602
2004-01-21, 05:06,  32.603,  -119.656
2004-01-21, 06:47,  32.557,  -119.666
2004-01-22, 04:43,  32.646,  -119.646
2004-01-22, 06:09,  32.635,  -119.661
2004-01-22, 06:24,  32.634,  -119.659
2004-01-22, 07:48,  32.629,  -119.692
2004-01-22, 11:31,  32.637,  -119.719
2004-01-22, 13:16,  32.655,  -119.661
2004-01-22, 14:13,  32.651,  -119.629
2004-01-22, 15:55,  32.699,  -119.617
2004-01-22, 16:18,  32.701,  -119.61
2004-01-22, 18:30,  32.729,  -119.536
2004-01-23, 00:36,  32.652,  -119.646
2004-01-23, 03:12,  32.675,  -119.643
2004-01-23, 03:36,  32.683,  -119.649
2004-01-23, 07:41,  32.668,  -119.671
2004-01-23, 11:17,  32.732,  -119.617
2004-01-23, 12:51,  32.709,  -119.611
2004-01-24, 02:48,  32.661,  -119.445
2004-01-24, 12:27,  32.614,  -119.639
2004-01-24, 13:28,  32.582,  -119.66
2004-01-24, 14:06,  32.584,  -119.634
2004-01-25, 10:52,  32.661,  -119.52
2004-01-25, 13:41,  32.624,  -119.598
2004-01-25, 16:22,  32.616,  -119.589
2004-01-25, 17:35,  32.634,  -119.584
2004-01-26, 02:59,  32.65,  -119.614
2004-01-26, 03:41,  32.663,  -119.589
2004-01-26, 06:34,  32.659,  -119.601
2004-01-26, 09:04,  32.691,  -119.613
2004-01-27, 02:47,  32.661,  -119.561
2004-01-27, 03:17,  32.64,  -119.577
2004-01-27, 18:35,  32.671,  -119.585
2004-01-28, 05:51,  32.654,  -119.672
2004-01-28, 08:04,  32.708,  -119.575
2004-01-28, 10:19,  32.662,  -119.577
2004-01-28, 11:59,  32.673,  -119.58
2004-01-28, 12:29,  32.682,  -119.561
2004-01-28, 13:34,  32.703,  -119.543
2004-01-28, 16:42,  32.702,  -119.568
2004-01-29, 00:51,  32.668,  -119.614
2004-01-29, 04:01,  32.688,  -119.616
2004-01-29, 05:26,  32.691,  -119.601
2004-01-29, 06:08,  32.679,  -119.598
2004-01-29, 07:05,  32.661,  -119.609
2004-01-29, 07:51,  32.653,  -119.589
2004-01-30, 03:47,  32.802,  -119.635
2004-01-30, 05:59,  32.759,  -119.68
2004-01-30, 06:47,  32.714,  -119.647
2004-01-30, 07:36,  32.709,  -119.665
2004-01-30, 09:55,  32.673,  -119.598
2004-01-30, 13:17,  32.656,  -119.545
2004-02-01, 00:15,  32.002,  -119.617
2004-02-01, 01:43,  31.989,  -119.553
2004-02-01, 02:59,  31.998,  -119.531
2004-02-01, 03:24,  32.005,  -119.517
2004-02-01, 04:18,  32.014,  -119.508
2004-02-01, 09:32,  32.008,  -119.4
2004-02-02, 00:59,  31.854,  -119.214
2004-02-02, 02:36,  31.815,  -119.291
2004-02-02, 03:10,  31.813,  -119.285
2004-02-02, 05:15,  31.811,  -119.269
2004-02-02, 05:35,  31.798,  -119.291
2004-02-02, 06:58,  31.797,  -119.275
2004-02-02, 07:15,  31.793,  -119.281
2004-02-02, 09:22,  31.786,  -119.243
2004-02-03, 01:03,  31.792,  -119.329
2004-02-03, 01:17,  31.797,  -119.321
2004-02-03, 02:58,  31.789,  -119.352
2004-02-03, 06:42,  31.782,  -119.366
2004-02-03, 13:21,  31.741,  -119.372
2004-02-03, 16:13,  31.691,  -119.42
2004-02-03, 17:03,  31.694,  -119.42
2004-02-04, 02:43,  31.583,  -119.368
2004-02-04, 03:26,  31.557,  -119.38
2004-02-04, 04:48,  31.512,  -119.358
2004-02-04, 06:29,  31.488,  -119.327
2004-02-04, 10:40,  31.436,  -119.239
2004-02-04, 15:51,  31.428,  -119.185
2004-02-04, 16:52,  31.42,  -119.189
2004-02-05, 00:15,  31.306,  -119.205
2004-02-05, 01:25,  31.305,  -119.195
2004-02-05, 02:32,  31.303,  -119.195
2004-02-05, 03:04,  31.294,  -119.194
2004-02-05, 04:14,  31.287,  -119.2
2004-02-05, 04:27,  31.286,  -119.185
2004-02-05, 06:07,  31.269,  -119.188
2004-02-05, 07:46,  31.258,  -119.206
2004-02-06, 01:02,  31.067,  -119.248
2004-02-06, 01:30,  31.069,  -119.246
2004-02-06, 02:20,  31.066,  -119.253
2004-02-06, 02:41,  31.067,  -119.251
2004-02-06, 11:57,  31.058,  -119.317
2004-02-06, 12:11,  31.06,  -119.315
2004-02-07, 00:38,  31.106,  -119.36
2004-02-07, 01:03,  31.113,  -119.347
2004-02-07, 03:58,  31.142,  -119.359
2004-02-07, 05:21,  31.106,  -119.364
2004-02-07, 05:45,  31.105,  -119.364
2004-02-07, 07:00,  31.11,  -119.37
2004-02-07, 07:02,  31.109,  -119.371
2004-02-07, 07:24,  31.112,  -119.368
2004-02-08, 00:42,  31.009,  -119.34
2004-02-08, 01:54,  31,  -119.302
2004-02-08, 03:34,  30.955,  -119.312
2004-02-08, 04:58,  30.903,  -119.306
2004-02-08, 05:31,  30.891,  -119.304
2004-02-08, 06:39,  30.896,  -119.287
2004-02-08, 07:11,  30.887,  -119.285
2004-02-09, 01:29,  30.996,  -119.307
2004-02-09, 01:42,  30.999,  -119.314
2004-02-09, 01:57,  31.002,  -119.296
2004-02-09, 03:13,  30.994,  -119.295
2004-02-09, 03:22,  30.994,  -119.295
2004-02-09, 04:35,  30.986,  -119.307
2004-02-09, 05:18,  30.983,  -119.308
2004-02-09, 06:15,  30.981,  -119.298
2004-02-10, 01:08,  31.061,  -119.266
2004-02-10, 02:49,  31.046,  -119.271
2004-02-10, 04:13,  31.02,  -119.268
2004-02-10, 05:03,  31.068,  -119.271
2004-02-10, 05:52,  31.013,  -119.294
2004-02-10, 06:43,  31.011,  -119.296
2004-02-11, 05:31,  30.884,  -119.553
2004-02-11, 07:11,  30.842,  -119.564
2004-02-11, 16:21,  30.973,  -119.109
2004-02-11, 20:43,  31.079,  -119.361
2004-02-12, 00:45,  31.106,  -119.354
2004-02-12, 02:00,  31.101,  -119.339
2004-02-12, 02:47,  31.112,  -119.334
2004-02-12, 04:24,  31.11,  -119.281
2004-02-12, 05:09,  31.104,  -119.265
2004-02-12, 06:16,  31.102,  -119.248
2004-02-12, 07:57,  31.13,  -119.232
2004-02-12, 10:50,  31.166,  -119.222
2004-02-13, 13:58,  30.882,  -119.157
2004-02-13, 14:19,  30.882,  -119.161
2004-02-13, 14:58,  30.878,  -119.162
2004-02-13, 15:37,  30.871,  -119.159
2004-02-14, 14:46,  30.894,  -119.339
2004-02-14, 16:28,  30.887,  -119.327
2004-02-15, 05:41,  30.576,  -119.324
2004-02-15, 13:10,  30.372,  -119.331
2004-02-15, 13:28,  30.372,  -119.333
2004-02-15, 23:18,  30.233,  -119.311
2004-02-16, 00:26,  30.261,  -119.269
2004-02-16, 00:47,  30.246,  -119.283
2004-02-16, 02:05,  30.25,  -119.298
2004-02-16, 14:20,  30.214,  -119.042
2004-02-16, 14:27,  30.209,  -119.047
2004-02-16, 14:43,  30.213,  -119.038
2004-02-16, 19:18,  30.232,  -119.015
2004-02-16, 23:10,  30.375,  -118.91
2004-02-17, 01:38,  30.371,  -118.967
2004-02-17, 04:55,  30.392,  -118.876
2004-02-17, 05:08,  30.392,  -118.855
2004-02-17, 06:33,  30.376,  -118.853
2004-02-17, 06:46,  30.378,  -118.848
2004-02-17, 09:54,  30.385,  -118.799
2004-02-17, 11:30,  30.387,  -118.788
2004-02-18, 01:17,  30.399,  -118.574
2004-02-18, 01:38,  30.398,  -118.598
2004-02-18, 04:32,  30.418,  -118.515
2004-02-18, 04:53,  30.405,  -118.51
2004-02-18, 06:13,  30.415,  -118.5
2004-02-18, 09:44,  30.473,  -118.456
2004-02-18, 11:23,  30.486,  -118.444
2004-02-18, 15:20,  30.481,  -118.509
2004-02-18, 15:35,  30.483,  -118.51
2004-02-19, 00:54,  30.39,  -118.456
2004-02-19, 01:13,  30.394,  -118.447
2004-02-19, 02:36,  30.369,  -118.46
2004-02-19, 02:55,  30.36,  -118.437
2004-02-19, 04:35,  30.301,  -118.488
2004-02-19, 05:48,  30.273,  -118.479
2004-02-19, 06:17,  30.257,  -118.477
2004-02-20, 00:32,  30.087,  -118.423
2004-02-20, 00:48,  30.091,  -118.419
2004-02-20, 02:10,  30.084,  -118.415
2004-02-20, 02:40,  30.086,  -118.399
2004-02-20, 03:51,  30.053,  -118.404
2004-02-20, 04:22,  30.042,  -118.406
2004-02-20, 06:01,  30.014,  -118.401
2004-02-20, 07:05,  30.002,  -118.413
2004-02-20, 07:45,  29.997,  -118.414
2004-02-21, 00:24,  29.968,  -118.215
2004-02-21, 01:47,  29.955,  -118.256
2004-02-21, 02:29,  29.948,  -118.252
2004-02-21, 14:10,  29.567,  -118.406
2004-02-21, 14:58,  29.545,  -118.414
2004-02-21, 15:49,  29.539,  -118.407
2004-02-21, 16:38,  29.534,  -118.406
2004-02-21, 17:23,  29.539,  -118.414
2004-02-21, 18:19,  29.516,  -118.415
2004-02-21, 19:07,  29.488,  -118.41
2004-02-22, 01:24,  29.4,  -118.427
2004-02-22, 03:56,  29.373,  -118.432
2004-02-22, 04:38,  29.388,  -118.401
2004-02-22, 05:38,  29.399,  -118.371
2004-02-22, 06:20,  29.427,  -118.346
2004-02-22, 07:16,  29.455,  -118.333
2004-02-23, 02:04,  29.894,  -117.959
2004-02-23, 02:40,  29.89,  -117.954
2004-02-23, 03:42,  29.878,  -117.947
2004-02-23, 08:44,  29.84,  -117.884
2004-02-24, 01:52,  29.882,  -117.591
2004-02-24, 02:19,  29.883,  -117.595
2004-02-24, 03:30,  29.855,  -117.588
2004-02-24, 05:10,  29.834,  -117.563
2004-02-24, 05:35,  29.831,  -117.544
2004-02-24, 14:47,  29.88,  -117.46
2004-02-25, 00:26,  29.771,  -117.386
2004-02-25, 01:52,  29.756,  -117.367
2004-02-25, 05:10,  29.684,  -117.368
2004-02-25, 14:15,  29.401,  -117.402
2004-02-25, 14:25,  29.395,  -117.402
2004-02-26, 01:28,  29.063,  -117.548
2004-02-26, 11:32,  28.678,  -117.641
2004-02-26, 18:53,  28.547,  -117.786
2004-02-26, 22:54,  28.267,  -117.842
2004-02-27, 11:24,  27.888,  -118.111
2004-02-27, 11:54,  27.867,  -118.093
2004-02-27, 15:07,  27.761,  -118.201
2004-02-28, 16:23,  27.052,  -118.809
2004-03-03, 00:45,  25.809,  -118.664
2004-03-03, 01:50,  25.842,  -118.63
2004-03-03, 03:27,  25.759,  -118.617
2004-03-03, 14:52,  25.352,  -118.631
2004-03-03, 16:00,  25.305,  -118.588
2004-03-04, 12:47,  24.756,  -118.733
2004-03-06, 22:50,  22.911,  -119.338
2004-03-11, 04:29,  20.408,  -118.667