Southern Elephant Seal
7607001 72761
2007-01-16, 21:27, -62.489, -60.899,
2007-01-16, 22:24, -62.468, -60.763,
2007-01-16, 22:43, -62.458, -60.702,
2007-01-17, 00:24, -62.469, -60.766,
2007-01-17, 01:46, -62.469, -60.773,
2007-01-17, 02:27, -62.476, -60.774,
2007-01-17, 02:58, -62.471, -60.77,
2007-01-17, 03:18, -62.462, -60.763,
2007-01-17, 04:09, -62.47, -60.77,
2007-01-17, 04:39, -62.471, -60.768,
2007-01-17, 04:58, -62.47, -60.771,
2007-01-17, 05:06, -62.468, -60.77,
2007-01-17, 05:14, -62.469, -60.769,
2007-01-17, 05:34, -62.454, -60.804,
2007-01-17, 06:18, -62.469, -60.765,
2007-01-17, 06:38, -62.469, -60.778,
2007-01-17, 06:54, -62.47, -60.768,
2007-01-17, 07:15, -62.47, -60.772,
2007-01-17, 08:52, -62.476, -60.746,
2007-01-17, 14:06, -62.355, -60.614,
2007-01-17, 21:02, -62.5, -60.306,
2007-01-18, 11:12, -62.472, -60.762,
2007-01-18, 18:23, -62.469, -60.77,
2007-01-18, 18:40, -62.466, -60.769,
2007-01-20, 12:05, -62.506, -60.627,
2007-01-20, 19:40, -62.463, -60.721,
2007-01-21, 23:06, -62.446, -60.68,
2007-01-21, 23:48, -62.461, -60.78,
2007-01-22, 00:04, -62.468, -60.766,
2007-01-22, 01:29, -62.469, -60.773,
2007-01-22, 02:07, -62.47, -60.768,
2007-01-22, 03:11, -62.47, -60.774,
2007-01-22, 03:48, -62.47, -60.77,
2007-01-22, 04:50, -62.47, -60.771,
2007-01-22, 05:28, -62.47, -60.769,
2007-01-22, 05:40, -62.471, -60.771,
2007-01-22, 06:25, -62.474, -60.768,
2007-01-22, 06:35, -62.47, -60.769,
2007-01-22, 07:19, -62.47, -60.768,
2007-01-22, 08:15, -62.472, -60.763,
2007-01-22, 09:01, -62.445, -60.717,
2007-01-22, 09:39, -62.461, -60.765,
2007-01-22, 09:52, -62.473, -60.759,
2007-01-22, 11:22, -62.469, -60.776,
2007-01-23, 02:09, -62.452, -60.755,
2007-01-23, 02:46, -62.471, -60.77,
2007-01-23, 03:35, -62.469, -60.772,
2007-01-23, 03:48, -62.468, -60.766,
2007-01-23, 04:49, -62.47, -60.767,
2007-01-23, 05:19, -62.47, -60.771,
2007-01-23, 05:28, -62.471, -60.77,
2007-01-23, 07:07, -62.47, -60.769,
2007-01-23, 08:50, -62.468, -60.771,
2007-01-23, 10:57, -62.475, -60.748,
2007-01-23, 12:36, -62.474, -60.729,
2007-01-23, 14:18, -62.473, -60.751,
2007-01-23, 19:22, -62.462, -60.779,
2007-01-24, 09:07, -62.469, -60.773,
2007-01-24, 09:24, -62.47, -60.777,
2007-01-24, 23:06, -62.45, -60.634,
2007-01-26, 05:04, -62.474, -60.689,
2007-01-26, 05:32, -62.449, -60.637,
2007-01-26, 06:30, -62.415, -60.781,
2007-01-26, 06:42, -62.423, -60.779,
2007-01-26, 07:16, -62.456, -60.861,
2007-01-26, 08:18, -62.416, -60.907,
2007-01-26, 12:09, -62.54, -61.112,
2007-01-26, 23:44, -62.932, -61.725,
2007-01-26, 23:59, -62.944, -61.737,
2007-01-28, 13:24, -62.831, -61.383,
2007-01-29, 04:19, -62.83, -61.384,
2007-01-29, 04:21, -62.831, -61.381,
2007-01-29, 10:22, -62.833, -61.38,
2007-01-29, 10:33, -62.83, -61.363,
2007-01-30, 00:47, -62.839, -61.365,
2007-01-30, 05:08, -62.827, -61.377,
2007-01-30, 10:07, -62.83, -61.379,
2007-01-30, 20:30, -62.836, -61.385,
2007-01-30, 20:41, -62.834, -61.388,
2007-01-31, 01:23, -62.832, -61.386,
2007-01-31, 06:19, -62.831, -61.385,
2007-01-31, 14:36, -62.727, -61.973,
2007-02-01, 09:23, -62.544, -63.191,
2007-02-02, 00:40, -62.834, -61.392,
2007-02-02, 08:38, -62.836, -61.382,
2007-02-06, 02:24, -62.829, -61.481,
2007-02-06, 07:21, -62.825, -61.486,
2007-02-06, 12:16, -62.84, -61.443,
2007-02-07, 13:34, -62.83, -61.494,
2007-02-08, 14:22, -62.837, -61.487,
2007-02-08, 21:29, -63.378, -61.926,
2007-02-09, 11:07, -62.936, -61.606,
2007-02-11, 22:24, -62.84, -61.47,
2007-02-11, 22:36, -62.838, -61.464,
2007-02-12, 03:35, -62.84, -61.445,
2007-02-12, 23:39, -62.834, -61.473,
2007-02-13, 21:36, -63.201, -61.893,
2007-02-13, 23:17, -63.165, -61.93,
2007-02-14, 00:56, -63.159, -62.123,
2007-02-14, 04:18, -63.232, -62.418,
2007-02-14, 17:03, -63.402, -62.774,
2007-02-14, 19:29, -63.441, -62.943,
2007-02-14, 20:04, -63.426, -62.997,
2007-02-15, 04:30, -63.622, -63.414,
2007-02-15, 05:27, -63.605, -63.413,
2007-02-15, 07:47, -63.65, -63.592,
2007-02-15, 13:49, -63.71, -63.537,
2007-02-15, 14:27, -63.668, -63.522,
2007-02-15, 16:52, -63.73, -63.643,
2007-02-16, 17:56, -64.332, -64.522,
2007-02-16, 20:08, -64.209, -64.749,
2007-02-17, 14:08, -64.532, -65.37,
2007-02-17, 15:54, -64.611, -65.623,
2007-02-18, 00:36, -64.691, -65.702,
2007-02-18, 00:53, -64.695, -65.676,
2007-02-18, 05:57, -64.821, -66.076,
2007-02-18, 07:08, -64.861, -66.12,
2007-02-18, 09:08, -64.884, -66.23,
2007-02-18, 11:01, -64.979, -66.366,
2007-02-19, 08:47, -65.408, -67.851,
2007-02-19, 10:28, -65.48, -67.907,
2007-02-19, 20:41, -65.736, -68.567,
2007-02-20, 00:20, -65.826, -68.494,
2007-02-20, 08:27, -65.908, -69.388,
2007-02-20, 10:03, -65.919, -69.538,
2007-02-21, 03:17, -66.424, -69.462,
2007-02-21, 03:45, -66.456, -69.462,
2007-02-21, 07:09, -66.472, -69.69,
2007-02-21, 08:19, -66.474, -69.749,
2007-02-21, 09:43, -66.447, -69.634,
2007-02-22, 01:22, -66.593, -69.684,
2007-02-22, 03:01, -66.644, -69.744,
2007-02-22, 03:32, -66.661, -69.807,
2007-02-22, 09:52, -66.845, -70.101,
2007-02-22, 11:18, -66.796, -70.028,
2007-02-22, 15:37, -66.9, -70.086,
2007-02-22, 17:26, -66.896, -70.112,
2007-02-22, 18:25, -66.952, -70.185,
2007-02-23, 00:06, -67.055, -70.596,
2007-02-23, 10:32, -66.999, -70.938,
2007-02-23, 22:36, -67.324, -70.875,
2007-02-24, 01:56, -67.322, -70.986,
2007-02-24, 03:11, -67.368, -70.977,
2007-02-24, 05:27, -67.349, -71.105,
2007-02-24, 07:39, -67.328, -71.158,
2007-02-24, 08:31, -67.332, -71.165,
2007-02-24, 20:22, -67.385, -71.574,
2007-02-24, 21:29, -67.376, -71.56,
2007-02-24, 22:16, -67.376, -71.716,
2007-02-25, 02:20, -67.39, -71.868,
2007-02-25, 11:27, -67.409, -72.281,
2007-02-25, 21:20, -67.618, -73.221,
2007-02-25, 22:59, -67.638, -73.166,
2007-02-26, 02:19, -67.688, -73.334,
2007-02-26, 02:47, -67.711, -73.371,
2007-02-26, 03:02, -67.693, -73.372,
2007-02-26, 03:58, -67.726, -73.413,
2007-02-26, 07:56, -67.769, -73.634,
2007-02-27, 00:57, -67.938, -74.545,
2007-02-27, 08:49, -68, -74.634,
2007-02-27, 11:57, -68.004, -75.069,
2007-02-27, 20:55, -68.272, -75.473,
2007-02-27, 22:38, -68.325, -75.677,
2007-03-01, 15:10, -68.922, -76.653,
2007-03-01, 16:07, -68.898, -76.563,
2007-03-01, 20:11, -68.839, -76.45,
2007-03-04, 14:16, -70.138, -79.785,
2007-03-04, 17:15, -70.234, -79.57,
2007-03-04, 19:00, -70.222, -79.907,
2007-03-04, 21:37, -70.263, -80.065,
2007-03-05, 14:03, -70.51, -80.194,
2007-03-05, 17:07, -70.573, -80.39,
2007-03-05, 20:14, -70.64, -80.882,
2007-03-06, 04:12, -70.688, -81.104,
2007-03-06, 15:31, -71.007, -81.494,
2007-03-06, 20:27, -71.047, -81.402,
2007-03-07, 21:07, -71.733, -82.689,
2007-03-07, 21:50, -71.758, -82.643,
2007-03-08, 10:31, -71.964, -83.516,
2007-03-09, 03:05, -72.14, -83.685,
2007-03-09, 03:25, -72.139, -83.68,
2007-03-09, 03:31, -72.136, -83.676,
2007-03-09, 03:44, -72.136, -83.709,
2007-03-09, 08:50, -72.111, -83.646,
2007-03-09, 23:09, -72.284, -84.757,
2007-03-10, 00:49, -72.283, -84.8,
2007-03-10, 06:46, -72.417, -85.242,
2007-03-10, 07:35, -72.417, -85.26,
2007-03-10, 07:57, -72.41, -85.264,
2007-03-10, 08:19, -72.423, -85.279,
2007-03-10, 11:15, -72.429, -85.362,
2007-03-10, 16:23, -72.533, -85.401,
2007-03-10, 16:47, -72.552, -85.288,
2007-03-10, 19:53, -72.437, -85.556,
2007-03-11, 04:35, -72.487, -86.022,
2007-03-11, 05:40, -72.53, -85.87,
2007-03-11, 09:23, -72.413, -86.018,
2007-03-11, 09:47, -72.412, -85.92,
2007-03-11, 11:02, -72.382, -85.95,
2007-03-11, 11:28, -72.365, -85.889,
2007-03-11, 12:40, -72.331, -85.852,
2007-03-12, 00:29, -72.134, -85.763,
2007-03-12, 02:04, -72.114, -85.817,
2007-03-12, 07:32, -72.021, -85.558,
2007-03-12, 07:56, -72.006, -85.648,
2007-03-12, 08:53, -71.996, -85.514,
2007-03-12, 22:27, -71.835, -84.998,
2007-03-13, 01:06, -71.76, -84.778,
2007-03-13, 02:10, -71.79, -84.954,
2007-03-13, 03:05, -71.791, -84.749,
2007-03-13, 03:39, -71.792, -84.728,
2007-03-13, 03:52, -71.79, -84.737,
2007-03-13, 06:56, -71.84, -84.413,
2007-03-13, 08:45, -71.775, -84.446,
2007-03-13, 09:39, -71.75, -84.576,
2007-03-13, 10:03, -71.743, -84.483,
2007-03-13, 11:48, -71.714, -84.34,
2007-03-13, 12:14, -71.712, -84.332,
2007-03-13, 15:32, -71.656, -84.138,
2007-03-13, 23:11, -71.515, -83.231,
2007-03-14, 01:22, -71.376, -83.294,
2007-03-14, 02:39, -71.487, -83.229,
2007-03-14, 04:17, -71.392, -83.257,
2007-03-14, 08:33, -71.429, -83.237,
2007-03-14, 15:09, -71.185, -83.156,
2007-03-14, 18:55, -71.221, -83.116,
2007-03-14, 20:37, -71.248, -83.369,
2007-03-15, 04:18, -71.243, -82.532,
2007-03-15, 04:59, -71.226, -82.52,
2007-03-15, 05:56, -71.229, -82.392,
2007-03-15, 06:29, -71.227, -82.444,
2007-03-15, 06:53, -71.228, -82.434,
2007-03-15, 08:04, -71.201, -82.394,
2007-03-15, 08:34, -71.24, -82.306,
2007-03-15, 09:04, -71.245, -82.316,
2007-03-15, 11:48, -71.223, -82.417,
2007-03-15, 14:48, -71.255, -81.894,
2007-03-15, 17:02, -71.285, -81.865,
2007-03-15, 20:51, -71.361, -81.706,
2007-03-15, 22:13, -71.436, -81.964,
2007-03-16, 01:30, -71.495, -81.87,
2007-03-16, 02:18, -71.506, -81.978,
2007-03-16, 02:44, -71.517, -82.03,
2007-03-16, 03:09, -71.516, -82.034,
2007-03-16, 04:26, -71.544, -82.112,
2007-03-16, 06:11, -71.58, -82.194,
2007-03-16, 11:04, -71.624, -82.502,
2007-03-16, 12:14, -71.692, -82.517,
2007-03-16, 18:32, -71.779, -82.665,
2007-03-16, 22:00, -71.755, -82.924,
2007-03-17, 02:27, -71.766, -83.513,
2007-03-17, 14:58, -71.768, -83.114,
2007-03-17, 17:21, -71.874, -83.377,
2007-03-17, 21:39, -71.847, -83.588,
2007-03-17, 23:29, -71.894, -83.639,
2007-03-18, 00:06, -71.854, -83.612,
2007-03-18, 12:55, -71.897, -84.312,
2007-03-19, 00:52, -71.899, -84.501,
2007-03-19, 05:33, -71.904, -84.606,
2007-03-19, 06:00, -71.898, -84.61,
2007-03-19, 07:48, -71.876, -84.535,
2007-03-19, 08:54, -71.837, -84.694,
2007-03-19, 11:03, -71.854, -84.49,
2007-03-19, 13:18, -71.92, -84.276,
2007-03-19, 18:15, -71.796, -84.427,
2007-03-19, 22:01, -71.797, -84.44,
2007-03-19, 23:03, -71.795, -84.472,
2007-03-20, 00:54, -71.784, -84.023,
2007-03-20, 02:51, -71.793, -84.405,
2007-03-20, 04:00, -71.797, -84.377,
2007-03-20, 04:37, -71.778, -84.457,
2007-03-20, 07:21, -71.717, -84.439,
2007-03-20, 09:34, -71.703, -84.412,
2007-03-20, 11:28, -71.719, -84.439,
2007-03-20, 12:25, -71.728, -84.486,
2007-03-20, 12:52, -71.736, -84.527,
2007-03-20, 14:29, -71.824, -84.144,
2007-03-20, 19:33, -71.781, -84.505,
2007-03-20, 21:51, -71.762, -84.449,
2007-03-20, 22:56, -71.76, -84.443,
2007-03-21, 00:21, -71.758, -84.49,
2007-03-22, 06:35, -71.873, -84.547,
2007-03-22, 11:03, -71.88, -84.55,
2007-03-22, 19:44, -71.872, -84.589,
2007-03-22, 21:28, -71.885, -84.506,
2007-03-22, 23:07, -71.898, -84.505,
2007-03-23, 03:38, -71.929, -84.498,
2007-03-23, 03:57, -71.935, -84.488,
2007-03-23, 04:35, -71.946, -84.508,
2007-03-23, 05:34, -71.932, -84.551,
2007-03-23, 09:29, -71.927, -84.545,
2007-03-23, 13:54, -71.794, -84.469,
2007-03-23, 19:44, -71.889, -84.718,
2007-03-23, 22:57, -71.886, -84.3,
2007-03-23, 23:36, -71.9, -84.409,
2007-03-24, 02:57, -71.954, -84.281,
2007-03-24, 03:32, -71.944, -84.334,
2007-03-24, 04:10, -71.958, -84.313,
2007-03-24, 05:10, -71.934, -84.303,
2007-03-24, 10:12, -71.984, -84.34,
2007-03-24, 11:36, -71.926, -84.306,
2007-03-24, 12:29, -71.899, -84.437,
2007-03-24, 14:09, -71.968, -84.359,
2007-03-25, 00:26, -72.03, -84.312,
2007-03-25, 04:42, -72.021, -84.365,
2007-03-25, 06:34, -72.077, -83.89,
2007-03-25, 20:51, -71.957, -83.903,
2007-03-25, 21:46, -71.915, -84.031,
2007-03-25, 22:23, -71.927, -84.053,
2007-03-26, 00:03, -71.963, -84.193,
2007-03-26, 06:52, -71.902, -83.764,
2007-03-26, 12:50, -71.933, -83.831,
2007-03-27, 07:16, -71.924, -83.515,
2007-03-27, 09:19, -71.914, -83.518,
2007-03-27, 15:09, -71.951, -83.301,
2007-03-27, 16:38, -71.981, -83.42,
2007-03-27, 18:25, -72.028, -83.08,
2007-03-27, 20:06, -72.036, -83.338,
2007-03-28, 03:11, -72.112, -83.06,
2007-03-28, 04:12, -72.1, -83.042,
2007-03-28, 09:08, -72.073, -82.908,
2007-03-28, 09:32, -72.082, -82.878,
2007-03-28, 10:52, -72.094, -82.863,
2007-03-28, 12:34, -72.082, -82.919,
2007-03-28, 14:05, -72.078, -83.07,
2007-03-28, 22:00, -72.067, -83.18,
2007-03-29, 04:13, -72.062, -82.94,
2007-03-29, 07:09, -72.014, -83.1,
2007-03-29, 10:26, -72.009, -83.183,
2007-03-29, 11:22, -72.021, -83.14,
2007-03-29, 13:50, -72.009, -83.22,
2007-03-30, 02:21, -71.895, -83.056,
2007-03-30, 09:27, -71.908, -82.989,
2007-03-30, 10:01, -71.915, -82.937,
2007-03-30, 12:21, -71.876, -83.036,
2007-03-30, 17:19, -71.893, -83.163,
2007-03-30, 19:32, -71.878, -83.156,
2007-03-30, 22:02, -71.87, -83.231,
2007-03-31, 01:23, -71.878, -83.156,
2007-03-31, 10:40, -71.951, -83.092,
2007-03-31, 15:53, -71.874, -82.899,
2007-03-31, 19:23, -71.928, -83.025,
2007-03-31, 21:32, -71.952, -83.13,
2007-03-31, 23:08, -71.965, -82.708,
2007-04-01, 03:44, -71.939, -83.094,
2007-04-01, 13:13, -72.049, -83.374,
2007-04-01, 14:52, -72.07, -83.189,
2007-04-01, 16:31, -72.032, -82.96,
2007-04-01, 19:09, -72.014, -82.94,
2007-04-01, 21:06, -72.003, -83.063,
2007-04-01, 22:33, -71.994, -83.216,
2007-04-01, 22:56, -72.01, -83.155,
2007-04-02, 04:33, -72.058, -83.336,
2007-04-02, 14:41, -72.13, -83.041,
2007-04-02, 16:18, -72.127, -82.897,
2007-04-02, 17:53, -72.06, -82.825,
2007-04-02, 19:02, -72.067, -82.826,
2007-04-02, 22:39, -72.074, -82.818,
2007-04-03, 05:10, -72.086, -82.737,
2007-04-03, 11:54, -71.982, -82.375,
2007-04-03, 14:09, -72.132, -82.414,
2007-04-03, 16:11, -72.07, -82.65,
2007-04-03, 20:30, -72.052, -82.534,
2007-04-04, 03:57, -72.061, -82.739,
2007-04-04, 19:58, -72.063, -82.909,
2007-04-04, 20:23, -72.078, -82.827,
2007-04-05, 01:40, -72.069, -82.615,
2007-04-05, 03:27, -72.086, -82.696,
2007-04-05, 04:58, -72.149, -82.495,
2007-04-05, 07:39, -72.03, -82.734,
2007-04-05, 12:23, -72.036, -82.579,
2007-04-05, 19:35, -71.993, -82.741,
2007-04-05, 23:27, -72.144, -82.802,
2007-04-06, 02:53, -72.119, -82.875,
2007-04-06, 06:15, -72.113, -82.932,
2007-04-06, 06:21, -72.109, -82.924,
2007-04-06, 06:26, -72.11, -82.945,
2007-04-06, 11:16, -72.078, -83.078,
2007-04-06, 16:35, -72.119, -82.591,
2007-04-06, 18:14, -72.145, -82.876,
2007-04-06, 20:14, -72.2, -82.734,
2007-04-06, 21:50, -72.166, -82.643,
2007-04-06, 22:35, -72.17, -82.611,
2007-04-07, 07:34, -72.229, -82.611,
2007-04-07, 09:34, -72.161, -82.578,
2007-04-07, 10:59, -72.058, -82.544,
2007-04-07, 15:54, -72.165, -82.659,
2007-04-08, 02:23, -72.158, -82.404,
2007-04-08, 04:49, -72.166, -82.362,
2007-04-08, 15:05, -72.101, -82.289,
2007-04-08, 15:31, -72.106, -82.389,
2007-04-08, 17:13, -72.065, -82.407,
2007-04-08, 18:01, -72.065, -82.572,
2007-04-08, 20:05, -72.041, -82.679,
2007-04-08, 21:26, -72.038, -82.694,
2007-04-08, 23:30, -72.042, -82.897,
2007-04-09, 00:43, -72.023, -82.844,
2007-04-09, 04:05, -71.863, -82.987,
2007-04-09, 16:52, -71.876, -82.985,
2007-04-10, 02:25, -71.747, -83.127,
2007-04-10, 12:22, -71.644, -83.017,
2007-04-10, 17:41, -71.633, -83.064,
2007-04-10, 19:19, -71.608, -83.069,
2007-04-10, 20:58, -71.642, -83.08,
2007-04-10, 21:48, -71.668, -82.943,
2007-04-10, 22:38, -71.628, -82.927,
2007-04-11, 14:26, -71.509, -82.649,
2007-04-11, 16:04, -71.539, -82.534,
2007-04-11, 23:57, -71.518, -82.418,
2007-04-12, 02:23, -71.521, -82.389,
2007-04-12, 10:20, -71.506, -82.374,
2007-04-12, 10:43, -71.5, -82.385,
2007-04-13, 15:16, -71.194, -81.729,
2007-04-13, 15:40, -71.161, -81.789,
2007-04-14, 10:25, -71.101, -81.656,
2007-04-14, 11:37, -71.096, -81.572,
2007-04-14, 13:12, -71.128, -81.684,
2007-04-14, 15:24, -71.147, -81.645,
2007-04-14, 17:06, -71.168, -81.659,
2007-04-14, 20:21, -71.147, -81.445,
2007-04-14, 22:03, -71.171, -81.736,
2007-04-15, 02:01, -71.034, -81.563,
2007-04-15, 03:33, -71.122, -81.495,
2007-04-15, 04:43, -71.079, -81.378,
2007-04-15, 08:03, -71.053, -81.28,
2007-04-15, 11:23, -71.048, -81.171,
2007-04-15, 15:15, -70.988, -81.324,
2007-04-15, 16:10, -71.002, -81.319,
2007-04-15, 20:06, -70.917, -81.097,
2007-04-16, 00:02, -70.954, -81.216,
2007-04-16, 04:18, -70.95, -81.006,
2007-04-16, 11:38, -70.905, -81.13,
2007-04-16, 14:09, -70.912, -81.186,
2007-04-16, 17:32, -70.913, -81.019,
2007-04-16, 21:55, -70.92, -80.779,
2007-04-16, 23:41, -70.938, -80.815,
2007-04-17, 04:13, -70.945, -80.791,
2007-04-17, 23:09, -70.926, -80.769,
2007-04-18, 01:41, -70.921, -80.8,
2007-04-18, 02:26, -70.925, -80.709,
2007-04-18, 06:46, -70.917, -80.706,
2007-04-18, 21:14, -71.046, -80.875,
2007-04-18, 22:58, -71.044, -80.915,
2007-04-18, 23:28, -71.038, -80.897,
2007-04-19, 04:19, -71.047, -80.933,
2007-04-19, 04:29, -71.036, -80.946,
2007-04-19, 14:37, -71.077, -80.99,
2007-04-19, 19:40, -71.021, -80.802,
2007-04-20, 07:20, -71.103, -81.007,
2007-04-20, 10:00, -71.096, -81.008,
2007-04-20, 11:02, -71.046, -80.921,
2007-04-20, 19:23, -71.146, -81.264,
2007-04-20, 20:52, -71.119, -81.305,
2007-04-20, 22:34, -71.208, -81.359,
2007-04-21, 01:59, -71.098, -81.195,
2007-04-21, 03:29, -71.107, -81.18,
2007-04-21, 03:58, -71.123, -81.207,
2007-04-21, 06:19, -71.115, -81.232,
2007-04-21, 17:15, -71.154, -81.245,
2007-04-21, 20:34, -71.126, -81.227,
2007-04-21, 22:11, -71.108, -81.243,
2007-04-22, 07:37, -71.132, -81.325,
2007-04-22, 22:07, -71.169, -81.396,
2007-04-22, 22:52, -71.165, -81.315,
2007-04-22, 23:55, -71.197, -81.423,
2007-04-23, 03:08, -71.147, -81.378,
2007-04-23, 03:10, -71.147, -81.376,
2007-04-23, 03:18, -71.145, -81.375,
2007-04-23, 17:07, -71.162, -81.459,
2007-04-23, 19:42, -71.125, -81.369,
2007-04-23, 23:37, -71.108, -81.352,
2007-04-24, 03:08, -71.078, -81.375,
2007-04-24, 04:54, -71.046, -81.304,
2007-04-24, 11:36, -71.035, -81.355,
2007-04-24, 22:02, -71.019, -81.158,
2007-04-24, 23:25, -71.014, -81.354,
2007-04-25, 01:03, -71.011, -81.281,
2007-04-25, 02:17, -71.003, -81.344,
2007-04-25, 04:05, -71.028, -81.239,
2007-04-25, 04:42, -71.019, -81.232,
2007-04-25, 05:20, -71.01, -81.232,
2007-04-25, 15:36, -71.024, -81.36,
2007-04-25, 17:26, -71.004, -81.375,
2007-04-25, 18:21, -70.998, -81.367,
2007-04-25, 20:09, -71.011, -81.478,
2007-04-25, 23:33, -70.968, -81.164,
2007-04-26, 00:56, -71.025, -81.302,
2007-04-26, 09:11, -71, -81.607,
2007-04-26, 16:16, -70.996, -81.241,
2007-04-26, 21:38, -71.07, -81.288,
2007-04-26, 23:02, -71.108, -81.361,
2007-04-26, 23:33, -71.098, -81.348,
2007-04-27, 09:20, -71.044, -81.131,
2007-04-27, 10:38, -71.031, -81.205,
2007-04-27, 19:48, -71.001, -81.23,
2007-04-28, 01:59, -70.983, -81.215,
2007-04-28, 05:30, -70.936, -81.164,
2007-04-28, 07:30, -70.897, -81.219,
2007-04-28, 09:02, -70.92, -81.048,
2007-04-28, 10:06, -70.869, -81.29,
2007-04-28, 10:44, -70.855, -81.249,
2007-04-28, 16:10, -70.847, -81.321,
2007-04-29, 03:14, -70.766, -81.138,
2007-04-29, 03:42, -70.762, -81.17,
2007-04-29, 07:19, -70.788, -81.142,
2007-04-29, 09:02, -70.746, -81.227,
2007-04-29, 12:25, -70.806, -80.987,
2007-04-29, 16:00, -70.889, -81.185,
2007-04-29, 17:32, -70.853, -81.136,
2007-04-29, 18:58, -70.848, -81.037,
2007-04-29, 19:24, -70.851, -81.163,
2007-04-29, 21:42, -70.825, -81.303,
2007-04-30, 05:04, -70.848, -81.272,
2007-04-30, 10:08, -70.862, -81.169,
2007-04-30, 15:19, -70.886, -81.184,
2007-05-01, 01:45, -71.005, -80.8,
2007-05-01, 03:14, -70.976, -80.893,
2007-05-01, 04:02, -70.974, -80.877,
2007-05-01, 04:32, -70.974, -80.859,
2007-05-01, 06:42, -71.014, -80.867,
2007-05-01, 09:24, -70.936, -80.96,
2007-05-01, 17:18, -70.954, -80.593,
2007-05-01, 18:37, -71.009, -80.792,
2007-05-01, 23:43, -70.982, -80.826,
2007-05-02, 00:48, -70.972, -80.838,
2007-05-02, 03:37, -70.932, -80.759,
2007-05-02, 05:04, -70.976, -80.775,
2007-05-02, 11:20, -70.97, -80.769,
2007-05-02, 14:55, -70.978, -80.921,
2007-05-02, 18:01, -71.07, -80.875,
2007-05-02, 18:55, -71.034, -80.996,
2007-05-03, 06:00, -71.128, -81.173,
2007-05-03, 07:38, -71.126, -81.246,
2007-05-03, 09:52, -71.141, -81.235,
2007-05-03, 20:34, -71.236, -81.078,
2007-05-03, 21:49, -71.248, -81.392,
2007-05-04, 03:56, -71.294, -81.276,
2007-05-04, 04:44, -71.295, -81.3,
2007-05-04, 14:26, -71.368, -81.307,
2007-05-04, 23:09, -71.376, -80.986,
2007-05-05, 08:01, -71.313, -80.963,
2007-05-05, 12:34, -71.301, -81.064,
2007-05-06, 01:27, -71.448, -81.399,
2007-05-06, 02:16, -71.429, -81.27,
2007-05-06, 15:39, -71.563, -81.022,
2007-05-07, 09:59, -71.657, -81.684,
2007-05-07, 10:27, -71.687, -81.762,
2007-05-07, 21:26, -71.643, -81.668,
2007-05-08, 17:26, -71.746, -81.333,
2007-05-08, 18:55, -71.746, -81.388,
2007-05-09, 06:41, -71.743, -82.065,
2007-05-09, 15:55, -71.858, -83.104,
2007-05-10, 08:17, -71.997, -83.244,
2007-05-10, 19:10, -72.082, -83.143,
2007-05-11, 01:10, -72.125, -83.269,
2007-05-11, 03:32, -72.104, -83.21,
2007-05-11, 05:05, -72.074, -83.233,
2007-05-11, 06:57, -72.033, -83.322,
2007-05-11, 08:39, -72.074, -83.153,
2007-05-11, 16:19, -72.144, -83.679,
2007-05-11, 17:13, -72.06, -83.613,
2007-05-11, 19:02, -72.065, -83.578,
2007-05-11, 20:19, -72.082, -83.458,
2007-05-11, 21:59, -72.06, -83.532,
2007-05-11, 22:23, -72.05, -83.465,
2007-05-12, 04:13, -72.053, -83.402,
2007-05-12, 09:11, -71.989, -83.51,
2007-05-12, 11:18, -71.982, -83.426,
2007-05-12, 14:09, -72.013, -83.53,
2007-05-12, 17:26, -72.049, -83.653,
2007-05-13, 00:54, -72.001, -83.734,
2007-05-13, 02:55, -71.975, -83.751,
2007-05-13, 09:12, -71.921, -83.713,
2007-05-13, 10:30, -71.913, -83.733,
2007-05-13, 15:49, -71.894, -83.697,
2007-05-13, 20:24, -71.874, -83.46,
2007-05-13, 23:47, -71.813, -83.144,
2007-05-14, 01:26, -71.808, -83.298,
2007-05-14, 05:51, -71.883, -83.342,
2007-05-14, 08:49, -71.872, -83.327,
2007-05-14, 12:08, -71.852, -83.202,
2007-05-14, 23:32, -71.701, -82.99,
2007-05-15, 00:29, -71.716, -83.054,
2007-05-15, 06:26, -71.612, -82.572,
2007-05-15, 10:31, -71.556, -82.71,
2007-05-15, 18:02, -71.426, -82.717,
2007-05-15, 20:57, -71.433, -82.68,
2007-05-15, 23:23, -71.353, -82.49,
2007-05-16, 00:21, -71.323, -82.474,
2007-05-16, 02:43, -71.298, -82.45,
2007-05-16, 03:22, -71.272, -82.445,
2007-05-16, 06:46, -71.198, -82.501,
2007-05-16, 08:01, -71.208, -82.506,
2007-05-16, 14:16, -71.158, -82.871,
2007-05-16, 21:42, -70.915, -83.116,
2007-05-17, 04:20, -70.767, -83.217,
2007-05-17, 05:00, -70.795, -83.391,
2007-05-17, 06:00, -70.732, -83.228,
2007-05-17, 08:29, -70.718, -83.239,
2007-05-17, 17:17, -70.628, -83.162,
2007-05-18, 04:02, -70.703, -83.17,
2007-05-18, 07:31, -70.713, -83.152,
2007-05-18, 09:06, -70.687, -83.135,
2007-05-18, 12:17, -70.744, -83.129,
2007-05-18, 13:30, -70.73, -83.116,
2007-05-18, 14:46, -70.741, -83.078,
2007-05-18, 16:02, -70.759, -83.044,
2007-05-19, 00:31, -70.726, -82.915,
2007-05-19, 04:30, -70.758, -82.968,
2007-05-19, 04:44, -70.76, -82.985,
2007-05-19, 11:13, -70.76, -83.06,
2007-05-19, 12:51, -70.762, -83.075,
2007-05-19, 13:32, -70.75, -82.997,
2007-05-19, 14:48, -70.771, -83.001,
2007-05-19, 16:14, -70.726, -82.972,
2007-05-19, 22:09, -70.737, -82.807,
2007-05-20, 00:22, -70.753, -82.854,
2007-05-20, 09:26, -70.82, -82.947,
2007-05-20, 22:29, -70.83, -82.923,
2007-05-21, 11:03, -70.751, -83.069,
2007-05-21, 17:12, -70.851, -82.85,
2007-05-21, 19:45, -70.705, -82.985,
2007-05-22, 03:17, -70.748, -82.968,
2007-05-22, 03:42, -70.739, -83.051,
2007-05-22, 05:00, -70.778, -82.952,
2007-05-22, 05:51, -70.754, -82.977,
2007-05-22, 07:22, -70.756, -83.047,
2007-05-22, 08:27, -70.752, -82.926,
2007-05-22, 09:00, -70.763, -83.08,
2007-05-22, 12:25, -70.81, -83.02,
2007-05-22, 15:20, -70.807, -83.098,
2007-05-22, 23:02, -70.761, -83.088,
2007-05-22, 23:50, -70.785, -83.159,
2007-05-23, 03:19, -70.775, -83.197,
2007-05-23, 08:56, -70.737, -83.171,
2007-05-23, 11:37, -70.724, -83.292,
2007-05-23, 12:25, -70.687, -83.33,
2007-05-23, 13:13, -70.697, -83.355,
2007-05-23, 16:34, -70.743, -83.506,
2007-05-23, 20:43, -70.812, -83.454,
2007-05-23, 22:49, -70.802, -83.388,
2007-05-24, 04:55, -70.757, -83.395,
2007-05-24, 20:12, -70.626, -83.055,
2007-05-24, 21:55, -70.641, -83.228,
2007-05-24, 23:35, -70.635, -83.238,
2007-05-25, 02:52, -70.616, -83.187,
2007-05-25, 06:13, -70.608, -83.297,
2007-05-25, 07:58, -70.586, -83.321,
2007-05-25, 08:31, -70.585, -83.328,
2007-05-25, 09:12, -70.58, -83.384,
2007-05-25, 12:26, -70.577, -83.377,
2007-05-25, 16:36, -70.518, -83.41,
2007-05-25, 20:42, -70.486, -83.358,
2007-05-25, 23:08, -70.469, -83.332,
2007-05-26, 02:07, -70.456, -83.313,
2007-05-26, 03:22, -70.446, -83.342,
2007-05-26, 10:46, -70.4, -83.259,
2007-05-26, 12:03, -70.393, -83.291,
2007-05-26, 23:52, -70.395, -83.058,
2007-05-27, 02:06, -70.399, -83.046,
2007-05-27, 02:30, -70.401, -83.037,
2007-05-28, 05:37, -70.545, -83.007,
2007-05-28, 06:18, -70.548, -83.001,
2007-05-28, 08:06, -70.548, -82.938,
2007-05-28, 17:42, -70.563, -83.181,
2007-05-29, 02:39, -70.629, -83.084,
2007-05-29, 11:16, -70.658, -83.182,
2007-05-29, 12:36, -70.665, -83.059,
2007-05-29, 17:38, -70.68, -83.019,
2007-05-29, 21:31, -70.663, -82.742,
2007-05-30, 01:00, -70.699, -82.799,
2007-05-30, 02:13, -70.719, -82.92,
2007-05-30, 04:07, -70.817, -82.745,
2007-05-30, 05:57, -70.742, -82.862,
2007-05-30, 12:15, -70.768, -82.812,
2007-05-30, 15:32, -70.756, -82.757,
2007-05-30, 17:18, -70.713, -82.691,
2007-05-30, 19:06, -70.739, -82.727,
2007-05-30, 19:39, -70.728, -82.79,
2007-05-30, 21:25, -70.734, -82.736,
2007-05-31, 00:42, -70.723, -82.754,
2007-05-31, 02:09, -70.722, -82.727,
2007-05-31, 04:04, -70.718, -82.67,
2007-05-31, 05:30, -70.739, -82.694,
2007-05-31, 06:54, -70.716, -82.668,
2007-05-31, 10:11, -70.72, -82.615,
2007-05-31, 16:50, -70.678, -82.494,
2007-06-01, 01:41, -70.381, -82.458,
2007-06-01, 03:08, -70.392, -82.523,
2007-06-02, 02:47, -69.975, -82.357,
2007-06-02, 11:14, -69.885, -82.305,
2007-06-02, 19:02, -69.743, -82.113,
2007-06-03, 04:05, -69.601, -82.074,
2007-06-03, 06:18, -69.589, -82.007,
2007-06-03, 08:58, -69.575, -81.919,
2007-06-03, 16:37, -69.624, -81.993,
2007-06-03, 23:24, -69.62, -81.8,
2007-06-03, 23:58, -69.629, -81.804,
2007-06-04, 03:38, -69.636, -81.892,
2007-06-04, 06:59, -69.62, -81.702,
2007-06-04, 08:13, -69.606, -81.789,
2007-06-04, 09:33, -69.655, -81.653,
2007-06-04, 20:44, -69.74, -81.641,
2007-06-05, 01:46, -69.726, -81.814,
2007-06-05, 03:28, -69.699, -81.909,
2007-06-05, 19:44, -69.723, -81.634,
2007-06-05, 20:20, -69.737, -81.62,
2007-06-05, 21:29, -69.72, -81.524,
2007-06-05, 22:06, -69.735, -81.623,
2007-06-06, 04:02, -69.747, -81.617,
2007-06-06, 09:40, -69.726, -81.51,
2007-06-06, 11:14, -69.75, -81.429,
2007-06-06, 12:46, -69.716, -81.423,
2007-06-06, 19:33, -69.698, -81.577,
2007-06-07, 01:04, -69.631, -81.689,
2007-06-07, 02:17, -69.6, -81.731,
2007-06-07, 04:02, -69.638, -81.855,
2007-06-07, 06:03, -69.551, -81.944,
2007-06-07, 07:32, -69.539, -81.987,
2007-06-07, 17:28, -69.362, -82.058,
2007-06-08, 09:07, -69.163, -82.547,
2007-06-08, 15:23, -69.147, -82.627,
2007-06-08, 19:12, -69.11, -82.695,
2007-06-08, 22:29, -69.084, -82.552,
2007-06-09, 03:28, -69.025, -82.508,
2007-06-09, 06:52, -68.988, -82.421,
2007-06-09, 08:55, -68.957, -82.366,
2007-06-09, 14:58, -68.938, -82.248,
2007-06-09, 19:20, -68.896, -82.063,
2007-06-09, 20:45, -68.888, -81.983,
2007-06-09, 22:27, -68.917, -82.006,
2007-06-10, 00:10, -68.894, -81.786,
2007-06-10, 01:22, -68.911, -81.896,
2007-06-10, 03:10, -68.894, -81.701,
2007-06-10, 08:27, -68.817, -81.36,
2007-06-10, 23:55, -68.762, -80.652,
2007-06-11, 01:06, -68.765, -80.562,
2007-06-11, 03:12, -68.763, -80.419,
2007-06-11, 12:37, -68.718, -79.888,
2007-06-11, 15:54, -68.724, -79.783,
2007-06-11, 20:44, -68.708, -79.572,
2007-06-11, 23:40, -68.677, -79.428,
2007-06-12, 00:46, -68.708, -79.39,
2007-06-12, 08:55, -68.753, -78.652,
2007-06-13, 10:07, -68.611, -77.155,
2007-06-13, 13:29, -68.656, -76.971,
2007-06-13, 20:21, -68.701, -76.681,
2007-06-14, 06:02, -68.698, -76.366,
2007-06-14, 07:44, -68.695, -76.336,
2007-06-14, 09:39, -68.667, -76.173,
2007-06-14, 11:25, -68.615, -76.189,
2007-06-15, 04:12, -68.528, -75.912,
2007-06-15, 06:09, -68.502, -75.934,
2007-06-15, 14:19, -68.498, -75.637,
2007-06-15, 16:16, -68.465, -75.657,
2007-06-15, 20:00, -68.49, -75.539,
2007-06-15, 23:04, -68.47, -75.453,
2007-06-16, 00:46, -68.473, -75.462,
2007-06-16, 12:29, -68.483, -75.175,
2007-06-16, 21:14, -68.461, -74.923,
2007-06-17, 02:08, -68.502, -75.08,
2007-06-17, 03:40, -68.448, -74.917,
2007-06-17, 07:13, -68.425, -74.739,
2007-06-17, 22:22, -68.479, -74.515,
2007-06-18, 03:01, -68.515, -74.532,
2007-06-18, 03:37, -68.482, -74.635,
2007-06-18, 06:31, -68.464, -74.577,
2007-06-18, 11:36, -68.523, -74.397,
2007-06-19, 00:27, -68.228, -73.899,
2007-06-19, 02:52, -68.251, -74.019,
2007-06-19, 03:33, -68.25, -73.968,
2007-06-19, 06:54, -68.219, -74.012,
2007-06-19, 19:05, -68.225, -74.022,
2007-06-19, 20:43, -68.203, -73.912,
2007-06-20, 00:54, -68.226, -74.185,
2007-06-20, 06:45, -68.252, -74.22,
2007-06-20, 09:07, -68.248, -74.253,
2007-06-20, 10:45, -68.273, -74.159,
2007-06-20, 12:27, -68.232, -74.315,
2007-06-20, 15:24, -68.219, -74.36,
2007-06-20, 20:49, -68.298, -74.218,
2007-06-20, 22:30, -68.313, -74.58,
2007-06-21, 03:12, -68.274, -74.179,
2007-06-21, 05:26, -68.321, -73.978,
2007-06-21, 08:12, -68.238, -73.831,
2007-06-21, 17:03, -68.208, -73.538,
2007-06-22, 06:40, -68.232, -74.226,
2007-06-22, 16:43, -68.195, -74.361,
2007-06-22, 20:14, -68.209, -74.06,
2007-06-23, 02:46, -68.254, -73.788,
2007-06-23, 09:37, -68.173, -73.644,
2007-06-23, 14:42, -68.16, -73.735,
2007-06-23, 16:18, -68.154, -73.548,
2007-06-23, 18:00, -68.056, -73.46,
2007-06-23, 21:41, -68.165, -73.488,
2007-06-23, 23:17, -68.166, -73.494,
2007-06-24, 00:56, -68.163, -73.447,
2007-06-24, 02:44, -68.164, -73.415,
2007-06-24, 03:58, -68.17, -73.42,
2007-06-24, 07:41, -68.191, -73.399,
2007-06-24, 17:39, -68.239, -73.386,
2007-06-24, 18:12, -68.257, -73.41,
2007-06-25, 00:38, -68.261, -73.973,
2007-06-25, 03:49, -68.204, -73.6,
2007-06-25, 05:43, -68.224, -73.416,
2007-06-25, 07:04, -68.194, -73.727,
2007-06-25, 08:23, -68.197, -73.943,
2007-06-25, 10:29, -68.171, -73.51,
2007-06-25, 12:10, -68.187, -73.516,
2007-06-25, 21:25, -68.109, -73.438,
2007-06-26, 03:25, -68.128, -73.509,
2007-06-26, 04:03, -68.187, -73.481,
2007-06-26, 07:22, -68.136, -73.517,
2007-06-26, 08:03, -68.14, -73.514,
2007-06-26, 10:08, -68.13, -73.508,
2007-06-26, 11:44, -68.126, -73.603,
2007-06-26, 16:03, -68.162, -73.657,
2007-06-26, 21:05, -68.106, -74.117,
2007-06-27, 00:33, -68.199, -73.451,
2007-06-27, 03:12, -68.217, -73.506,
2007-06-27, 04:41, -68.216, -73.51,
2007-06-27, 06:02, -68.212, -73.489,
2007-06-27, 08:10, -68.193, -73.543,
2007-06-27, 17:34, -68.231, -73.459,
2007-06-27, 22:39, -68.224, -73.344,
2007-06-28, 00:20, -68.225, -73.366,
2007-06-28, 02:03, -68.173, -73.327,
2007-06-28, 05:13, -68.306, -73.417,
2007-06-28, 14:21, -68.169, -73.5,
2007-06-28, 16:04, -68.146, -73.484,
2007-06-28, 20:42, -68.156, -73.608,
2007-06-28, 21:16, -68.163, -73.642,
2007-06-29, 05:44, -68.148, -73.5,
2007-06-29, 12:13, -68.188, -73.526,
2007-06-29, 13:59, -68.16, -73.445,
2007-06-29, 15:41, -68.165, -73.438,
2007-06-29, 22:10, -68.152, -73.54,
2007-06-30, 01:53, -68.194, -73.581,
2007-06-30, 05:27, -68.205, -73.215,
2007-06-30, 08:24, -68.161, -73.451,
2007-06-30, 20:02, -68.171, -73.495,
2007-07-01, 01:21, -68.202, -73.368,
2007-07-01, 06:37, -68.167, -73.297,
2007-07-01, 09:44, -68.176, -73.308,
2007-07-01, 16:57, -68.208, -73.377,
2007-07-01, 18:36, -68.241, -73.329,
2007-07-02, 02:46, -68.232, -73.51,
2007-07-02, 03:59, -68.201, -73.543,
2007-07-02, 04:36, -68.183, -73.499,
2007-07-02, 09:23, -68.198, -73.588,
2007-07-02, 11:10, -68.182, -73.625,
2007-07-02, 12:53, -68.174, -73.637,
2007-07-02, 14:31, -68.165, -73.647,
2007-07-02, 19:52, -68.099, -73.746,
2007-07-02, 21:21, -68.145, -73.674,
2007-07-03, 00:58, -68.102, -73.652,
2007-07-03, 02:47, -68.123, -73.732,
2007-07-03, 10:41, -68.129, -73.792,
2007-07-03, 12:31, -68.129, -73.736,
2007-07-04, 00:20, -68.138, -73.704,
2007-07-04, 00:58, -68.127, -73.693,
2007-07-04, 03:05, -68.06, -73.718,
2007-07-04, 04:19, -68.137, -73.634,
2007-07-04, 17:07, -68.075, -73.52,
2007-07-04, 21:15, -68.11, -73.638,
2007-07-05, 02:48, -68.058, -73.55,
2007-07-05, 03:27, -68.089, -73.647,
2007-07-05, 04:05, -68.076, -73.691,
2007-07-05, 06:01, -68.082, -73.741,
2007-07-05, 08:25, -68.062, -73.765,
2007-07-05, 09:01, -68.085, -73.907,
2007-07-05, 13:13, -68.057, -73.799,
2007-07-05, 22:58, -68.002, -73.81,
2007-07-05, 23:32, -67.999, -73.843,
2007-07-06, 01:20, -67.976, -73.871,
2007-07-06, 03:05, -67.983, -73.789,
2007-07-06, 09:24, -67.965, -73.838,
2007-07-07, 02:04, -67.904, -73.601,
2007-07-07, 02:38, -67.933, -73.559,
2007-07-07, 07:22, -67.882, -73.526,
2007-07-07, 19:00, -67.832, -73.587,
2007-07-07, 20:35, -67.808, -73.6,
2007-07-07, 22:50, -67.894, -73.548,
2007-07-08, 02:12, -67.843, -73.384,
2007-07-08, 03:31, -67.869, -73.408,
2007-07-08, 10:32, -67.849, -73.583,
2007-07-08, 13:53, -67.805, -73.559,
2007-07-08, 19:07, -67.835, -73.696,
2007-07-08, 20:33, -67.784, -73.66,
2007-07-08, 23:54, -67.879, -73.993,
2007-07-09, 01:38, -67.791, -73.627,
2007-07-09, 03:15, -67.744, -73.505,
2007-07-09, 09:21, -67.738, -73.525,
2007-07-09, 09:59, -67.702, -73.472,
2007-07-09, 20:19, -67.71, -73.674,
2007-07-09, 21:51, -67.683, -73.68,
2007-07-10, 02:53, -67.704, -73.694,
2007-07-10, 11:24, -67.682, -73.589,
2007-07-10, 13:04, -67.685, -73.475,
2007-07-10, 14:39, -67.666, -73.571,
2007-07-10, 19:14, -67.604, -73.742,
2007-07-10, 20:06, -67.634, -73.735,
2007-07-10, 23:26, -67.628, -73.655,
2007-07-11, 02:33, -67.722, -73.712,
2007-07-11, 06:09, -67.697, -73.61,
2007-07-11, 06:53, -67.663, -73.588,
2007-07-11, 12:43, -67.622, -73.532,
2007-07-11, 21:53, -67.495, -73.634,
2007-07-12, 00:54, -67.464, -73.7,
2007-07-12, 02:52, -67.451, -73.736,
2007-07-12, 06:00, -67.456, -73.645,
2007-07-12, 07:23, -67.424, -73.681,
2007-07-12, 08:04, -67.446, -73.705,
2007-07-12, 10:21, -67.434, -73.875,
2007-07-12, 13:56, -67.49, -73.666,
2007-07-12, 18:24, -67.372, -73.946,
2007-07-12, 23:05, -67.294, -73.903,
2007-07-13, 00:05, -67.264, -73.872,
2007-07-13, 07:40, -67.13, -74.103,
2007-07-14, 01:33, -66.949, -74.245,
2007-07-14, 02:06, -66.904, -74.302,
2007-07-14, 04:01, -66.906, -74.289,
2007-07-14, 05:55, -66.895, -74.277,
2007-07-14, 07:57, -66.903, -74.245,
2007-07-14, 11:20, -66.784, -74.201,
2007-07-14, 13:11, -66.798, -74.535,
2007-07-14, 14:50, -66.794, -74.557,
2007-07-14, 16:36, -66.772, -74.425,
2007-07-15, 00:20, -66.753, -74.734,
2007-07-15, 03:39, -66.73, -74.884,
2007-07-15, 17:51, -66.739, -74.734,
2007-07-15, 20:46, -66.737, -74.748,
2007-07-16, 01:53, -66.596, -74.497,
2007-07-16, 03:50, -66.643, -74.677,
2007-07-16, 05:37, -66.603, -74.825,
2007-07-16, 07:08, -66.607, -74.616,
2007-07-16, 08:32, -66.553, -74.618,
2007-07-16, 09:09, -66.566, -74.721,
2007-07-16, 10:10, -66.553, -74.532,
2007-07-16, 12:14, -66.446, -74.435,
2007-07-16, 19:29, -66.548, -74.66,
2007-07-16, 23:57, -66.386, -74.56,
2007-07-17, 06:36, -66.273, -74.473,
2007-07-17, 17:32, -66.13, -74.386,
2007-07-17, 20:28, -66.053, -74.104,
2007-07-17, 23:50, -66.02, -74.489,
2007-07-18, 01:55, -65.915, -74.264,
2007-07-18, 03:04, -65.898, -74.218,
2007-07-18, 05:04, -65.863, -74.272,
2007-07-18, 05:44, -65.88, -74.201,
2007-07-18, 06:22, -65.841, -74.234,
2007-07-18, 08:37, -65.813, -74.225,
2007-07-18, 14:56, -65.803, -74.206,
2007-07-18, 17:25, -65.85, -73.742,
2007-07-19, 00:59, -65.737, -73.703,
2007-07-19, 02:45, -65.84, -73.826,
2007-07-19, 04:46, -65.698, -73.571,
2007-07-19, 11:02, -65.721, -73.545,
2007-07-19, 16:14, -65.596, -73.128,
2007-07-19, 18:50, -65.609, -73.081,
2007-07-19, 20:32, -65.63, -73.055,
2007-07-19, 21:15, -65.627, -73.035,
2007-07-19, 23:56, -65.65, -72.903,
2007-07-20, 00:36, -65.666, -72.923,
2007-07-20, 03:59, -65.724, -72.796,
2007-07-20, 05:58, -65.759, -72.79,
2007-07-20, 07:37, -65.782, -72.838,
2007-07-20, 11:05, -65.888, -72.727,
2007-07-20, 12:35, -65.852, -72.824,
2007-07-20, 15:50, -65.823, -73.079,
2007-07-20, 22:01, -66.04, -73.015,
2007-07-21, 00:17, -66.025, -72.95,
2007-07-21, 01:51, -66.006, -72.886,
2007-07-21, 05:14, -65.866, -72.968,
2007-07-21, 09:15, -65.923, -72.583,
2007-07-22, 03:53, -66.082, -73.218,
2007-07-22, 07:54, -65.896, -73.391,
2007-07-22, 08:59, -65.922, -73.43,
2007-07-22, 10:36, -65.949, -73.399,
2007-07-22, 22:49, -65.978, -73.615,
2007-07-23, 20:50, -66.106, -73.596,
2007-07-24, 00:40, -66.19, -73.635,
2007-07-24, 01:51, -66.201, -73.626,
2007-07-24, 02:25, -66.216, -73.541,
2007-07-24, 03:58, -66.229, -73.584,
2007-07-24, 05:34, -66.274, -73.539,
2007-07-24, 06:10, -66.289, -73.563,
2007-07-24, 06:53, -66.284, -73.559,
2007-07-24, 08:54, -66.26, -73.494,
2007-07-24, 09:14, -66.248, -73.562,
2007-07-24, 09:47, -66.226, -73.63,
2007-07-24, 12:39, -66.22, -73.438,
2007-07-24, 20:43, -66.038, -73.614,
2007-07-24, 21:20, -66, -73.546,
2007-07-24, 22:34, -65.945, -73.487,
2007-07-25, 05:46, -65.838, -73.369,
2007-07-25, 10:12, -65.805, -73.426,
2007-07-25, 13:55, -65.797, -73.43,
2007-07-25, 19:25, -65.59, -73.984,
2007-07-26, 01:58, -65.609, -73.051,
2007-07-26, 05:42, -65.536, -73.092,
2007-07-26, 08:41, -65.564, -72.932,
2007-07-26, 15:55, -65.476, -72.752,
2007-07-26, 21:51, -65.537, -72.619,
2007-07-26, 23:31, -65.52, -72.458,
2007-07-27, 03:05, -65.541, -72.269,
2007-07-27, 04:32, -65.61, -72.288,
2007-07-28, 00:51, -65.799, -72.133,
2007-07-28, 03:27, -65.8, -71.913,
2007-07-28, 05:46, -65.838, -71.872,
2007-07-28, 07:54, -65.801, -71.879,
2007-07-28, 14:24, -65.831, -71.859,
2007-07-28, 16:13, -65.836, -71.752,
2007-07-28, 20:43, -65.904, -71.61,
2007-07-29, 00:26, -65.899, -71.388,
2007-07-29, 01:41, -65.878, -71.368,
2007-07-29, 03:42, -65.92, -71.301,
2007-07-29, 07:00, -65.986, -71.208,
2007-07-29, 07:35, -65.999, -71.208,
2007-07-29, 09:09, -65.994, -71.293,
2007-07-29, 12:03, -65.984, -71.269,
2007-07-29, 20:35, -66.113, -71.208,
2007-07-29, 22:07, -66.162, -71.297,
2007-07-30, 04:05, -66.247, -71.103,
2007-07-30, 07:24, -66.349, -70.983,
2007-07-30, 09:09, -66.392, -70.997,
2007-07-30, 13:43, -66.444, -70.854,
2007-07-31, 07:50, -66.438, -70.892,
2007-07-31, 16:45, -66.447, -70.894,
2007-08-01, 04:56, -66.428, -70.797,
2007-08-01, 08:13, -66.425, -70.82,
2007-08-01, 08:47, -66.435, -70.827,
2007-08-01, 10:44, -66.438, -70.837,
2007-08-01, 11:21, -66.465, -70.751,
2007-08-01, 15:30, -66.413, -70.741,
2007-08-01, 18:17, -66.435, -70.856,
2007-08-01, 22:32, -66.477, -70.945,
2007-08-02, 04:18, -66.505, -70.881,
2007-08-02, 05:59, -66.519, -70.885,
2007-08-02, 07:03, -66.528, -70.856,
2007-08-02, 07:38, -66.507, -70.909,
2007-08-02, 10:22, -66.538, -70.904,
2007-08-02, 14:09, -66.641, -70.75,
2007-08-02, 16:25, -66.557, -70.922,
2007-08-02, 22:27, -66.65, -71.179,
2007-08-02, 23:59, -66.596, -70.949,
2007-08-03, 00:31, -66.597, -70.934,
2007-08-03, 02:30, -66.599, -70.933,
2007-08-03, 05:02, -66.595, -70.977,
2007-08-03, 05:37, -66.593, -70.984,
2007-08-03, 07:18, -66.59, -70.954,
2007-08-03, 10:03, -66.606, -71.032,
2007-08-03, 13:05, -66.582, -71.113,
2007-08-03, 18:37, -66.616, -71.131,
2007-08-04, 02:51, -66.658, -70.972,
2007-08-04, 14:26, -66.65, -70.876,
2007-08-04, 15:07, -66.661, -70.925,
2007-08-04, 21:11, -66.733, -71.094,
2007-08-05, 00:28, -66.738, -71.006,
2007-08-05, 08:15, -66.755, -71.101,
2007-08-05, 20:59, -66.808, -71.266,
2007-08-05, 23:21, -66.863, -71.4,
2007-08-06, 02:50, -66.779, -71.305,
2007-08-06, 04:34, -66.826, -71.339,
2007-08-06, 06:12, -66.836, -71.313,
2007-08-06, 20:45, -66.818, -71.645,
2007-08-07, 10:35, -66.713, -71.732,
2007-08-09, 02:45, -66.907, -71.166,
2007-08-09, 04:30, -66.933, -71.584,
2007-08-09, 05:57, -66.901, -71.56,
2007-08-09, 06:38, -66.912, -71.504,
2007-08-09, 11:07, -66.938, -71.459,
2007-08-09, 13:10, -66.93, -71.42,
2007-08-10, 00:34, -66.948, -71.395,
2007-08-10, 02:22, -66.906, -71.449,
2007-08-10, 14:29, -66.969, -71.371,
2007-08-10, 16:09, -66.943, -71.235,
2007-08-10, 22:32, -66.91, -71.247,
2007-08-11, 04:23, -66.923, -71.163,
2007-08-11, 05:03, -66.906, -71.209,
2007-08-11, 08:28, -66.93, -71.22,
2007-08-11, 16:32, -66.997, -71.194,
2007-08-12, 00:00, -66.966, -71.461,
2007-08-12, 03:25, -66.996, -71.23,
2007-08-12, 04:47, -66.966, -70.981,
2007-08-12, 13:21, -66.967, -70.91,
2007-08-13, 01:04, -66.837, -70.945,
2007-08-13, 06:29, -66.872, -70.876,
2007-08-13, 08:06, -66.868, -70.898,
2007-08-13, 09:40, -66.879, -70.925,
2007-08-13, 13:02, -66.894, -70.811,
2007-08-13, 21:22, -66.834, -70.966,
2007-08-14, 02:23, -66.881, -70.998,
2007-08-14, 12:55, -66.76, -70.926,
2007-08-14, 14:21, -66.757, -70.852,
2007-08-14, 16:20, -66.709, -70.865,
2007-08-14, 23:12, -66.782, -71.183,
2007-08-15, 02:45, -66.787, -71.08,
2007-08-15, 04:05, -66.729, -70.902,
2007-08-15, 05:18, -66.745, -70.879,
2007-08-15, 05:44, -66.731, -70.908,
2007-08-15, 06:47, -66.757, -70.73,
2007-08-15, 10:13, -66.736, -70.905,
2007-08-15, 14:18, -66.759, -71.102,
2007-08-15, 15:42, -66.728, -70.892,
2007-08-15, 20:55, -66.7, -71.021,
2007-08-15, 23:11, -66.713, -71.244,
2007-08-16, 01:35, -66.696, -71.08,
2007-08-16, 05:44, -66.691, -71.117,
2007-08-16, 09:51, -66.708, -71.19,
2007-08-16, 10:29, -66.678, -71.224,
2007-08-16, 15:41, -66.738, -71.218,
2007-08-16, 19:10, -66.723, -71.095,
2007-08-17, 00:05, -66.759, -71.047,
2007-08-17, 02:13, -66.794, -71.101,
2007-08-17, 03:37, -66.789, -70.969,
2007-08-17, 05:06, -66.8, -70.973,
2007-08-17, 07:44, -66.818, -70.924,
2007-08-17, 08:58, -66.822, -70.95,
2007-08-17, 09:25, -66.804, -70.997,
2007-08-17, 19:44, -66.842, -70.879,
2007-08-17, 21:04, -66.835, -70.787,
2007-08-17, 23:08, -66.836, -70.725,
2007-08-18, 03:16, -66.87, -70.79,
2007-08-18, 09:47, -66.924, -70.676,
2007-08-18, 11:30, -66.939, -70.76,
2007-08-18, 17:00, -66.967, -70.812,
2007-08-18, 23:39, -66.908, -70.716,
2007-08-19, 01:05, -66.988, -70.691,
2007-08-19, 06:05, -66.98, -70.703,
2007-08-19, 08:09, -66.995, -70.687,
2007-08-19, 14:21, -67.001, -70.684,
2007-08-20, 02:18, -67.003, -70.743,
2007-08-20, 09:49, -67.129, -70.405,
2007-08-20, 13:56, -67.05, -70.742,
2007-08-20, 18:21, -67.048, -70.726,
2007-08-20, 20:29, -67.054, -70.814,
2007-08-20, 21:44, -67.072, -70.789,
2007-08-21, 01:13, -67.092, -70.862,
2007-08-21, 06:54, -67.096, -70.829,
2007-08-21, 09:29, -67.144, -70.784,
2007-08-21, 11:12, -67.129, -70.791,
2007-08-21, 15:19, -67.188, -70.757,
2007-08-21, 18:08, -67.198, -70.709,
2007-08-21, 19:54, -67.259, -70.989,
2007-08-21, 21:31, -67.19, -70.796,
2007-08-21, 23:58, -67.186, -70.737,
2007-08-22, 04:11, -67.218, -70.735,
2007-08-22, 06:17, -67.224, -70.755,
2007-08-22, 07:33, -67.233, -70.817,
2007-08-22, 09:56, -67.225, -70.828,
2007-08-22, 20:05, -67.257, -70.8,
2007-08-22, 21:20, -67.291, -70.761,
2007-08-23, 03:48, -67.259, -70.702,
2007-08-23, 07:58, -67.306, -70.647,
2007-08-23, 09:34, -67.357, -70.676,
2007-08-23, 11:08, -67.345, -70.747,
2007-08-23, 16:11, -67.338, -70.739,
2007-08-23, 19:49, -67.286, -70.664,
2007-08-23, 20:38, -67.271, -70.63,
2007-08-23, 22:51, -67.25, -70.589,
2007-08-24, 08:59, -67.186, -70.738,
2007-08-24, 12:31, -67.322, -70.589,
2007-08-24, 17:32, -67.206, -70.61,
2007-08-24, 21:02, -67.199, -70.89,
2007-08-25, 02:00, -67.133, -70.958,
2007-08-25, 21:34, -67.145, -71.089,
2007-08-26, 08:46, -67.095, -71.144,
2007-08-26, 10:04, -67.091, -71.219,
2007-08-26, 12:33, -67.172, -71.195,
2007-08-26, 19:03, -67.121, -71.065,
2007-08-26, 21:01, -67.121, -71.078,
2007-08-26, 22:20, -67.107, -71.182,
2007-08-27, 03:02, -67.085, -71.192,
2007-08-27, 03:38, -67.067, -71.164,
2007-08-27, 14:37, -67.104, -71.152,
2007-08-27, 18:53, -67.122, -71.172,
2007-08-28, 01:50, -67.124, -71.316,
2007-08-28, 03:14, -67.105, -71.243,
2007-08-28, 05:01, -67.041, -71.366,
2007-08-28, 10:02, -67.068, -71.313,
2007-08-29, 01:29, -67.123, -71.479,
2007-08-29, 09:56, -67.086, -71.699,
2007-08-29, 15:33, -67.146, -71.668,
2007-08-29, 16:45, -67.161, -71.675,
2007-08-29, 18:31, -67.134, -71.607,
2007-08-29, 21:41, -67.102, -71.73,
2007-08-29, 23:46, -67.094, -71.659,
2007-08-30, 01:02, -67.105, -71.689,
2007-08-30, 06:19, -67.152, -71.647,
2007-08-30, 06:51, -67.12, -71.717,
2007-08-30, 15:29, -67.139, -71.61,
2007-08-31, 10:30, -67.148, -71.839,
2007-08-31, 11:50, -67.148, -71.842,
2007-08-31, 13:04, -67.167, -71.883,
2007-08-31, 14:45, -67.17, -71.818,
2007-08-31, 16:25, -67.177, -71.803,
2007-08-31, 18:07, -67.202, -71.861,
2007-08-31, 20:01, -67.177, -71.904,
2007-08-31, 21:35, -67.179, -71.641,
2007-09-01, 00:07, -67.2, -71.984,
2007-09-01, 01:46, -67.08, -71.963,
2007-09-01, 03:30, -67.134, -71.947,
2007-09-01, 16:01, -67.194, -71.916,
2007-09-01, 21:30, -67.17, -72.075,
2007-09-01, 22:09, -67.167, -72.077,
2007-09-02, 04:47, -67.246, -72.136,
2007-09-02, 08:03, -67.271, -72.069,
2007-09-02, 13:57, -67.224, -71.882,
2007-09-02, 16:05, -67.245, -71.896,
2007-09-03, 00:47, -67.143, -71.651,
2007-09-03, 04:21, -67.082, -71.581,
2007-09-03, 07:08, -67.039, -71.557,
2007-09-03, 09:05, -67.01, -71.481,
2007-09-04, 00:20, -66.809, -70.962,
2007-09-04, 01:39, -66.783, -71.001,
2007-09-04, 02:23, -66.783, -70.9,
2007-09-04, 03:50, -66.74, -70.847,
2007-09-04, 08:19, -66.665, -70.635,
2007-09-04, 10:22, -66.674, -70.621,
2007-09-04, 13:49, -66.603, -70.736,
2007-09-04, 15:29, -66.555, -70.637,
2007-09-05, 00:18, -66.47, -70.276,
2007-09-05, 02:57, -66.417, -70.126,
2007-09-05, 10:15, -66.242, -69.871,
2007-09-05, 22:11, -66.256, -69.308,
2007-09-06, 00:52, -66.222, -69.16,
2007-09-06, 01:30, -66.198, -69.104,
2007-09-06, 08:23, -66.049, -68.833,
2007-09-06, 09:41, -66.003, -68.785,
2007-09-06, 15:43, -65.902, -68.464,
2007-09-06, 18:51, -65.803, -68.185,
2007-09-06, 20:07, -65.813, -68.317,
2007-09-07, 05:34, -65.616, -67.556,
2007-09-07, 08:07, -65.544, -67.716,
2007-09-07, 10:19, -65.472, -67.668,
2007-09-07, 11:58, -65.428, -67.521,
2007-09-07, 14:24, -65.3, -67.409,
2007-09-07, 15:19, -65.282, -67.412,
2007-09-07, 19:41, -65.169, -66.968,
2007-09-07, 22:00, -65.193, -67.229,
2007-09-08, 04:00, -64.977, -66.938,
2007-09-08, 04:37, -65.023, -66.955,
2007-09-08, 07:15, -64.952, -66.815,
2007-09-08, 07:57, -64.93, -66.85,
2007-09-08, 13:59, -64.809, -66.531,
2007-09-08, 21:05, -64.616, -66.288,
2007-09-09, 00:21, -64.53, -66.293,
2007-09-09, 02:58, -64.489, -65.948,
2007-09-09, 05:27, -64.395, -66.074,
2007-09-09, 07:10, -64.295, -66.029,
2007-09-09, 07:47, -64.321, -66.026,
2007-09-09, 10:10, -64.226, -66.109,
2007-09-09, 16:15, -64.173, -65.822,
2007-09-09, 20:36, -64.109, -65.687,
2007-09-09, 23:11, -64.088, -65.613,
2007-09-10, 04:16, -63.95, -65.389,
2007-09-10, 09:45, -63.778, -65.222,
2007-09-10, 18:10, -63.532, -64.705,
2007-09-11, 02:15, -63.39, -64.712,
2007-09-11, 07:25, -63.21, -64.708,
2007-09-11, 08:03, -63.216, -64.591,
2007-09-11, 13:06, -63.118, -65.09,
2007-09-11, 19:41, -62.943, -63.804,
2007-09-11, 21:10, -62.936, -64.034,
2007-09-12, 00:51, -62.887, -63.864,
2007-09-12, 05:23, -62.669, -63.7,
2007-09-12, 08:28, -62.526, -63.913,
2007-09-12, 15:03, -62.454, -63.123,
2007-09-12, 21:10, -62.524, -63.534,
2007-09-13, 01:24, -62.262, -62.991,
2007-09-13, 02:00, -62.251, -63,
2007-09-13, 05:12, -62.195, -62.692,
2007-09-13, 09:43, -62.004, -62.482,
2007-09-13, 10:23, -62.043, -62.4,
2007-09-13, 14:42, -62.022, -62.118,
2007-09-14, 06:51, -61.721, -60.944,
2007-09-14, 09:50, -61.788, -60.711,
2007-09-14, 17:20, -61.61, -60.844,
2007-09-15, 06:46, -61.415, -60.154,
2007-09-15, 13:18, -61.361, -59.827,
2007-09-15, 21:35, -61.252, -59.481,
2007-09-16, 03:02, -61.165, -59.06,
2007-09-16, 04:53, -61.133, -58.98,
2007-09-16, 07:56, -61.09, -58.784,
2007-09-16, 08:34, -61.058, -58.74,
2007-09-16, 17:02, -61.003, -58.313,
2007-09-16, 18:32, -60.99, -58.161,
2007-09-16, 22:04, -60.919, -57.918,
2007-09-16, 23:23, -60.891, -57.979,
2007-09-17, 01:18, -60.923, -57.788,
2007-09-17, 09:52, -60.806, -57.464,
2007-09-17, 20:12, -60.71, -57.118,
2007-09-17, 20:53, -60.695, -57.094,
2007-09-18, 02:50, -60.597, -56.888,
2007-09-18, 09:56, -60.494, -56.33,
2007-09-18, 16:46, -60.429, -56.423,
2007-09-18, 18:09, -60.502, -56.459,
2007-09-18, 23:42, -60.377, -56.28,
2007-09-19, 00:49, -60.369, -56.298,
2007-09-19, 17:52, -60.247, -55.839,
2007-09-19, 19:53, -60.194, -55.627,
2007-09-19, 21:42, -60.172, -55.475,
2007-09-20, 03:48, -60.068, -55.195,
2007-09-20, 08:55, -59.922, -55.187,
2007-09-20, 12:00, -59.883, -55.181,
2007-09-20, 19:48, -59.784, -54.981,
2007-09-20, 22:52, -59.767, -54.77,
2007-09-21, 02:06, -59.734, -54.535,
2007-09-21, 05:41, -59.648, -54.277,
2007-09-22, 04:39, -59.397, -53.576,
2007-09-22, 05:10, -59.372, -53.51,
2007-09-22, 15:59, -59.307, -53.214,
2007-09-22, 19:22, -59.27, -53.049,
2007-09-22, 20:42, -59.287, -53.077,
2007-09-22, 23:48, -59.292, -52.972,
2007-09-23, 06:39, -59.236, -52.959,
2007-09-23, 20:50, -59.138, -52.544,
2007-09-23, 22:11, -59.18, -52.491,
2007-09-24, 01:05, -59.225, -52.537,
2007-09-24, 23:57, -58.885, -51.468,
2007-09-25, 00:11, -58.867, -51.453,
2007-09-25, 04:37, -58.85, -51.063,
2007-09-26, 06:04, -58.51, -50.016,
2007-09-26, 18:44, -58.336, -49.272,
2007-09-26, 18:44, -58.336, -49.272,
2007-09-27, 10:50, -58.265, -48.297,
2007-09-27, 14:14, -57.982, -48.088,
2007-09-27, 20:10, -57.932, -48.241,
2007-09-28, 19:45, -57.731, -47.487,
2007-09-29, 19:16, -57.415, -46.392,
2007-09-29, 19:51, -57.432, -46.3,
2007-09-30, 00:02, -57.298, -45.666,
2007-10-01, 21:56, -56.669, -43.727,
2007-10-02, 00:51, -56.506, -43.357,
2007-10-03, 10:20, -55.727, -41.533,
2007-10-03, 12:00, -55.699, -41.447,
2007-10-03, 13:39, -55.658, -41.433,
2007-10-03, 15:53, -55.658, -41.63,
2007-10-04, 06:44, -55.409, -40.693,
2007-10-04, 11:37, -55.382, -39.881,
2007-10-06, 19:40, -54.265, -37.157,
2007-10-06, 19:55, -54.269, -37.18,
2007-10-06, 20:19, -54.267, -37.169,
2007-10-07, 03:55, -54.266, -37.164,
2007-10-07, 10:27, -54.281, -37.166,
2007-10-07, 10:38, -54.27, -37.167,
2007-10-07, 17:47, -54.306, -37.172,
2007-10-08, 00:12, -54.267, -37.177,
2007-10-08, 00:26, -54.269, -37.166,
2007-10-08, 07:02, -54.23, -37.438,
2007-10-09, 04:14, -54.272, -37.192,
2007-10-09, 11:20, -54.27, -37.171,
2007-10-09, 11:38, -54.268, -37.175,
2007-10-09, 18:07, -54.278, -37.184,
2007-10-10, 01:07, -54.268, -37.173,
2007-10-10, 01:25, -54.268, -37.173,
2007-10-11, 05:48, -54.269, -37.172,
2007-10-11, 12:15, -54.272, -37.191,
2007-10-11, 12:38, -54.28, -37.187,
2007-10-11, 19:28, -54.269, -37.168,
2007-10-11, 19:36, -54.268, -37.176,
2007-10-12, 02:03, -54.27, -37.156,
2007-10-12, 02:26, -54.278, -37.168,
2007-10-12, 23:29, -54.266, -37.178,
2007-10-12, 23:57, -54.268, -37.171,
2007-10-13, 06:05, -54.268, -37.18,
2007-10-13, 06:42, -54.268, -37.174,
2007-10-13, 13:09, -54.271, -37.169,
2007-10-13, 13:37, -54.285, -37.168,
2007-10-13, 20:27, -54.312, -37.431,
2007-10-14, 03:22, -54.266, -37.161,
2007-10-14, 17:16, -54.266, -37.165,
2007-10-15, 00:51, -54.27, -37.172,
2007-10-15, 07:32, -54.267, -37.175,
2007-10-15, 14:05, -54.278, -37.949,
2007-10-15, 21:20, -54.265, -37.171,
2007-10-16, 11:57, -54.268, -37.175,
2007-10-16, 18:36, -54.268, -37.174,
2007-10-17, 01:46, -54.271, -37.184,
2007-10-17, 08:27, -54.275, -37.177,
2007-10-17, 22:11, -54.269, -37.174,
2007-10-17, 22:30, -54.265, -37.175,
2007-10-18, 05:06, -54.268, -37.179,
2007-10-18, 19:02, -54.27, -37.195,
2007-10-19, 02:29, -54.268, -37.173,
2007-10-19, 02:39, -54.267, -37.171,
2007-10-19, 09:51, -54.27, -37.176,
2007-10-19, 16:24, -54.271, -37.186,
2007-10-19, 23:05, -54.27, -37.184,
2007-10-19, 23:40, -54.27, -37.175,
2007-10-20, 06:23, -54.27, -37.174,
2007-10-20, 20:18, -54.268, -37.176,
2007-10-20, 20:58, -54.271, -37.192,
2007-10-21, 03:32, -54.268, -37.169,
2007-10-21, 03:52, -54.269, -37.174,
2007-10-21, 17:44, -54.266, -37.166,
2007-10-22, 00:38, -54.269, -37.179,
2007-10-22, 07:41, -54.268, -37.174,
2007-10-22, 21:33, -54.264, -37.168,
2007-10-23, 11:48, -54.268, -37.176,
2007-10-23, 18:02, -54.273, -37.165,
2007-10-24, 08:59, -54.491, -36.981,
2007-10-24, 15:32, -54.274, -37.186,
2007-10-24, 22:50, -54.265, -37.178,
2007-10-25, 12:50, -54.28, -37.172,
2007-10-25, 19:02, -54.266, -37.172,
2007-10-25, 19:17, -54.269, -37.174,
2007-10-26, 02:56, -54.266, -37.187,
2007-10-26, 09:50, -54.27, -37.204,
2007-10-26, 23:36, -54.276, -37.173,
2007-10-27, 06:08, -54.27, -37.172,
2007-10-27, 06:43, -54.272, -37.173,
2007-10-28, 10:04, -54.274, -37.167,
2007-10-28, 10:41, -54.27, -37.173,
2007-10-30, 04:25, -54.269, -37.172,
2007-10-30, 04:30, -54.273, -37.18,
2007-10-31, 01:22, -54.271, -37.191,
2007-10-31, 15:58, -54.27, -37.19,
2007-11-01, 05:18, -54.274, -37.165,
2007-11-01, 05:42, -54.269, -37.174,
2007-11-01, 05:48, -54.269, -37.174,
2007-11-01, 12:04, -54.266, -37.183,
2007-11-01, 12:30, -54.271, -37.185,
2007-11-01, 19:09, -54.265, -37.178,
2007-11-02, 02:15, -54.268, -37.179,
2007-11-03, 04:56, -54.344, -37.379,
2007-11-06, 07:07, -56.437, -39.853,
2007-11-06, 08:04, -56.468, -39.788,
2007-11-07, 08:24, -56.951, -40.871,
2007-11-07, 13:33, -57.094, -41.298,
2007-11-08, 17:56, -57.659, -41.443